*
G04 Job   : D:\PD-Master\Mas\Mas100n1 ACB_0001_0\Mas100n1 PPC_PORTABILE R_0.pcb*
G04 User  : SHINA:Administrator*
G04 Layer : 4-Internal3.gbr*
G04 Date  : Thu Feb 04 15:45:07 2021*
G04 RSM MASTER DESIGN srl*
%ICAS*%
%MOMM*%
%FSLAX24Y24*%
%OFA0.0000B0.0000*%
G90*
G74*
%AMVB_RECTANGLE*
21,1,$1,$2,0,0,$3*
%
%ADD12C,0.08000*%
%ADD10C,0.15000*%
%ADD13C,0.20000*%
%ADD15C,0.35000*%
%ADD11C,0.50000*%
%ADD14C,0.50800*%
%ADD17C,1.52400*%
%ADD16VB_RECTANGLE,1.52400X1.52400X270.00000*%
G01*
G54D10*
X39580Y653020D02*
X39620Y653080D01*
X39630Y653150*
X39600Y653230*
X39560Y653290*
X39490Y653340*
X39420Y653360*
X39350*
X39280Y653320*
X38370Y652420*
X38340Y652390*
X38330Y652350*
X38310Y652330*
X37570Y650550*
X37560Y650520*
Y650490*
Y650480*
Y649120*
Y649100*
X37570Y649070*
Y649050*
X38330Y647290*
X38360Y647240*
X38390Y647220*
X39300Y646460*
X39310Y646450*
X39330*
X39350Y646430*
X39400Y646400*
X40790Y646230*
X40850*
X42100Y646390*
X42150Y646400*
X42160Y646410*
X42190Y646430*
X42200Y646440*
X42220Y646450*
X43110Y647200*
Y647220*
X43130Y647230*
X43160Y647260*
X43720Y648400*
X43730Y648450*
Y648520*
X43810Y650000*
Y650030*
Y650080*
X43630Y651830*
X43620Y651850*
Y651880*
Y651890*
X43270Y652930*
X47150Y652320*
Y646430*
X47170Y646360*
X47210Y646300*
X47280Y646270*
X47350Y646260*
X47430Y646270*
X47500Y646300*
X47540Y646360*
X47560Y646430*
Y652490*
X47540Y652580*
X47490Y652630*
X47440Y652680*
X47390Y652690*
X43010Y653380*
X42950*
X42910Y653360*
X42870Y653330*
X42830Y653290*
X42790Y653240*
X42770Y653190*
X42760Y653150*
X42780Y653100*
X43220Y651790*
X43390Y650050*
Y650030*
Y650020*
X43320Y648550*
X42790Y647460*
X42000Y646790*
X40820Y646650*
X39510Y646800*
X38700Y647490*
X37970Y649170*
Y650430*
X38680Y652150*
X39580Y653020*
X235800Y1011600D02*
X572700Y1348500D01*
X633850*
X635640Y1350290*
X674560*
X678140Y1346710*
X700760*
X749380Y1395330*
X894925*
X918961Y1371294*
X948050*
X994244Y1325100*
X1111221*
X1116131Y1320190*
X1177384*
X1177574Y1320000*
X239600Y1005800D02*
X314757Y1080957D01*
Y1084928*
X571119Y1341290*
X597560*
X601140Y1337710*
X639560*
X640140Y1338290*
X679060*
X682640Y1334710*
X722280*
X759960Y1372390*
X913623*
X917719Y1368294*
X946808*
X1002500Y1312602*
X244400Y1001000D02*
X317757Y1074357D01*
Y1083685*
X563661Y1329590*
X597410*
X601290Y1325710*
X640110*
X640590Y1326190*
X679610*
X683090Y1322710*
X722280*
X760070Y1360500*
X792050*
X793540Y1361990*
X946808*
X1002500Y1306298*
X248000Y994500D02*
X320757Y1067257D01*
Y1082443*
X552604Y1314290*
X679560*
X683140Y1310710*
X721950*
X759740Y1348500*
X829800*
X837590Y1356290*
X946808*
X1002500Y1300598*
X252500Y846500D02*
X283200D01*
X298150Y861450*
X333600*
X339400Y867250*
X348924*
X367790Y886116*
Y984008*
X363210Y988588*
Y1082469*
X445131Y1164390*
X593460*
X600140Y1157710*
X636563*
X643943Y1165090*
X671369*
X676449Y1160010*
X752836*
X775116Y1182290*
X875336*
X888426Y1169200*
X900584*
X907174Y1162610*
X981910*
X989300Y1170000*
X1002500*
X263000Y990300D02*
X323757Y1051057D01*
Y1081200*
X549947Y1307390*
X614010*
X618750Y1302650*
X679200*
X683140Y1298710*
X721950*
X747590Y1324350*
X783100*
X800400Y1341650*
X871050*
X875790Y1346390*
X946808*
X1002500Y1290698*
X269900Y953600D02*
X326757Y1010457D01*
Y1079957*
X516089Y1269290*
X639710*
X642450Y1266550*
X738050*
X743190Y1261410*
X781960*
X801840Y1281290*
X808384*
X809774Y1279900*
X833500*
X275400Y832600D02*
X285300D01*
X307000Y854300*
X348474*
X370790Y876616*
Y985251*
X366210Y989831*
Y1081227*
X444773Y1159790*
X572836*
X577816Y1154810*
X585607*
X585707Y1154710*
X637806*
X645186Y1162090*
X670127*
X675207Y1157010*
X731890*
X734090Y1154810*
X772360*
X775200Y1157650*
X780400*
X800140Y1177390*
X852860*
X862850Y1167400*
X878226*
X887216Y1158410*
X892610*
X895190Y1160990*
X900584*
X907174Y1154400*
X964600*
X294400Y877500D02*
X303150Y886250D01*
X324924*
X336155Y897481*
Y1076627*
X476027Y1216500*
X590200*
X601390Y1227690*
X637110*
X642390Y1222410*
X679760*
X682850Y1225500*
X786250*
X794040Y1233290*
X826660*
X839240Y1220710*
X872010*
X875590Y1224290*
X910010*
X914490Y1219810*
X981910*
X986700Y1224600*
X1002500*
X325000Y917800D02*
X333109Y925909D01*
Y1077825*
X490335Y1235050*
X596350*
X601800Y1240500*
X638850*
X640640Y1242290*
X681010*
X682690Y1240610*
X789510*
X794190Y1245290*
X834710*
X850200Y1229800*
X325200Y880000D02*
X337450Y892250D01*
X349324*
X364790Y907716*
Y982765*
X360210Y987345*
Y1083712*
X449198Y1172700*
X489000*
X347700Y840000D02*
X373790Y866090D01*
Y986493*
X369210Y991073*
Y1079984*
X446016Y1156790*
X571593*
X576573Y1151810*
X584364*
X591764Y1144410*
X644156*
X658836Y1159090*
X668884*
X682264Y1145710*
X787960*
X801440Y1159190*
X880526*
X887216Y1152500*
X892800*
X895690Y1149610*
X976436*
X986826Y1160000*
X1002500*
X348800Y898500D02*
X361790Y911490D01*
Y981523*
X357210Y986103*
Y1084955*
X449745Y1177490*
X536060*
X537840Y1175710*
X597560*
X604140Y1182290*
X679560*
X683140Y1178710*
X767293*
X774593Y1186010*
X789510*
X796490Y1192990*
X822993*
X828773Y1187210*
X849827*
X856907Y1194290*
X875336*
X886126Y1183500*
X892626*
X905616Y1170510*
X934860*
X936540Y1172190*
X953584*
X955774Y1170000*
X964600*
X350100Y955000D02*
X355790Y960690D01*
Y979037*
X351210Y983617*
Y1087440*
X473060Y1209290*
X598010*
X603090Y1204210*
X640510*
X645450Y1209150*
X677700*
X680840Y1212290*
X729960*
X735440Y1206810*
X772610*
X782790Y1216990*
X813360*
X816640Y1213710*
X827410*
X827490Y1213790*
X840960*
X845340Y1209410*
X869110*
X871990Y1212290*
X895110*
X899700Y1207700*
X961950*
X967040Y1202610*
X1002190*
X1002500Y1202300*
X403600Y155600D02*
X417690Y169690D01*
X452576*
X494476Y127790*
X616527*
X618407Y125910*
X693953*
X804953Y236910*
X1173708*
X1305188Y368390*
X1558590*
X1595900Y405700*
X445000Y161900D02*
X451881D01*
X498571Y115210*
X615284*
X619984Y119910*
X697008*
X808008Y230910*
X1176193*
X1307673Y362390*
X1766193*
X1773673Y354910*
X1834627*
X1861268Y381551*
Y405242*
X1906815Y450789*
Y584689*
X1919899Y597773*
Y802999*
X1963136Y846236*
Y906210*
X2000726Y943800*
X2022800*
X457600Y384800D02*
X476588D01*
X483158Y391370*
X509842*
X514599Y386613*
X560813*
X564200Y390000*
X472500Y580000D02*
Y571800D01*
X472400Y571700*
X537962Y1402936D02*
X348090Y1213065D01*
Y1195416*
X331224Y1178550*
X305376*
X280000Y1153174*
Y1117300*
X539204Y1399936D02*
X351090Y1211822D01*
Y1184950*
X300900Y1134760*
Y1097800*
X544200Y998600D02*
X560300Y982500D01*
X596050*
X600840Y977710*
X653860*
X654440Y978290*
X697110*
X703657Y971743*
X726757*
X740413Y958087*
X887913*
X897000Y949000*
X546000Y473200D02*
X552850Y480050D01*
X605602*
X644610Y519058*
Y519084*
X669036Y543510*
X674127*
X678827Y548210*
X722069*
X726109Y552250*
X887250*
X892500Y557500*
X556100Y485500D02*
X606809D01*
X641610Y520301*
Y520327*
X667793Y546510*
X672884*
X677584Y551210*
X720827*
X731967Y562350*
X897650*
X902500Y557500*
X561100Y415500D02*
X544900D01*
X531000Y401600*
X472400*
X561600Y423800D02*
X648626D01*
X654216Y418210*
X670393*
X682883Y430700*
X718250*
X725750Y438200*
X748700*
X758570Y448070*
X918344*
X939350Y469076*
Y472924*
X949636Y483210*
X956069*
X958649Y485790*
X1233327*
X1238707Y480410*
X1680820*
X1682210Y481800*
X1687000*
X573100Y599200D02*
X675664Y701764D01*
X784970*
X829916Y746710*
X872460*
X877250Y751500*
X895850*
X936640Y792290*
X1024516*
X1068376Y836150*
X1128648*
X1148688Y856190*
X1293690*
X1316990Y879490*
X1373693*
X1374673Y878510*
X1422084*
X1474350Y930776*
Y940324*
X1480016Y945990*
X1507110*
X1517190Y935910*
X1566960*
X1572160Y941110*
X1601822*
X1603122Y942410*
X1615284*
X1618090Y945216*
Y948434*
X1630526Y960870*
X1679571*
X1688831Y951610*
X1718836*
X1729056Y961830*
X1752299*
X1758079Y967610*
X1767384*
X1770190Y970416*
Y977464*
X1778316Y985590*
X1793748*
X1796548Y988390*
X1894345*
X1896345Y990390*
X1919207*
X1924187Y995370*
X1989185*
X1993412Y999597*
X2149771*
X2178610Y1028436*
Y1071136*
X2283748Y1176273*
Y1184564*
X2342573Y1243390*
X2405610*
X2441500Y1207500*
X642400Y601300D02*
Y628324D01*
X701966Y687890*
X821936*
X838616Y671210*
X942655*
X956735Y685290*
X1021536*
X1028616Y678210*
X1152084*
X1156690Y682816*
Y695464*
X1169126Y707900*
X1175900*
X667500Y438600D02*
X545774D01*
X540184Y444190*
X532790*
X528410Y439810*
X481990*
X477410Y444390*
X439416*
X375000Y379974*
Y359400*
X746200Y475800D02*
X728117D01*
X722507Y470190*
X680690*
X677110Y466610*
X579440*
X578460Y467590*
X515239*
X512639Y464990*
X494616*
X490236Y460610*
X468616*
X465810Y463416*
Y464580*
X454590Y475800*
X449800*
X749500Y582300D02*
X767300D01*
X772500Y587500*
X762500Y577500D02*
X732100D01*
X729810Y579790*
X691440*
X670740Y559090*
X667673*
X635610Y527027*
Y522786*
X606334Y493510*
X547264*
X534744Y480990*
X532373*
X531593Y480210*
X486140*
X485760Y480590*
X447816*
X440600Y473374*
Y467500*
X767000Y438600D02*
X797607D01*
X800197Y441190*
X938264*
X965084Y468010*
X1136936*
X1145016Y476090*
X1230299*
X1235379Y471010*
X1786899*
X1792199Y476310*
X1839384*
X1857274Y494200*
X1897100*
X772500Y477500D02*
X767500Y482500D01*
X760782*
X759382Y483900*
X745200*
X772500Y587500D02*
X777500Y582500D01*
X911450*
X930140Y563810*
X953184*
X1000213Y610839*
Y620613*
X1003600Y624000*
X782500Y477500D02*
Y472750D01*
X782000Y472250*
X780532*
X777500Y469218*
Y465782*
X774468Y462750*
X757678*
X751938Y468490*
X737740*
X729460Y460210*
X710340*
X708260Y462290*
X620040*
X613160Y455410*
X531290*
X529510Y457190*
X502890*
X498300Y452600*
X792500Y477500D02*
X787750Y482250D01*
X780532*
X777500Y479218*
Y475782*
X774468Y472750*
X760532*
X757482Y475800*
X746200*
X792500Y547500D02*
X787500Y542500D01*
X760782*
X758282Y540000*
X745900*
X806600Y1132500D02*
X845100D01*
X848790Y1128810*
X957860*
X970850Y1141800*
X995786*
X997986Y1144000*
X1002500*
X892500Y477500D02*
X897250Y472750D01*
X934933*
X948393Y486210*
X954827*
X957407Y488790*
X1234569*
X1239949Y483410*
X1679577*
X1688057Y491890*
X1836864*
X1849896Y504921*
Y901512*
X1896573Y948190*
X1952631*
X1959651Y955210*
X1971312*
X1975047Y958945*
X2045082*
X2067201Y981064*
X2152452*
X2188697Y1017310*
X2221491*
X2297681Y1093500*
X2500700*
X2517800Y1110600*
X892500Y497500D02*
X897500Y502500D01*
Y509218*
X900671Y512389*
X971563*
X984474Y525300*
X1089100*
X1120200Y556400*
X1441400*
X1461150Y576150*
X1709224*
X1840896Y707821*
Y919570*
X1875516Y954190*
X1950145*
X1957165Y961210*
X1968827*
X1972562Y964945*
X2042596*
X2064716Y987064*
X2149966*
X2187610Y1024708*
Y1046210*
X2210000Y1068600*
X894562Y1399936D02*
X539204D01*
X894562D02*
X920204Y1374294D01*
X949293*
X977822Y1345765*
X1093376*
X1103131Y1336010*
X1105731*
X1116131Y1325610*
X1196464*
X1202074Y1320000*
X895804Y1402936D02*
X537962D01*
X902500Y477500D02*
X919150D01*
X930860Y489210*
X953584*
X956164Y491790*
X1235812*
X1241192Y486410*
X1678335*
X1690785Y498861*
X1816353*
X1829743Y512250*
X1837824*
X1846896Y521321*
Y902755*
X1895331Y951190*
X1951388*
X1958408Y958210*
X1970069*
X1973804Y961945*
X2043839*
X2065958Y984064*
X2151209*
X2190610Y1023465*
Y1025384*
X2261726Y1096500*
X2495100*
X2519400Y1120800*
X907400Y1138800D02*
X904013Y1142187D01*
X861113*
X859710Y1143590*
X800490*
X790610Y1133710*
X682264*
X669684Y1146290*
X656736*
X644156Y1133710*
X601390*
X597710Y1137390*
X474340*
X438200Y1101250*
X400276*
X372210Y1073184*
Y1004440*
X379190Y997460*
Y859790*
X346900Y827500*
X911500Y793500D02*
X933607D01*
X935397Y795290*
X1023273*
X1067133Y839150*
X1127405*
X1147445Y859190*
X1281690*
X1300950Y878450*
X1309024*
X1319864Y889290*
X1368384*
X1372200Y885474*
Y885326*
X1376016Y881510*
X1420022*
X1461910Y923398*
Y933874*
X1464100Y936064*
Y945674*
X1467416Y948990*
X1533584*
X1537500Y945074*
Y941926*
X1540516Y938910*
X1544484*
X1547350Y941776*
Y943124*
X1550316Y946090*
X1590241*
X1592221Y944110*
X1600579*
X1607884Y951415*
X1610740*
X1623196Y963870*
X1680813*
X1690073Y954610*
X1717593*
X1727813Y964830*
X1751056*
X1774816Y988590*
X1792505*
X1795305Y991390*
X1893102*
X1895672Y993960*
X1918534*
X1933324Y1008750*
X1941250*
X1956490Y1023990*
X1983230*
X1986360Y1020860*
X2121534*
X2256900Y1156226*
Y1312000*
X2276700Y1331800*
X940200Y874000D02*
X978235Y912035D01*
X1076709*
X1082274Y917600*
X1136500*
X951600Y471400D02*
X979626D01*
X980016Y471010*
X1135693*
X1143773Y479090*
X1231541*
X1236621Y474010*
X1785657*
X1797537Y485890*
X1839349*
X1855896Y502436*
Y888270*
X1907416Y939790*
X1962360*
X1963140Y939010*
X1986791*
X2000726Y952945*
X2047567*
X2069686Y975064*
X2155566*
X2190512Y1010010*
X2222677*
X2300167Y1087500*
X2523300*
X951600Y478400D02*
X968226D01*
X970416Y476210*
X975010*
X980890Y482090*
X1232784*
X1237864Y477010*
X1784414*
X1796294Y488890*
X1838107*
X1852896Y503679*
Y900270*
X1897816Y945190*
X1953873*
X1960893Y952210*
X1972555*
X1976290Y955945*
X2046324*
X2068444Y978064*
X2153694*
X2188640Y1013010*
X2221434*
X2298924Y1090500*
X2501943*
X2508843Y1097400*
X2522900*
X954700Y969900D02*
X970300Y954300D01*
X1069600*
X960000Y873700D02*
X995335Y909035D01*
X1077952*
X1081317Y912400*
X1117000*
X962000Y1198600D02*
X973163D01*
X988353Y1183410*
X1002500*
X968800Y1240900D02*
X951410Y1258290D01*
X899190*
X891410Y1250510*
X842690*
X823810Y1269390*
X801490*
X788310Y1256210*
X702240*
X698160Y1260290*
X655240*
X650200Y1255250*
X605100*
X596900Y1247050*
X498092*
X330109Y1079067*
Y935409*
X324700Y930000*
X980200Y1146600D02*
X995786D01*
X996196Y1147010*
X1002500*
X993200Y585000D02*
X969010Y560810D01*
X914916*
X908180Y567546*
Y568538*
X904468Y572250*
X737624*
X719584Y554210*
X695190*
X693310Y556090*
X668916*
X638610Y525784*
Y521544*
X607356Y490290*
X548287*
X535987Y477990*
X533616*
X532836Y477210*
X520616*
X511396Y467990*
X493373*
X490783Y465400*
X470600*
X1000300Y873800D02*
X1031700Y905200D01*
X1130000*
X1002500Y1144000D02*
X1088157D01*
X1090500Y1141657*
Y1104000*
X1094500Y1100000*
X1002500Y1147010D02*
X1013384D01*
X1018374Y1152000*
X1240157*
X1242500Y1149657*
Y1144000*
X1246500Y1140000*
X1002500Y1160000D02*
X1242500D01*
X1246500Y1164000*
X1002500Y1170000D02*
X1012609D01*
X1018609Y1176000*
X1138500*
X1146500Y1168000*
X1248157*
X1250500Y1165657*
Y1160000*
X1246500Y1156000*
X1002500Y1179990D02*
X974440D01*
X969960Y1175510*
X939090*
X932350Y1182250*
X914050*
X908400Y1187900*
X889126*
X870736Y1206290*
X858216*
X853900Y1201974*
Y1195526*
X848584Y1190210*
X830016*
X815236Y1204990*
X795990*
X788300Y1197300*
X776100*
X769510Y1190710*
X683040*
X679660Y1194090*
X640540*
X640160Y1193710*
X601140*
X597560Y1197290*
X465303*
X354210Y1086197*
Y984860*
X358790Y980280*
Y933690*
X348600Y923500*
X1002500Y1183410D02*
X1260990D01*
X1265300Y1179100*
X1282500*
X1002500Y1202300D02*
X1012800Y1192000D01*
X1264157*
X1265557Y1193400*
X1282500*
X1002500Y1214200D02*
X969800D01*
X1002500Y1224600D02*
X1011350D01*
X1015600Y1228850*
X1021459*
X1024609Y1232000*
X1264157*
X1264557Y1232400*
X1282500*
X1002500Y1290698D02*
X1013198Y1280000D01*
X1138500*
X1146500Y1272000*
X1269291*
X1274681Y1266610*
X1282500*
X1002500Y1300598D02*
X1015098Y1288000D01*
X1138500*
X1146500Y1280000*
X1265626*
X1271326Y1285700*
X1282500*
X1002500Y1306298D02*
X1012798Y1296000D01*
X1138500*
X1146500Y1288000*
X1265626*
X1274616Y1296990*
X1282500*
X1002500Y1312602D02*
X1008997Y1306105D01*
X1136395*
X1146500Y1296000*
X1269031*
X1273021Y1299990*
X1282500*
X1016750Y1080000D02*
X1024157D01*
X1026500Y1082343*
Y1085657*
X1028843Y1088000*
X1032157*
X1034500Y1090343*
Y1093657*
X1036843Y1096000*
X1082500*
X1086500Y1100000*
X1070500Y1276000D02*
X1074500Y1272000D01*
X1082500*
X1086500Y1276000*
X1084050Y1040000D02*
X1086500Y1037550D01*
Y1031883*
X1119906Y998477*
X1128497*
X1142824Y984150*
X1181150*
X1187990Y977310*
X1260460*
X1262940Y979790*
X1268610*
X1274190Y974210*
X1278584*
X1285184Y980810*
X1299075*
X1301555Y983290*
X1379336*
X1394916Y967710*
X1398884*
X1403990Y972816*
Y986664*
X1410516Y993190*
X1428027*
X1441027Y980190*
X1510427*
X1512807Y977810*
X1539807*
X1543007Y974610*
X1608567*
X1615127Y981170*
X1687979*
X1690019Y979130*
X1743537*
X1770210Y1005803*
Y1006984*
X1778462Y1015236*
X1791338*
X1796587Y1020485*
X1882659*
X1892390Y1030216*
Y1038564*
X1903816Y1049990*
X1907784*
X1922974Y1034800*
X1960400*
X1086500Y1060000D02*
X1083672Y1057172D01*
Y1040378*
X1084050Y1040000*
X1086500Y1244000D02*
X1090500Y1248000D01*
X1232157*
X1234500Y1250343*
Y1253657*
X1236843Y1256000*
X1248157*
X1250500Y1253657*
Y1250343*
X1252843Y1248000*
X1274000*
X1281800Y1255800*
X1088000Y212700D02*
X794041D01*
X698251Y116910*
X621227*
X616527Y112210*
X497328*
X470138Y139400*
X410000*
X394400Y155000*
X1092550Y1040000D02*
X1089810Y1037260D01*
Y1032816*
X1119382Y1003244*
X1131940*
X1146883Y988300*
X1199674*
X1201864Y986110*
X1254355*
X1255135Y986890*
X1267569*
X1270649Y983810*
X1297833*
X1300313Y986290*
X1385686*
X1393966Y978010*
X1398184*
X1400990Y980816*
Y987907*
X1409273Y996190*
X1429269*
X1441649Y983810*
X1511049*
X1514049Y980810*
X1555410*
X1562600Y988000*
X1094500Y1068000D02*
X1090500Y1064000D01*
Y1053159*
X1093290Y1050369*
Y1040740*
X1092550Y1040000*
X1099800D02*
Y1046709D01*
X1098500Y1048009*
Y1080000*
X1094500Y1084000*
X1102400Y795600D02*
X1126190Y771810D01*
X1511610*
X1558433Y818633*
X1587518*
X1604476Y835590*
X1655584*
X1682574Y808600*
X1799200*
X1102500Y1276000D02*
X1098500Y1272000D01*
X1090500*
X1086500Y1276000*
X1102500D02*
X1110500D01*
X1107600Y684800D02*
X1100300Y692100D01*
X1077650*
X1040040Y729710*
X940232*
X928442Y741500*
X917000*
X1109790Y1040000D02*
Y1030765D01*
X1122345Y1018210*
X1127607*
X1131827Y1013990*
X1151784*
X1170764Y995010*
X1201449*
X1204349Y992110*
X1251869*
X1257749Y997990*
X1291308*
X1291688Y997610*
X1306539*
X1316719Y1007790*
X1352116*
X1359916Y1015590*
X1363884*
X1369184Y1010290*
X1375033*
X1380133Y1005190*
X1432997*
X1436677Y1001510*
X1515336*
X1515516Y1001690*
X1519484*
X1528364Y992810*
X1547908*
X1556888Y1001790*
X1570636*
X1579216Y993210*
X1635660*
X1640000Y997550*
X1711476*
X1721456Y1007530*
X1758028*
X1777908Y1027410*
X1790784*
X1793590Y1030216*
Y1035007*
X1798573Y1039990*
X1847036*
X1859816Y1027210*
X1874810*
X1887600Y1040000*
X1110500Y1076000D02*
X1107000Y1072500D01*
Y1048709*
X1109790Y1045919*
Y1040000*
X1110500Y1084000D02*
X1114500Y1088000D01*
X1224157*
X1226500Y1085657*
Y1082121*
X1228621Y1080000*
X1271291*
X1272481Y1081190*
X1282500*
X1110500Y1276000D02*
X1114500Y1272000D01*
X1122500*
X1126500Y1276000*
X1113100Y795700D02*
X1133990Y774810D01*
X1500010*
X1531400Y806200*
X1115500Y1040000D02*
Y1055000D01*
X1110500Y1060000*
X1118500Y1040000D02*
Y1030541D01*
X1124831Y1024210*
X1130092*
X1133692Y1020610*
X1154360*
X1164180Y1010790*
X1180769*
X1190549Y1001010*
X1203935*
X1206835Y998110*
X1249384*
X1255264Y1003990*
X1293793*
X1294173Y1003610*
X1304053*
X1316453Y1016010*
X1351540*
X1357720Y1022190*
X1369483*
X1373883Y1026590*
X1404065*
X1417845Y1012810*
X1434240*
X1439540Y1007510*
X1512851*
X1513031Y1007690*
X1521969*
X1522349Y1007310*
X1553923*
X1554403Y1007790*
X1567290*
X1572000Y1012500*
X1118500Y1060000D02*
Y1040000D01*
Y1084000D02*
X1122500Y1080000D01*
X1208157*
X1210500Y1077657*
Y1074343*
X1212843Y1072000*
X1216157*
X1218500Y1069657*
Y1066343*
X1220843Y1064000*
X1265091*
X1268581Y1067490*
X1274810*
X1282100Y1060200*
X1282500*
X1122500Y1040000D02*
Y1064000D01*
X1118500Y1068000*
X1123200Y795600D02*
X1140990Y777810D01*
X1496236*
X1541744Y823318*
X1574818*
X1593900Y842400*
X1123500Y900300D02*
X1046900D01*
X1020000Y873400*
X1126500Y1040000D02*
Y1060000D01*
Y1124000D02*
X1130500Y1128000D01*
X1265491*
X1270681Y1133190*
X1275828*
X1278428Y1135790*
X1282500*
X1132026Y1040000D02*
X1130500Y1041526D01*
Y1064000*
X1126500Y1068000*
X1134500Y1116000D02*
X1138500Y1120000D01*
X1260691*
X1262281Y1118410*
X1270784*
X1273310Y1120936*
X1282500*
X1134500Y1252000D02*
X1142500Y1260000D01*
X1182500*
X1136200Y824200D02*
X1130990Y818990D01*
Y805373*
X1126117Y800500*
X1061326*
X1012196Y751370*
X908448*
X899090Y742012*
Y733716*
X891184Y725810*
X878390*
X871610Y732590*
X830281*
X788581Y690890*
X700723*
X625600Y615767*
Y599500*
X1142700Y1040000D02*
Y1051800D01*
X1134500Y1060000*
X1149200Y751400D02*
X1178957D01*
X1192547Y737810*
X1499260*
X1507240Y745790*
X1736184*
X1736674Y745300*
X1826900*
X1149200Y825400D02*
X1142610Y831990D01*
X1132973*
X1122290Y821307*
Y816516*
X1114784Y809010*
X1103007*
X1098927Y813090*
X1092473*
X1088593Y809210*
X1061551*
X1041631Y789290*
X937883*
X893090Y744497*
Y743516*
X890284Y740710*
X829916*
X786946Y697740*
X687640*
X602500Y612600*
X1150500Y1068000D02*
X1154500Y1064000D01*
Y1058343*
X1167153Y1045690*
X1168284*
X1173974Y1040000*
X1151900Y684800D02*
X1141350Y695350D01*
X1112250*
X1070240Y737360*
X1027216*
X1023076Y741500*
X942400*
X1154400Y787800D02*
X1171026D01*
X1173216Y785610*
X1177184*
X1180800Y789226*
Y795074*
X1190716Y804990*
X1270090*
X1290159Y825059*
X1511933*
X1527190Y840316*
Y844284*
X1524384Y847090*
X1520190*
X1515000Y841900*
X1158500Y1060000D02*
Y1058808D01*
X1168618Y1048690*
X1169527*
X1175607Y1042610*
X1183607*
X1186217Y1040000*
X1158500Y1068000D02*
X1162500Y1064000D01*
Y1059050*
X1167455Y1054095*
X1177979*
X1189464Y1042610*
X1205090*
X1207700Y1040000*
X1158743D02*
X1142500Y1056243D01*
Y1064950*
X1135450Y1072000*
X1130500*
X1126500Y1076000*
X1162985Y1040000D02*
X1150500Y1052485D01*
Y1060000*
X1171100Y703100D02*
X1159690Y691690D01*
Y681573*
X1153327Y675210*
X1027373*
X1020293Y682290*
X957978*
X943898Y668210*
X837373*
X820693Y684890*
X703209*
X649900Y631581*
Y601400*
X1173974Y1040000D02*
X1174374Y1039600D01*
X1182374*
X1191964Y1030010*
X1197984*
X1199564Y1031590*
X1232995*
X1237975Y1026610*
X1251236*
X1264626Y1040000*
X1175200Y759400D02*
X1178587Y756013D01*
X1178777Y756203*
X1386997*
X1394690Y748510*
X1440360*
X1448800Y756950*
X1737750*
X1766000Y785200*
X1814800*
X1175200Y790400D02*
Y795190D01*
X1188000Y807990*
X1268847*
X1288917Y828059*
X1508159*
X1522400Y842300*
X1177574Y1320000D02*
X1186900Y1310674D01*
Y1310126*
X1193026Y1304000*
X1258391*
X1261981Y1300410*
X1269198*
X1271778Y1302990*
X1282500*
X1186217Y1040000D02*
X1186607Y1039610D01*
X1203847*
X1207047Y1036410*
X1232995*
X1239795Y1029610*
X1249993*
X1260383Y1040000*
X1186400Y789100D02*
X1191190D01*
X1193810Y791720*
Y792384*
X1203416Y801990*
X1271333*
X1289933Y820590*
X1489510*
X1494400Y815700*
X1202074Y1320000D02*
X1206800Y1315274D01*
Y1311026*
X1209616Y1308210*
X1254910*
X1257000Y1310300*
X1282500*
X1206500Y1076000D02*
Y1072000D01*
X1208157*
X1210500Y1069657*
Y1064000*
X1214500Y1060000*
X1207700Y1040000D02*
X1208290Y1039410D01*
X1234237*
X1241037Y1032610*
X1248751*
X1256141Y1040000*
X1214500Y1060000D02*
X1218500D01*
Y1058343*
X1220843Y1056000*
X1256157*
X1257347Y1057190*
X1282500*
X1214500Y1084000D02*
Y1080000D01*
X1216157*
X1224157Y1072000*
X1268691*
X1272681Y1075990*
X1282210*
X1282500Y1075700*
X1232400Y1427400D02*
X1187174D01*
X1176774Y1417000*
X1066000*
X1053410Y1404410*
X1035416*
X1034626Y1405200*
X1000900*
X1238500Y1092000D02*
X1242500Y1088000D01*
X1262391*
X1266201Y1084190*
X1282500*
X1238500Y1204000D02*
X1242500Y1208000D01*
X1272791*
X1277981Y1213190*
X1282500*
X1246500Y1260000D02*
X1242500Y1264000D01*
X1186500*
X1182500Y1260000*
X1256141Y1040000D02*
X1264331Y1048190D01*
X1282500*
X1260383Y1040000D02*
X1265573Y1045190D01*
X1282500*
X1264626Y1040000D02*
X1266816Y1042190D01*
X1282500*
X1271000Y601400D02*
X1090100D01*
X1027310Y538610*
X913262*
X909622Y542250*
X900532*
X897500Y539218*
Y535782*
X889218Y527500*
X827500*
X812750Y512750*
X738278*
X736638Y514390*
X677390*
X665500Y502500*
X1282500Y1042190D02*
X1283784D01*
X1289364Y1036610*
X1303112*
X1306712Y1040210*
X1332493*
X1339309Y1047025*
X1343987*
X1346552Y1049590*
X1361269*
X1378469Y1066790*
X1410312*
X1431492Y1045610*
X1439784*
X1443000Y1048826*
Y1049374*
X1446216Y1052590*
X1450184*
X1465364Y1037410*
X1501784*
X1510600Y1046226*
Y1055600*
X1282500Y1045190D02*
X1285027D01*
X1290607Y1039610*
X1301869*
X1305469Y1043210*
X1331251*
X1338451Y1050410*
X1343129*
X1345509Y1052790*
X1360227*
X1377227Y1069790*
X1411555*
X1414555Y1066790*
X1441593*
X1467973Y1040410*
X1478384*
X1489800Y1051826*
Y1068600*
X1282500Y1048190D02*
X1286269D01*
X1291849Y1042610*
X1300627*
X1310827Y1052810*
X1329169*
X1329769Y1053410*
X1341887*
X1344267Y1055790*
X1358984*
X1375984Y1072790*
X1412797*
X1415797Y1069790*
X1442836*
X1458526Y1054100*
X1475600*
X1282500Y1051190D02*
X1263088D01*
X1254308Y1042410*
X1209533*
X1206333Y1045610*
X1191233*
X1176843Y1060000*
X1166500*
X1282500Y1054190D02*
X1258590D01*
X1257400Y1053000*
X1218374*
X1215779Y1055595*
X1194905*
X1190500Y1060000*
X1282500Y1057190D02*
X1289997D01*
X1290877Y1056310*
X1304027*
X1306527Y1058810*
X1326684*
X1332244Y1064370*
X1332669*
X1339090Y1070790*
X1348784*
X1352074Y1067500*
X1358500*
X1282500Y1060200D02*
X1291230D01*
X1292120Y1059310*
X1302784*
X1311864Y1068390*
X1332447*
X1356267Y1092210*
X1511836*
X1521126Y1101500*
X1531800*
X1282500Y1075700D02*
X1294100Y1064100D01*
X1300800*
X1282500Y1081190D02*
X1295693D01*
X1297473Y1079410*
X1308143*
X1315943Y1071610*
X1327984*
X1342100Y1085726*
Y1090674*
X1346636Y1095210*
X1392833*
X1402413Y1104790*
X1443460*
X1445240Y1103010*
X1517846*
X1521126Y1106290*
X1565484*
X1581164Y1090610*
X1598010*
X1627290Y1061330*
X1741722*
X1742842Y1062450*
X1752000*
X1785300Y1095750*
X1799150*
X1819550Y1116150*
X1828300*
X1857350Y1145200*
X1864900*
X1282500Y1084190D02*
X1296936D01*
X1298716Y1082410*
X1309933*
X1315943Y1076400*
X1326000*
X1282500Y1096790D02*
X1267181D01*
X1266391Y1096000*
X1242500*
X1238500Y1100000*
X1282500Y1110690D02*
X1280557D01*
X1277467Y1107600*
X1270091*
X1266491Y1104000*
X1146500*
X1138500Y1096000*
X1114500*
X1110500Y1092000*
X1282500Y1117090D02*
X1274823D01*
X1269733Y1112000*
X1146500*
X1138500Y1104000*
X1122500*
X1118500Y1100000*
X1282500Y1120936D02*
X1285710D01*
X1287836Y1118810*
X1327560*
X1328540Y1119790*
X1344610*
X1346390Y1118010*
X1406684*
X1419264Y1130590*
X1586836*
X1608729Y1108697*
X1626269*
X1627256Y1107710*
X1704184*
X1708346Y1111872*
X1736614*
X1744932Y1120190*
X1755364*
X1795000Y1159826*
Y1165074*
X1798016Y1168090*
X1871984*
X1874950Y1165124*
Y1161476*
X1895639Y1140787*
X1896713*
X1900100Y1137400*
X1282500Y1143398D02*
X1275292Y1136190D01*
X1270773*
X1270583Y1136000*
X1226500*
X1222500Y1140000*
X1282500Y1149610D02*
X1271233D01*
X1258500Y1162343*
Y1173657*
X1256157Y1176000*
X1218400*
X1214500Y1172100*
Y1172000*
X1282500Y1157000D02*
X1280933D01*
X1266555Y1171378*
Y1172895*
X1259460Y1179990*
X1002500*
X1282500Y1172600D02*
X1271400D01*
X1282500Y1179100D02*
X1288300D01*
X1300000Y1167400*
X1282500Y1193400D02*
X1289600D01*
X1282500Y1200000D02*
X1020359D01*
X1010059Y1210300*
X1008526*
X1004626Y1214200*
X1002500*
X1282500Y1213190D02*
X1293160D01*
X1296500Y1209850*
X1305450*
X1316900Y1198400*
X1343100*
X1345090Y1196410*
X1458190*
X1476390Y1178210*
X1566927*
X1590927Y1202210*
X1618551*
X1625551Y1209210*
X1685297*
X1689377Y1213290*
X1715193*
X1744473Y1184010*
X1763407*
X1763907Y1183510*
X1778376*
X1786456Y1191590*
X1809560*
X1809940Y1191210*
X1818960*
X1822440Y1194690*
X1855110*
X1861600Y1188200*
X1282500Y1219690D02*
X1280239D01*
X1272549Y1212000*
X1262500*
X1282500Y1232400D02*
X1292200D01*
X1282500Y1266610D02*
X1289860D01*
X1294350Y1271100*
X1323100*
X1282500Y1285700D02*
X1284400D01*
X1290900Y1292200*
X1310400*
X1282500Y1296990D02*
X1317593D01*
X1325873Y1288710*
X1332753*
X1335543Y1291500*
X1344600*
X1282500Y1299990D02*
X1318836D01*
X1327116Y1291710*
X1331510*
X1336500Y1296700*
X1282500Y1302990D02*
X1288916D01*
X1303916Y1317990*
X1307884*
X1325713Y1300161*
Y1299887*
X1329100Y1296500*
X1282500Y1310300D02*
X1291983D01*
X1302673Y1320990*
X1309127*
X1324107Y1306010*
X1427431*
X1446831Y1286610*
X1540012*
X1605110Y1351708*
Y1358384*
X1619626Y1372900*
X1717500*
X1284400Y1157000D02*
X1282500D01*
X1294500Y886000D02*
X1288810Y891690D01*
X1270390*
X1268310Y889610*
X1251490*
X1239310Y901790*
X1222616*
X1220426Y899600*
X1211600*
X1297400Y1050400D02*
X1292545D01*
X1288755Y1054190*
X1282500*
X1326000Y1084200D02*
X1316700Y1093500D01*
X1289450*
X1286160Y1096790*
X1282500*
X1326000Y1170000D02*
X1321210D01*
X1312100Y1179110*
Y1188074*
X1300174Y1200000*
X1282500*
X1333800Y1203900D02*
X1358326D01*
X1360416Y1205990*
X1367584*
X1372764Y1200810*
X1585285*
X1589685Y1205210*
X1617308*
X1624308Y1212210*
X1684055*
X1688135Y1216290*
X1716436*
X1745716Y1187010*
X1764649*
X1765149Y1186510*
X1777133*
X1779939Y1189316*
Y1197061*
X1775800Y1201200*
X1333800Y1219400D02*
X1359183D01*
X1366593Y1211990*
X1370069*
X1375249Y1206810*
X1582799*
X1587199Y1211210*
X1614823*
X1621823Y1218210*
X1681569*
X1685649Y1222290*
X1728503*
X1749593Y1201200*
X1762800*
X1335300Y871700D02*
Y866910D01*
X1330821Y862431*
X1324381*
X1312140Y850190*
X1182990*
X1164800Y832000*
X1341600Y998400D02*
X1356883D01*
X1365773Y1007290*
X1373790*
X1378890Y1002190*
X1431755*
X1444135Y989810*
X1513535*
X1516535Y986810*
X1550393*
X1559373Y995790*
X1566439*
X1581619Y980610*
X1606081*
X1612641Y987170*
X1690465*
X1692505Y985130*
X1741052*
X1764210Y1008288*
Y1009469*
X1775977Y1021236*
X1788853*
X1796590Y1028973*
Y1033764*
X1799816Y1036990*
X1845793*
X1858573Y1024210*
X1879610*
X1887600Y1032200*
X1345090Y1138390D02*
X1346596Y1139896D01*
X1370554*
X1373840Y1136610*
X1548210*
X1551490Y1139890*
X1345090Y1138390D02*
X1342900Y1136200D01*
X1329100*
X1326710Y1133810*
X1313090*
X1311110Y1135790*
X1282500*
X1356200Y537100D02*
X1346100Y527000D01*
X1120200*
X1107300Y514100*
X977517*
X972806Y509389*
X923415*
X918150Y504124*
Y503176*
X907724Y492750*
X756078*
X752638Y496190*
X744216*
X733200Y485174*
Y485126*
X722184Y474110*
X710590*
X690950Y493750*
X661350*
X651800Y503300*
X1378000Y886300D02*
X1420569D01*
X1454410Y920141*
Y931284*
X1459190Y936064*
Y945007*
X1466173Y951990*
X1534827*
X1537407Y949410*
X1591163*
X1593463Y947110*
X1599337*
X1606641Y954415*
X1608594*
X1621050Y966870*
X1682056*
X1684326Y964600*
X1696774*
X1699374Y962000*
X1708200*
X1385800Y1177800D02*
X1361800D01*
X1346200Y1193400*
X1326000*
X1388400Y1107600D02*
X1395810Y1115010D01*
X1407927*
X1418307Y1125390*
X1429110*
X1433490Y1121010*
X1554379*
X1558759Y1125390*
X1572384*
X1592364Y1105410*
X1625313*
X1626013Y1104710*
X1705427*
X1707807Y1107090*
X1736614*
X1739724Y1110200*
X1752400*
X1775800Y1133600*
X1398100Y997200D02*
X1378890D01*
X1371800Y1004290*
X1367016*
X1356314Y993588*
X1299126*
X1297137Y991600*
X1291800*
X1411200Y987100D02*
X1406990Y982890D01*
Y971573*
X1400127Y964710*
X1393673*
X1378093Y980290*
X1302798*
X1300318Y977810*
X1286427*
X1279827Y971210*
X1269990*
X1266200Y975000*
X1419600Y980200D02*
Y972674D01*
X1403550Y956624*
Y955876*
X1399084Y951410*
X1395116*
X1392310Y954216*
Y954407*
X1379027Y967690*
X1285916*
X1281800Y963574*
Y917800*
X1266200Y902200*
X1424800Y985400D02*
Y964326D01*
X1408884Y948410*
X1393873*
X1389310Y952973*
Y953164*
X1377784Y964690*
X1357216*
X1354300Y961774*
Y957526*
X1348784Y952010*
X1322990*
X1313410Y961590*
X1300616*
X1286350Y947324*
Y914550*
X1266200Y894400*
X1424800Y1029600D02*
X1396610Y1057790D01*
X1383869*
X1363269Y1037190*
X1351507*
X1345327Y1031010*
X1310240*
X1305840Y1026610*
X1259721*
X1253721Y1020610*
X1235489*
X1230509Y1025590*
X1202049*
X1200469Y1024010*
X1188763*
X1185763Y1027010*
X1169173*
X1161510Y1034673*
Y1037233*
X1158743Y1040000*
X1443000Y938700D02*
X1429151D01*
X1427261Y940590*
X1381564*
X1379984Y939010*
X1376016*
X1373826Y941200*
X1307800*
X1458600Y1060800D02*
X1446610Y1072790D01*
X1417040*
X1414040Y1075790*
X1373564*
X1358984Y1061210*
X1343790*
X1342010Y1062990*
X1335532*
X1333912Y1061370*
X1333487*
X1327927Y1055810*
X1309584*
X1299384Y1045610*
X1293092*
X1287512Y1051190*
X1282500*
X1469000Y1162200D02*
X1476010Y1169210D01*
X1567860*
X1594650Y1196000*
X1632800*
X1477800Y996700D02*
X1505000D01*
X1482000Y1021800D02*
X1456617D01*
X1448827Y1029590*
X1431564*
X1426784Y1024810*
X1422816*
X1408350Y1039276*
Y1040324*
X1393884Y1054790*
X1385112*
X1364512Y1034190*
X1352749*
X1346569Y1028010*
X1311483*
X1307083Y1023610*
X1260964*
X1254964Y1017610*
X1234247*
X1229267Y1022590*
X1203292*
X1201712Y1021010*
X1187520*
X1184520Y1024010*
X1167931*
X1159331Y1032610*
X1147216*
X1142700Y1037126*
Y1040000*
X1490000Y1243200D02*
X1484710Y1248490D01*
X1466890*
X1459010Y1240610*
X1406764*
X1397584Y1249790*
X1379330*
X1376330Y1252790*
X1365616*
X1363426Y1250600*
X1336400*
X1490000Y1243200D02*
X1501700Y1231500D01*
X1579443*
X1588943Y1222000*
X1601600*
X1500200Y842400D02*
X1495510Y837710D01*
X1288905*
X1267605Y816410*
X1187525*
X1178025Y806910*
X1164136*
X1152926Y795700*
X1146600*
X1505000Y996700D02*
X1510926D01*
X1517816Y989810*
X1549151*
X1558131Y998790*
X1567681*
X1581071Y985400*
X1599000*
X1508000Y842400D02*
X1499659Y834059D01*
X1289497*
X1268847Y813410*
X1188767*
X1179267Y803910*
X1167910*
X1162200Y798200*
X1518400Y813800D02*
X1544110Y839510D01*
X1545410*
X1554590Y848690*
X1655304*
X1684884Y819110*
X1765860*
X1775650Y828900*
X1801800*
X1829600Y856700*
X1519100Y1046200D02*
X1504310Y1031410D01*
X1453007*
X1448827Y1035590*
X1433027*
X1407827Y1060790*
X1380955*
X1363755Y1043590*
X1353664*
X1344084Y1034010*
X1308997*
X1304597Y1029610*
X1258479*
X1252479Y1023610*
X1236732*
X1231752Y1028590*
X1200807*
X1199227Y1027010*
X1190005*
X1187005Y1030010*
X1170416*
X1164510Y1035916*
Y1038475*
X1162985Y1040000*
X1535700Y841300D02*
X1526910Y850090D01*
X1322801*
X1316218Y843507*
X1277081*
X1252984Y819410*
X1186282*
X1176782Y809910*
X1162893*
X1162393Y809410*
X1140690*
X1136200Y813900*
X1551490Y1139890D02*
X1592647D01*
X1601827Y1130710*
X1669527*
X1670687Y1131870*
X1740450*
X1745210Y1127110*
X1753227*
X1776290Y1150173*
Y1154664*
X1792716Y1171090*
X1873227*
X1874838Y1169479*
X1902696*
X1910590Y1161584*
Y1120816*
X1904774Y1115000*
X1899600*
X1566800Y969000D02*
X1561810Y964010D01*
X1549364*
X1538564Y974810*
X1511564*
X1509184Y977190*
X1465990*
X1458600Y969800*
X1578200Y1001000D02*
X1574410Y1004790D01*
X1555645*
X1555165Y1004310*
X1521107*
X1520727Y1004690*
X1514273*
X1514093Y1004510*
X1438297*
X1432997Y1009810*
X1416603*
X1409813Y1016600*
X1367117*
X1365127Y1018590*
X1358363*
X1352783Y1013010*
X1317696*
X1305296Y1000610*
X1292931*
X1292551Y1000990*
X1256507*
X1250627Y995110*
X1205592*
X1202692Y998010*
X1187119*
X1177339Y1007790*
X1162227*
X1152407Y1017610*
X1132449*
X1128849Y1021210*
X1123588*
X1115500Y1029298*
Y1040000*
X1586000Y1008800D02*
X1582613Y1012187D01*
X1580063*
X1573460Y1018790*
X1561849*
X1553849Y1010790*
X1553160*
X1552680Y1010310*
X1523592*
X1523212Y1010690*
X1511788*
X1511608Y1010510*
X1440783*
X1435483Y1015810*
X1419088*
X1397908Y1036990*
X1380040*
X1368240Y1025190*
X1356477*
X1350297Y1019010*
X1315211*
X1302811Y1006610*
X1295416*
X1288436Y1013590*
X1263672*
X1258692Y1008610*
X1230519*
X1225539Y1013590*
X1207020*
X1205440Y1012010*
X1183792*
X1180792Y1015010*
X1164203*
X1155603Y1023610*
X1134935*
X1131335Y1027210*
X1126073*
X1121510Y1031773*
Y1038227*
X1122500Y1039217*
Y1040000*
X1586200Y843900D02*
X1581082Y838782D01*
X1550456*
X1492484Y780810*
X1149790*
X1133500Y797100*
X1601600Y1055600D02*
X1589626D01*
X1565836Y1079390*
X1485331*
X1484941Y1079000*
X1479400*
X1617200Y933400D02*
X1624090Y940290D01*
Y945948*
X1633012Y954870*
X1677085*
X1686345Y945610*
X1731284*
X1741504Y955830*
X1754784*
X1760564Y961610*
X1769869*
X1775869Y967610*
X1778400*
Y972400*
X1627600Y1034800D02*
X1601941D01*
X1570731Y1066010*
X1506871*
X1499491Y1073390*
X1487816*
X1481026Y1066600*
X1464700*
X1628640Y1189300D02*
X1592193D01*
X1567293Y1164400*
X1479500*
X1632000Y1047900D02*
X1593083D01*
X1571973Y1069010*
X1508114*
X1500734Y1076390*
X1486573*
X1484393Y1074210*
X1477416*
X1475226Y1076400*
X1469000*
X1638000Y1227200D02*
X1617595D01*
X1607605Y1217210*
X1588943*
X1581963Y1224190*
X1552816*
X1549850Y1221224*
Y1217976*
X1546884Y1215010*
X1519990*
X1515200Y1219800*
X1677100Y1229000D02*
X1652324D01*
X1626834Y1254490*
X1446820*
X1439900Y1261410*
Y1266200*
X1697800Y1393600D02*
X1661088D01*
X1643388Y1375900*
X1618383*
X1602110Y1359627*
Y1352951*
X1538769Y1289610*
X1448073*
X1428460Y1309223*
X1325136*
X1310369Y1323990*
X1301431*
X1300451Y1323010*
X1203307*
X1197707Y1328610*
X1119016*
X1102400Y1345226*
Y1353574*
X1099184Y1356790*
X971040*
X950536Y1377294*
X921446*
X895804Y1402936*
X1699300Y352100D02*
X1644674D01*
X1644474Y352300*
X1530100*
X1525210Y357190*
X1306716*
X1175126Y225600*
X1098200*
X1742000Y1159600D02*
X1724158D01*
X1710868Y1146310*
X1688290*
X1685810Y1148790*
X1651410*
X1649030Y1146410*
X1521551*
X1518004Y1149958*
X1461940*
X1457498Y1154400*
X1445600*
X1444813Y1155187*
X1417787*
X1414400Y1151800*
X1749800Y1424800D02*
X1740950Y1433650D01*
X1310754*
X1287114Y1457290*
X671705*
X649475Y1435060*
X619577*
X590837Y1463800*
X299000*
X1752400Y1209000D02*
X1746035D01*
X1729745Y1225290*
X1684407*
X1680327Y1221210*
X1620580*
X1613580Y1214210*
X1567790*
X1565610Y1216390*
X1559590*
X1555210Y1212010*
X1374292*
X1371312Y1214990*
X1370436*
X1361181Y1224245*
X1333861*
X1332719Y1225387*
X1329387*
X1326000Y1222000*
X1761400Y941200D02*
X1796250D01*
X1802491Y947441*
X1855866*
X1877816Y969390*
X1883060*
X1885350Y967100*
X1902000*
X1773200Y1177800D02*
X1765374D01*
X1762164Y1181010*
X1743231*
X1721991Y1202250*
X1690150*
X1687610Y1204790*
X1625373*
X1619793Y1199210*
X1592170*
X1568170Y1175210*
X1462707*
X1458127Y1179790*
X1402890*
X1385710Y1162610*
X1298016*
X1288026Y1172600*
X1282500*
X1774800Y1245300D02*
X1765974D01*
X1763784Y1247490*
X1702364*
X1679084Y1224210*
X1647764*
X1620484Y1251490*
X1447790*
X1444710Y1248410*
X1404384*
X1397584Y1255210*
X1379520*
X1376330Y1258400*
X1333800*
X1780300Y980800D02*
X1776913Y977413D01*
X1776639*
X1773190Y973964*
Y969173*
X1768627Y964610*
X1759321*
X1753541Y958830*
X1740261*
X1730041Y948610*
X1687588*
X1678328Y957870*
X1631769*
X1621090Y947191*
Y943973*
X1616527Y939410*
X1614110*
X1600710Y926010*
X1579040*
X1575160Y929890*
X1483016*
X1478750Y925624*
Y921176*
X1460274Y902700*
X1454426*
X1427236Y875510*
X1373431*
X1372451Y876490*
X1329090*
X1305790Y853190*
X1149931*
X1129131Y832390*
X1123016*
X1109413Y818787*
Y817187*
X1112800Y813800*
X1787000Y1059400D02*
X1776350Y1048750D01*
X1757524*
X1744704Y1035930*
X1728412*
X1717052Y1047290*
X1646864*
X1629584Y1030010*
X1602488*
X1579908Y1052590*
X1518716*
X1514310Y1048184*
Y1045693*
X1503027Y1034410*
X1454249*
X1450040Y1038619*
X1434240*
X1409069Y1063790*
X1379712*
X1362512Y1046590*
X1347795*
X1345230Y1044025*
X1340551*
X1333736Y1037210*
X1307955*
X1303355Y1032610*
X1279816*
X1277626Y1034800*
X1268800*
X1788000Y980600D02*
X1783600Y976200D01*
Y968567*
X1779643Y964610*
X1777112*
X1771112Y958610*
X1763551*
X1746551Y941610*
X1737140*
X1736360Y942390*
X1709019*
X1701759Y935130*
X1634630*
X1617000Y917500*
X1788800Y972400D02*
Y967610D01*
X1782800Y961610*
X1778355*
X1772355Y955610*
X1764793*
X1741893Y932710*
X1728040*
X1721360Y939390*
X1710262*
X1703002Y932130*
X1672404*
X1632774Y892500*
X1614500*
X1819900Y1163300D02*
X1816513Y1159913D01*
Y1157339*
X1748724Y1089550*
X1743892*
X1741072Y1086730*
X1639751*
X1624071Y1102410*
X1591121*
X1577941Y1115590*
X1412749*
X1409169Y1112010*
X1401147*
X1391947Y1102810*
X1386416*
X1380115Y1109111*
X1325298*
X1318599Y1115810*
X1286593*
X1285313Y1117090*
X1282500*
X1822600Y1326000D02*
X1832900Y1315700D01*
X1895700*
X1833900Y1152300D02*
X1830513Y1148913D01*
X1830113*
X1807000Y1125800*
X1840000Y1163300D02*
X1835210D01*
X1834690Y1162780*
Y1161316*
X1806224Y1132850*
X1799476*
X1762850Y1096224*
Y1090576*
X1751884Y1079610*
X1742982*
X1741522Y1081070*
X1719678*
X1713018Y1074410*
X1640204*
X1615204Y1099410*
X1578664*
X1565484Y1112590*
X1413992*
X1410412Y1109010*
X1402390*
X1393190Y1099810*
X1385173*
X1378872Y1106111*
X1324055*
X1319476Y1110690*
X1282500*
X1841100Y1110500D02*
Y1099274D01*
X1782990Y1041164*
Y1039273*
X1754247Y1010530*
X1722128*
X1719068Y1013590*
X1692490*
X1691610Y1012710*
X1607064*
X1587984Y1031790*
X1570607*
X1552607Y1013790*
X1551917*
X1551437Y1013310*
X1524835*
X1524455Y1013690*
X1510545*
X1510365Y1013510*
X1442025*
X1436725Y1018810*
X1420331*
X1399151Y1039990*
X1378797*
X1366997Y1028190*
X1355235*
X1349055Y1022010*
X1313968*
X1309568Y1017610*
X1263449*
X1257449Y1011610*
X1231761*
X1226781Y1016590*
X1205777*
X1204197Y1015010*
X1185035*
X1182035Y1018010*
X1165445*
X1156845Y1026610*
X1136177*
X1132577Y1030210*
X1127316*
X1124510Y1033016*
Y1036984*
X1126500Y1038974*
Y1040000*
X1843400Y1032200D02*
X1834685Y1023485D01*
X1795345*
X1790096Y1018236*
X1777219*
X1767210Y1008227*
Y1007045*
X1742295Y982130*
X1691262*
X1689222Y984170*
X1613884*
X1607324Y977610*
X1580376*
X1565196Y992790*
X1560616*
X1551636Y983810*
X1515292*
X1512292Y986810*
X1442892*
X1430512Y999190*
X1406864*
X1396964Y989290*
X1299070*
X1296590Y986810*
X1271892*
X1268812Y989890*
X1253892*
X1253112Y989110*
X1203107*
X1200207Y992010*
X1169521*
X1159381Y1002150*
X1137276*
X1131000Y1008426*
Y1010574*
X1126364Y1015210*
X1117816*
X1099800Y1033226*
Y1040000*
X1846000Y1125800D02*
X1826400Y1106200D01*
Y1092026*
X1779990Y1045616*
Y1040516*
X1776174Y1036700*
X1749717*
X1745947Y1032930*
X1727169*
X1726709Y1033390*
X1642314*
X1635934Y1027010*
X1597007*
X1589227Y1034790*
X1569364*
X1551364Y1016790*
X1550675*
X1550195Y1016310*
X1526077*
X1525697Y1016690*
X1509303*
X1509123Y1016510*
X1457664*
X1447584Y1026590*
X1432807*
X1428027Y1021810*
X1421573*
X1400393Y1042990*
X1377555*
X1365755Y1031190*
X1353992*
X1347812Y1025010*
X1312725*
X1308325Y1020610*
X1262207*
X1256207Y1014610*
X1233004*
X1228024Y1019590*
X1204535*
X1202955Y1018010*
X1186277*
X1183277Y1021010*
X1166688*
X1158088Y1029610*
X1142416*
X1132026Y1040000*
X1846500Y1372500D02*
X1760474D01*
X1734584Y1398390*
X1661636*
X1642146Y1378900*
X1617141*
X1599110Y1360869*
Y1354193*
X1537527Y1292610*
X1449316*
X1429703Y1312223*
X1344577*
X1331210Y1325590*
X1313012*
X1311612Y1326990*
X1300188*
X1299208Y1326010*
X1209657*
X1204057Y1331610*
X1126416*
X1114100Y1343926*
Y1347074*
X1101384Y1359790*
X972282*
X951778Y1380294*
X922689*
X897047Y1405936*
X536719*
X345493Y1214710*
X324147*
X323757Y1215100*
X318300*
X1849800Y1186900D02*
X1841310Y1178410D01*
X1791473*
X1778973Y1165910*
X1759473*
X1755793Y1169590*
X1744232*
X1737572Y1162930*
X1719178*
X1713518Y1168590*
X1661440*
X1657360Y1164510*
X1638510*
X1634330Y1168690*
X1626656*
X1612376Y1154410*
X1464240*
X1449060Y1169590*
X1418807*
X1398127Y1148910*
X1372232*
X1367552Y1153590*
X1362616*
X1355426Y1146400*
X1285502*
X1282500Y1143398*
X1853200Y1293600D02*
X1859960Y1300360D01*
X1953475*
X1955825Y1298010*
X1989360*
X2001750Y1310400*
X2020200*
X1853300Y1372500D02*
X1824410Y1401390D01*
X1660393*
X1640903Y1381900*
X1615898*
X1596110Y1362112*
Y1355436*
X1538284Y1297610*
X1503890*
X1498900Y1302600*
X1461450*
X1448827Y1315223*
X1377557*
X1360791Y1331990*
X1334290*
X1331310Y1329010*
X1313835*
X1312855Y1329990*
X1298945*
X1297965Y1329010*
X1221963*
X1196773Y1354200*
X1131250*
X1122095Y1363355*
X986823*
X951778Y1398399*
X908827*
X898290Y1408936*
X535010*
X343784Y1217710*
X325390*
X318100Y1225000*
X1862900Y934000D02*
X1843896Y914996D01*
Y531821*
X1837424Y525350*
X1827143*
X1803653Y501861*
X1689543*
X1677092Y489410*
X1248016*
X1241910Y495516*
Y497090*
X1233000Y506000*
X1888300Y972200D02*
X1884913Y975587D01*
X1884561*
X1881364Y972390*
X1873464*
X1851584Y950510*
X1807940*
X1804660Y953790*
X1774777*
X1773597Y952610*
X1766036*
X1741976Y928550*
X1687076*
X1646236Y887710*
X1597890*
X1587810Y897790*
X1531116*
X1530326Y897000*
X1518400*
X1897300Y481300D02*
X1848617D01*
X1840335Y473019*
X1793151*
X1787322Y467190*
X1256740*
X1253060Y463510*
X1228816*
X1225550Y466776*
Y469824*
X1222284Y473090*
X1193440*
X1183660Y463310*
X1151840*
X1150160Y464990*
X971414*
X944614Y438190*
X801987*
X797607Y433810*
X759140*
X758760Y434190*
X745540*
X739050Y427700*
X684126*
X656826Y400400*
X561600*
X1900600Y1003600D02*
X1897213Y1000213D01*
X1894430*
X1890907Y996690*
X1793110*
X1790310Y993890*
X1772621*
X1748861Y970130*
X1686291*
X1684251Y972170*
X1618854*
X1606399Y959715*
X1601574*
X1600869Y959010*
X1590810*
X1586810Y955010*
X1539302*
X1537022Y957290*
X1463978*
X1453890Y947202*
Y938259*
X1449110Y933479*
Y922336*
X1444184Y917410*
X1395590*
X1390800Y922200*
X1905800Y1045200D02*
X1898010Y1037410D01*
Y1031593*
X1883902Y1017485*
X1803459*
X1785864Y999890*
X1770135*
X1746375Y976130*
X1688777*
X1686737Y978170*
X1616369*
X1603914Y965715*
X1599089*
X1598384Y965010*
X1592764*
X1587984Y969790*
X1580173*
X1571393Y961010*
X1541787*
X1538787Y964010*
X1452964*
X1426784Y990190*
X1422816*
X1409990Y977364*
Y970331*
X1401369Y961710*
X1389249*
X1380269Y970690*
X1283727*
X1279827Y966790*
X1228090*
X1222500Y961200*
X1955200Y917800D02*
Y852900D01*
X1915390Y813090*
Y602614*
X1903815Y591039*
Y481041*
X1857795Y435021*
Y382321*
X1833384Y357910*
X1774916*
X1767436Y365390*
X1306431*
X1174951Y233910*
X806766*
X695766Y122910*
X617164*
X615284Y124790*
X493234*
X451334Y166690*
X426190*
X415900Y156400*
X1963000Y1154400D02*
X1937000D01*
X1929200Y1146600*
X1970800Y1172600D02*
X1875959D01*
X1874469Y1174090*
X1791473*
X1773290Y1155907*
Y1151416*
X1751984Y1130110*
X1746453*
X1741693Y1134870*
X1721838*
X1713518Y1143190*
X1677764*
X1668284Y1133710*
X1603070*
X1593890Y1142890*
X1520829*
X1516761Y1146958*
X1460697*
X1458455Y1149200*
X1448200*
X1976000Y1198200D02*
X1908474D01*
X1877084Y1229590*
X1807790*
X1793700Y1215500*
X1783326*
X1769300Y1201474*
Y1200926*
X1759584Y1191210*
X1755340*
X1727260Y1219290*
X1686892*
X1682812Y1215210*
X1623065*
X1616065Y1208210*
X1588442*
X1584042Y1203810*
X1374007*
X1368827Y1208990*
X1322860*
X1312160Y1219690*
X1282500*
X1998500Y1054900D02*
X1989600D01*
X1964710Y1030010*
X1923560*
X1907200Y1013650*
X1805827*
X1789067Y996890*
X1771378*
X1747618Y973130*
X1687534*
X1685494Y975170*
X1617612*
X1605156Y962715*
X1600331*
X1599627Y962010*
X1591521*
X1586741Y966790*
X1581416*
X1572636Y958010*
X1540545*
X1538265Y960290*
X1462735*
X1450890Y948445*
Y939816*
X1444984Y933910*
X1429151*
X1425471Y937590*
X1382807*
X1381217Y936000*
X1302600*
X2009000Y1176900D02*
X1973274D01*
X1970124Y1180050*
X1862976*
X1855700Y1187326*
Y1187774*
X1851784Y1191690*
X1846340*
X1836655Y1182005*
X1790825*
X1777730Y1168910*
X1760716*
X1751616Y1178010*
X1741988*
X1737328Y1182670*
X1626656*
X1601396Y1157410*
X1467016*
X1461950Y1162476*
Y1171724*
X1456884Y1176790*
X1421764*
X1396884Y1151910*
X1373474*
X1368794Y1156590*
X1361373*
X1354393Y1149610*
X1282500*
X2198000Y1322300D02*
X2201700Y1326000D01*
X2228200*
X2207500Y1151300D02*
X2152650D01*
X2025210Y1023860*
X1987603*
X1984473Y1026990*
X1936140*
X1913760Y1004610*
X1907140*
X1903360Y1008390*
X1898364*
X1889984Y1000010*
X1823590*
X1817400Y1006200*
X2225600Y1406600D02*
X2252557D01*
X2253747Y1407790*
X2309484*
X2326913Y1390361*
Y1358387*
X2330300Y1355000*
X2243800Y1380600D02*
X2277900D01*
X2280090Y1382790*
X2284784*
X2286274Y1381300*
X2309100*
X2310700Y1349600D02*
X2315490Y1354390D01*
Y1386368*
X2297068Y1404790*
X2254990*
X2249000Y1398800*
X2207400*
X2316600Y1170100D02*
X2489948D01*
X2502338Y1157710*
X2525284*
X2527174Y1159600*
X2550600*
X2341300Y1231100D02*
X2290605Y1180405D01*
Y1173774*
X2184610Y1067779*
Y1025951*
X2151724Y993064*
X2064716*
X2042596Y970945*
X1972562*
X1968827Y967210*
X1939160*
X1931760Y959810*
X1876893*
X1809600Y892517*
Y885026*
X1784005Y859431*
X1325624*
X1313383Y847190*
X1193040*
X1166460Y820610*
X1146890*
X1138510Y828990*
X1134216*
X1127990Y822764*
Y806616*
X1125184Y803810*
X1103964*
X1097684Y810090*
X1093716*
X1087436Y803810*
X1060393*
X1024483Y767900*
X920735*
X896090Y743255*
Y742273*
X891527Y737710*
X831159*
X788189Y694740*
X691414*
X602574Y605900*
X587000*
X580100Y599000*
X2363400Y1375400D02*
Y1364250D01*
X2353410Y1354260*
Y1332418*
X2357228Y1328600*
X2470000*
X2402200Y1234200D02*
X2396010Y1240390D01*
X2343816*
X2287605Y1184179*
Y1175017*
X2181610Y1069022*
Y1027193*
X2150481Y996064*
X1994122*
X1990427Y992370*
X1989744*
X1967584Y970210*
X1944140*
X1937850Y976500*
X1911150*
X1902260Y985390*
X1817790*
X1813000Y980600*
X2519400Y1341600D02*
X2501610Y1323810D01*
X2481117*
X2471817Y1314510*
X2388690*
X2377810Y1325390*
X2342790*
X2337400Y1320000*
X2576600Y1341600D02*
X2568220D01*
X2527130Y1382690*
X2417336*
X2404500Y1395526*
Y1421400*
X2610400Y1341600D02*
X2602610Y1333810D01*
X2558055*
X2543515Y1348350*
X2450050*
X2443610Y1354790*
X2376670*
X2368680Y1346800*
X2358200*
X2727400Y1086800D02*
X2707110Y1066510D01*
X2608500*
X2602400Y1072610*
Y1077400*
X2797500Y1338690D02*
X2774200Y1361990D01*
X2672440*
X2631260Y1320810*
X2505410*
X2490210Y1305610*
X2374416*
X2371610Y1308416*
Y1309190*
X2360200Y1320600*
X2805400Y1333800D02*
Y1338590D01*
X2779000Y1364990*
X2608540*
X2580360Y1336810*
X2562085*
X2537945Y1360950*
X2402550*
X2394600Y1368900*
Y1375400*
X2930000Y1337000D02*
X2895000D01*
Y984000*
X2930000*
Y316000*
G02X2905000Y291000I25000*
G01X2792719*
G02X2782812Y299638J10000*
G01X2773000Y371000*
X2761000Y478000*
X2737000Y614000*
X2746000Y622000*
X2739000Y674000*
X2731000Y702000*
X2715000Y751000*
X2697000Y786000*
X2663000Y836000*
X2623000Y881000*
X2610000Y894000*
X2602000Y900000*
X2609000Y924000*
X2615000Y945000*
X2616000Y950000*
Y956000*
X2615000Y969000*
X2614000Y974000*
X2611000Y983000*
X2608000Y989000*
X2601000Y998000*
X2588000Y1007000*
X2583000Y1010000*
X2569000Y1014000*
X2550000*
X2544000Y1012000*
X2528000Y1004000*
X2491000Y964000*
X2441000Y979000*
X2423000Y983000*
X2375000Y989000*
X2354000Y990000*
X2332000*
X2289000Y986000*
X2261000Y981000*
X2233000Y973000*
X2184000Y955000*
X2142000Y932000*
X2112000Y911000*
X2090000Y893000*
X2080000Y884000*
X2066000Y870000*
X2044000Y843000*
X2027000Y822000*
X2007000Y787000*
X1975000Y725000*
X1962000Y692000*
X1955000Y647000*
X1953000Y623000*
Y591000*
X1954000Y571000*
X1955000Y563000*
X1963000Y491000*
X1982000Y329000*
X1987000Y285000*
X1990000Y261000*
X2001575Y185994*
G02X2001663Y184850I7412J1144*
X1996833Y177841I7500*
G01X1934619Y177597*
G03X1909719Y152883I98J25000*
G01X1909282Y114714*
G02X1884284Y90000I24998J286*
G01X1785000*
G03X1760000Y65000J25000*
G01Y25000*
G02X1735000Y0I25000*
G01X1230000*
Y10000*
X345000*
G02X320000Y35000J25000*
G01Y65000*
G03X295000Y90000I25000*
G01X255000*
G02X230000Y115000J25000*
G01Y275000*
G03X205000Y300000I25000*
G01X25000*
G02X0Y325000J25000*
G01Y1475000*
G02X25000Y1500000I25000*
G01X1609000*
Y1490000*
X1784000*
G02X1809000Y1465000J25000*
G01Y1451000*
G03X1840000Y1420000I31000*
X1871000Y1451000J31000*
G01Y1463000*
G02X1881000Y1473000I10000*
G01X2339000*
G02X2349000Y1463000J10000*
G01Y1462000*
G03X2380000Y1431000I31000*
X2411000Y1462000J31000*
G01Y1463000*
G02X2421000Y1473000I10000*
G01X2670000*
X2697500Y1500000*
X2905000*
G02X2930000Y1475000J25000*
G01Y1337000*
G54D11*
X489000Y209200D02*
X544051D01*
X570291Y182960*
X628409*
X634449Y189000*
X671400*
X658900Y624000D02*
X706640Y671740D01*
X785560*
X796302Y660998*
X926574*
X951112Y636460*
X1401410*
X1481050Y716100*
X1547700*
X762500Y577500D03*
X772500Y477500D03*
Y587500D03*
X782500Y477500D03*
X792500D03*
Y547500D03*
X892500Y477500D03*
Y497500D03*
Y557500D03*
X902500Y477500D03*
Y557500D03*
X944200Y1062500D02*
X933651D01*
X906700Y1035549*
Y949451*
X899709Y942460*
X893440*
X882860Y953040*
X752490*
X751110Y951660*
X718240*
X703000Y966900*
X547151*
X514800Y999251*
Y1066000*
X972000Y1075000D02*
X998151D01*
X1002500Y1079349*
X991900Y677500D02*
X1017640Y651760D01*
X1380860*
X1445200Y716100*
X1002500Y1079349D02*
X1006091Y1082940D01*
X1011509*
X1014449Y1080000*
X1016750*
X1452400Y716100D02*
X1445200D01*
X1459200D02*
X1452400D01*
X1547700D02*
X1554900D01*
X1561700D02*
X1554900D01*
X1873100Y1359500D02*
X1810691D01*
X1713551Y1262360*
X1458290*
X1447910Y1272740*
X1437191*
X1424451Y1260000*
X1397900*
X2499800Y1277100D02*
X2449984D01*
X2437364Y1289720*
X2312184*
X2291050Y1310854*
Y1363264*
X2284014Y1370300*
X2245450*
X2238010Y1362860*
X2223290*
X2218550Y1367600*
X2211151*
X2200860Y1377891*
Y1401509*
X2217200Y1417849*
Y1433200*
X2644200Y1076400D02*
Y1093447D01*
X2612647Y1125000*
X2572200*
X2550600Y1146600*
X2655000Y1076700D02*
X2644500D01*
X2644200Y1076400*
G54D12*
X222500Y1285300D02*
Y1295823D01*
X222969Y1296292*
X222500Y1309200D02*
Y1298677D01*
X222969Y1298208*
Y1296292D02*
X223631D01*
X227792Y1292131*
Y1283219*
X232467Y1278543*
X256799*
X264853Y1286598*
X313478*
X438466Y1411586*
X945093*
X982436Y1374243*
X1122049*
X1124045Y1376240*
X1138155*
X1145153Y1369242*
X1196008*
X1221662Y1343588*
X1223691*
X1226440Y1340839*
Y1338810*
X1227774Y1337475*
X222969Y1298208D02*
X224425D01*
X229708Y1292925*
Y1284013*
X233261Y1280460*
X256005*
X264059Y1288515*
X312684*
X437673Y1413503*
X945887*
X983230Y1376160*
X1121255*
X1123251Y1378157*
X1138949*
X1145947Y1371158*
X1196802*
X1222456Y1345504*
X1224485*
X1228357Y1341633*
Y1339603*
X1229130Y1338830*
X235469Y1296142D02*
X235000Y1295673D01*
Y1285000*
X235469Y1298058D02*
X235000Y1298527D01*
Y1309200*
X345800Y1344200D02*
X290000Y1400000D01*
X213800*
X163400Y1450400*
X473600Y624400D02*
X476740Y621260D01*
X480184*
X478400Y629200D02*
X481540Y626060D01*
Y622616*
X480184Y621260D02*
X487090Y614355D01*
X511764*
X543315Y582804*
X648409*
X701845Y636240*
X775505*
X775901Y635843*
X794499*
X806695Y648040*
X915639*
X942687Y620992*
X963487*
X967240Y617239*
Y596395*
X959274Y588429*
X958952*
X481540Y622616D02*
X487883Y616272D01*
X512558*
X544109Y584720*
X647615*
X701051Y638157*
X776299*
X776695Y637760*
X793705*
X805901Y649957*
X916433*
X943481Y622908*
X964281*
X969157Y618033*
Y595601*
X960068Y586512*
X958952*
X551800Y1022500D02*
X557417Y1027941D01*
X560738Y1027889*
X561391Y1027878*
X552000Y1035100D02*
X557441Y1029483D01*
X560762Y1029430*
X561853Y1028340D02*
X561391Y1027878D01*
X695800Y1103700D02*
X707971D01*
X712111*
X712676Y1104266*
Y1106094*
X713242Y1106659*
X714411*
X714976Y1106094*
Y1101638*
X715542Y1101072*
X716711*
X717276Y1101638*
Y1106094*
X717842Y1106659*
X719011*
X719576Y1106094*
Y1101638*
X720142Y1101072*
X721311*
X721876Y1101638*
Y1106094*
X722442Y1106659*
X723611*
X724176Y1106094*
Y1101638*
X724742Y1101072*
X725911*
X726476Y1101638*
Y1106094*
X727042Y1106659*
X728211*
X728776Y1106094*
Y1101638*
X729342Y1101072*
X730511*
X731076Y1101638*
Y1106094*
X731642Y1106659*
X732811*
X733376Y1106094*
Y1101638*
X733942Y1101072*
X735111*
X735676Y1101638*
Y1106094*
X736242Y1106659*
X737411*
X737976Y1106094*
Y1101638*
X738542Y1101072*
X739711*
X740276Y1101638*
Y1106094*
X740842Y1106659*
X742011*
X742576Y1106094*
Y1101638*
X743142Y1101072*
X744311*
X744876Y1101638*
Y1106094*
X745442Y1106659*
X746611*
X747176Y1106094*
Y1101638*
X747742Y1101072*
X748911*
X749476Y1101638*
Y1106094*
X750042Y1106659*
X751211*
X751776Y1106094*
Y1104266*
X752342Y1103700*
X756482*
X806300Y832500D02*
X851700Y877900D01*
X871650*
X877250Y883500*
X888579*
X944314Y939235*
Y998693*
X981271Y1035650*
X1011312*
X1015662Y1040000*
X806300Y856500D02*
X851300Y901500D01*
X871250*
X877250Y907500*
X888579*
X937541Y956462*
Y985586*
X806300Y880500D02*
X839300Y913500D01*
X870021*
X887281Y930760*
X897484*
X927804Y961080*
Y1036572*
X951079Y1059848*
Y1086064*
X984665Y1119650*
X987602*
X806300Y904500D02*
X827047D01*
X848047Y925500*
X878768*
X886328Y933060*
X896532*
X918906Y955435*
Y969606*
X808600Y1089400D02*
X826800Y1071200D01*
X889200*
X808600Y1089400D02*
X788560Y1069360D01*
X684540*
X680100Y1073800*
X660400*
X839800Y1125800D02*
X824200D01*
X812500Y1114100*
X777400*
X767000Y1103700*
X756482*
X918906Y969606D02*
Y973746D01*
X919472Y974312*
X920422*
X920988Y974878*
Y976046*
X920422Y976612*
X917390*
X916824Y977178*
Y978346*
X917390Y978912*
X920422*
X920988Y979478*
Y980646*
X920422Y981212*
X917390*
X916824Y981778*
Y982946*
X917390Y983512*
X920422*
X920988Y984078*
Y985246*
X920422Y985812*
X917390*
X916824Y986378*
Y987546*
X917390Y988112*
X920422*
X920988Y988678*
Y989846*
X920422Y990412*
X917390*
X916824Y990978*
Y992146*
X917390Y992712*
X920422*
X920988Y993278*
Y994446*
X920422Y995012*
X917390*
X916824Y995578*
Y996746*
X917390Y997312*
X920422*
X920988Y997878*
Y999046*
X920422Y999612*
X917390*
X916824Y1000178*
Y1001346*
X917390Y1001912*
X920422*
X920988Y1002478*
Y1003646*
X920422Y1004212*
X917390*
X916824Y1004778*
Y1005946*
X917390Y1006512*
X920422*
X920988Y1007078*
Y1008246*
X920422Y1008812*
X917390*
X916824Y1009378*
Y1010546*
X917390Y1011112*
X920422*
X920988Y1011678*
Y1012846*
X920422Y1013412*
X917390*
X916824Y1013978*
Y1015146*
X917390Y1015712*
X918340*
X918906Y1016278*
Y1020418*
X928200Y1115400D02*
X932681D01*
X933150Y1114931*
Y1114071*
X930039Y1110960*
X905230*
X900008Y1116182*
X855942*
X848031Y1108271*
X815981*
X791681Y1083971*
X736781*
X733331Y1080521*
X650981*
X636831Y1066371*
X602381*
X576731Y1040721*
X572053*
X560762Y1029430*
X934691Y1114931D02*
Y1113432D01*
X930678Y1109418*
X904592*
X899370Y1114640*
X856580*
X848669Y1106729*
X816619*
X792319Y1082429*
X737419*
X733969Y1078979*
X651619*
X637469Y1064829*
X603019*
X577369Y1039179*
X572692*
X561853Y1028340*
X937541Y985586D02*
Y989726D01*
X938106Y990292*
X940369*
X940935Y990858*
Y992026*
X940369Y992592*
X934712*
X934147Y993158*
Y994326*
X934712Y994892*
X940369*
X940935Y995458*
Y996626*
X940369Y997192*
X934712*
X934147Y997758*
Y998926*
X934712Y999492*
X940369*
X940935Y1000058*
Y1001226*
X940369Y1001792*
X934712*
X934147Y1002358*
Y1003526*
X934712Y1004092*
X936975*
X937541Y1004658*
Y1008798*
X940000Y1115800D02*
X935560D01*
X934691Y1114931*
X951600Y1027000D02*
Y1053347D01*
X957148Y1058895*
Y1085628*
X978361Y1106840*
X958952Y586512D02*
X956040Y583600D01*
X951600*
X958952Y588429D02*
X958611D01*
X955940Y591100*
X951500*
X978361Y1106840D02*
X982040D01*
X982606Y1106274*
Y1102800*
X983171Y1102234*
X984340*
X984906Y1102800*
Y1110119*
X985471Y1110685*
X986640*
X987206Y1110119*
Y1102800*
X987771Y1102234*
X988940*
X989506Y1102800*
Y1110119*
X990071Y1110685*
X991240*
X991806Y1110119*
Y1102800*
X992371Y1102234*
X993540*
X994106Y1102800*
Y1110119*
X994671Y1110685*
X995840*
X996406Y1110119*
Y1102800*
X996971Y1102234*
X998140*
X998706Y1102800*
Y1110119*
X999271Y1110685*
X1000440*
X1001006Y1110119*
Y1102800*
X1001571Y1102234*
X1002500*
X987602Y1119650D02*
X991742D01*
X992308Y1120216*
Y1121580*
X992873Y1122145*
X994042*
X994608Y1121580*
Y1119806*
X995173Y1119240*
X996342*
X996908Y1119806*
Y1121580*
X997473Y1122145*
X998642*
X999208Y1121580*
Y1120216*
X999773Y1119650*
X1002500*
Y1102234D02*
X1002740D01*
X1003306Y1102800*
Y1106274*
X1003871Y1106840*
X1008011*
X1002500Y1111878D02*
X1001393Y1112985D01*
X981253*
X953379Y1085111*
Y1058895*
X937541Y1043056*
Y1008798*
X1002500Y1119650D02*
X1003913D01*
X1002500Y1123960D02*
X1000080D01*
X999595Y1124445*
X986208*
X948710Y1086947*
Y1060731*
X918906Y1030927*
Y1020418*
X1003913Y1119650D02*
X1006771D01*
X1006961Y1119840*
X1034660*
X1038500Y1116000*
X1008011Y1106840D02*
X1015869D01*
X1018359Y1104350*
X1072012*
X1074500Y1106838*
Y1136000*
X1078500Y1140000*
X1015662Y1040000D02*
X1034500Y1058838D01*
Y1061162*
X1037338Y1064000*
X1039662*
X1042500Y1066838*
Y1080000*
X1046500Y1084000*
X1023421Y1040000D02*
X999121Y1015700D01*
X967600*
X1037625Y1051280D02*
X1034701D01*
X1023421Y1040000*
X1037625Y1051280D02*
X1041765D01*
X1042330Y1051846*
Y1055193*
X1042896Y1055759*
X1044065*
X1044630Y1055193*
Y1050921*
X1045196Y1050355*
X1046365*
X1046930Y1050921*
Y1055193*
X1047496Y1055759*
X1048665*
X1049230Y1055193*
Y1050921*
X1049796Y1050355*
X1050965*
X1051530Y1050921*
Y1055193*
X1052096Y1055759*
X1053265*
X1053830Y1055193*
Y1050921*
X1054396Y1050355*
X1055565*
X1056130Y1050921*
Y1055193*
X1056696Y1055759*
X1057865*
X1058430Y1055193*
Y1050921*
X1058996Y1050355*
X1060165*
X1060730Y1050921*
Y1055193*
X1061296Y1055759*
X1062465*
X1063030Y1055193*
Y1050921*
X1063596Y1050355*
X1064765*
X1065330Y1050921*
Y1055193*
X1065896Y1055759*
X1067065*
X1067630Y1055193*
Y1050921*
X1068196Y1050355*
X1069365*
X1069930Y1050921*
Y1054268*
X1074500Y1058838*
X1046500Y1124000D02*
X1042500Y1120000D01*
Y1114838*
X1039662Y1112000*
X1016509*
X1015469Y1110960*
X1003418*
X1002500Y1111878*
X1046500Y1140000D02*
X1042500Y1136000D01*
X1027309*
X1015269Y1123960*
X1002500*
X1074500Y1058838D02*
X1074850Y1059188D01*
Y1088350*
X1078500Y1092000*
X1227774Y1337475D02*
X1231450Y1333800D01*
X1237600*
X1229130Y1338830D02*
X1237600D01*
Y1341600*
X1262700Y1334800D02*
Y1332961D01*
X1267140*
X1268141Y1331960*
X1274110*
X1277195Y1335045*
X1271400Y1336400D02*
X1275840D01*
X1276309Y1336869*
Y1378470*
X1265674Y1389105*
X1131640*
X1124205Y1396540*
X1107545*
X1107149Y1396143*
X972351*
X941698Y1426797*
X443516*
X312861Y1296142*
X235469*
X1277195Y1335045D02*
X1278225Y1336075D01*
Y1379264*
X1266468Y1391022*
X1132434*
X1124999Y1398457*
X1106751*
X1106355Y1398060*
X973145*
X942492Y1428713*
X442723*
X312068Y1298058*
X235469*
X1382100Y744900D02*
X1386540Y740460D01*
X1391410*
X1393934Y742983*
X1388700Y744900D02*
X1393934D01*
Y742983D02*
X1394597D01*
X1396506Y741074*
X1455579*
X1458066Y743560*
X1393934Y744900D02*
X1395391D01*
X1397300Y742991*
X1454785*
X1456710Y744916*
X1456960Y745166*
Y748360*
X1460100Y751500*
X1458066Y743560D02*
X1461760D01*
X1464900Y746700*
X1924000Y1006200D02*
X1914410Y996610D01*
X1894574*
X1892004Y994040*
X1794207*
X1791407Y991240*
X1773718*
X1749958Y967480*
X1685194*
X1683154Y969520*
X1619952*
X1607497Y957065*
X1605544*
X1598239Y949760*
X1594561*
X1591961Y952360*
X1538204*
X1535924Y954640*
X1465076*
X1456540Y946104*
Y937162*
X1451760Y932382*
Y921238*
X1444782Y914260*
X1330410*
X1293000Y876850*
X1284300*
X1269290Y861840*
X1019066*
X991166Y833940*
X886461*
X883149Y830628*
X822828*
X813800Y821600*
X2050312Y922575D02*
X2050874Y922014D01*
X2051646*
X2053260Y920400*
X2057700*
X2050415Y911645D02*
X2045066Y916994D01*
Y937504*
X2077968Y970407*
X2162423*
X2199376Y1007360*
X2489969*
X2538969Y1056360*
X2649961*
X2715991Y990330*
Y903386*
X2769669Y849708*
X2770331*
X2051668Y923930D02*
X2052330D01*
X2056600Y928200*
X2051770Y913000D02*
X2046983Y917788D01*
Y936711*
X2078762Y968490*
X2163217*
X2200170Y1005443*
X2490763*
X2539763Y1054443*
X2649167*
X2714074Y989536*
Y902592*
X2768875Y847792*
X2770331*
X2054000Y907400D02*
X2050860Y910540D01*
Y911199*
X2050415Y911645*
X2057500Y913000D02*
X2051770D01*
X2767513Y822692D02*
X2766056D01*
X2709858Y878890*
Y961790*
X2648404Y1023243*
X2520843*
X2496260Y998660*
X2204244*
X2169857Y964273*
X2080509*
X2051199Y934964*
Y924399*
X2051668Y923930*
X2767513Y824608D02*
X2766850D01*
X2711774Y879684*
Y962584*
X2649198Y1025160*
X2520049*
X2495466Y1000577*
X2203450*
X2169063Y966190*
X2079715*
X2049283Y935758*
Y923605*
X2050312Y922575*
X2770331Y847792D02*
X2770800Y847323D01*
Y842500*
X2770331Y849708D02*
X2770800Y850177D01*
Y855000*
Y819700D02*
X2770504D01*
X2767513Y822692*
X2770800Y827600D02*
X2770504D01*
X2767513Y824608*
G54D13*
X840500Y318300D02*
X855140Y332940D01*
X958268*
X969548Y321660*
X1129688*
X1200628Y392600*
X1419600*
X847300Y317700D02*
X859040Y329440D01*
X956818*
X968098Y318160*
X1131137*
X1200917Y387940*
X1417132*
X1417512Y387560*
X1421688*
X1428188Y394060*
X1462050*
X1465890Y397900*
X1471400*
X855400Y317200D02*
X864140Y325940D01*
X955369*
X966649Y314660*
X1132587*
X1202367Y384440*
X1415683*
X1416063Y384060*
X1423137*
X1424141Y385064*
X1454936*
X1458500Y381500*
X935000Y341900D02*
X943372D01*
X945312Y339960*
X956198*
X970998Y325160*
X1116988*
X1189468Y397640*
X1437260*
X1437340Y397560*
X1460600*
X1465980Y402940*
X1476960*
X1481800Y398100*
X951200Y568600D02*
X943928D01*
X929328Y583200*
X923871*
X914571Y592500*
X747828*
X738368Y583040*
X679912*
X632360Y535488*
Y524132*
X604988Y496760*
X543560*
X538200Y491400*
X956400Y574300D02*
X950050D01*
X921310Y603040*
X690168*
X662168Y575040*
X624197*
X617291Y568133*
Y524916*
X613234Y520860*
X577410*
X563550Y507000*
X525200*
X1393400Y379400D02*
X1202872D01*
X1134117Y310644*
X965715*
X953919Y322440*
X868440*
X863200Y317200*
X1455000Y402600D02*
X1460691D01*
X1464531Y406440*
X1478410*
X1478450Y406400*
X1499000*
X1498700Y415000D02*
X1449128D01*
X1445088Y410960*
X1409840*
X1402600Y418200*
X1571000Y405500D02*
X1549660Y384160D01*
X1475840*
X1471000Y389000*
G54D14*
X163400Y1450400D03*
X222500Y1285300D03*
Y1309200D03*
X235000Y1285000D03*
Y1309200D03*
X235800Y1011600D03*
X239600Y1005800D03*
X244400Y1001000D03*
X248000Y994500D03*
X252500Y846500D03*
X263000Y990300D03*
X269900Y953600D03*
X275400Y832600D03*
X280000Y1117300D03*
X294400Y877500D03*
X299000Y1463800D03*
X300900Y1097800D03*
X318100Y1225000D03*
X318300Y1215100D03*
X324700Y930000D03*
X325000Y917800D03*
X325200Y880000D03*
X345800Y1344200D03*
X346900Y827500D03*
X347700Y840000D03*
X348600Y923500D03*
X348800Y898500D03*
X350100Y955000D03*
X375000Y359400D03*
X394400Y155000D03*
X403600Y155600D03*
X415900Y156400D03*
X440600Y467500D03*
X445000Y161900D03*
X449800Y475800D03*
X457600Y384800D03*
X470600Y465400D03*
X472400Y401600D03*
Y571700D03*
X472500Y580000D03*
X473600Y624400D03*
X478400Y629200D03*
X489000Y209200D03*
Y1172700D03*
X498300Y452600D03*
X514800Y1066000D03*
X525200Y507000D03*
X538200Y491400D03*
X544200Y998600D03*
X546000Y473200D03*
X551800Y1022500D03*
X552000Y1035100D03*
X556100Y485500D03*
X561100Y415500D03*
X561600Y400400D03*
Y423800D03*
X564200Y390000D03*
X573100Y599200D03*
X580100Y599000D03*
X602500Y612600D03*
X625600Y599500D03*
X642400Y601300D03*
X649900Y601400D03*
X651800Y503300D03*
X658900Y624000D03*
X660400Y1073800D03*
X665500Y502500D03*
X667500Y438600D03*
X671400Y189000D03*
X695800Y1103700D03*
X745200Y483900D03*
X745900Y540000D03*
X746200Y475800D03*
X749500Y582300D03*
X767000Y438600D03*
X806300Y832500D03*
Y856500D03*
Y880500D03*
Y904500D03*
X806600Y1132500D03*
X808600Y1089400D03*
X813800Y821600D03*
X833500Y1279900D03*
X839800Y1125800D03*
X840500Y318300D03*
X847300Y317700D03*
X850200Y1229800D03*
X855400Y317200D03*
X863200D03*
X889200Y1071200D03*
X897000Y949000D03*
X907400Y1138800D03*
X911500Y793500D03*
X928200Y1115400D03*
X935000Y341900D03*
X940000Y1115800D03*
X940200Y874000D03*
X944200Y1062500D03*
X951200Y568600D03*
X951500Y591100D03*
X951600Y471400D03*
Y478400D03*
Y583600D03*
Y1027000D03*
X954700Y969900D03*
X956400Y574300D03*
X960000Y873700D03*
X962000Y1198600D03*
X964600Y1154400D03*
Y1170000D03*
X967600Y1015700D03*
X968800Y1240900D03*
X969800Y1214200D03*
X972000Y1075000D03*
X980200Y1146600D03*
X991900Y677500D03*
X993200Y585000D03*
X1000300Y873800D03*
X1000900Y1405200D03*
X1003600Y624000D03*
X1020000Y873400D03*
X1069600Y954300D03*
X1088000Y212700D03*
X1098200Y225600D03*
X1102400Y795600D03*
X1107600Y684800D03*
X1112800Y813800D03*
X1113100Y795700D03*
X1117000Y912400D03*
X1123200Y795600D03*
X1123500Y900300D03*
X1130000Y905200D03*
X1133500Y797100D03*
X1136200Y813900D03*
Y824200D03*
X1136500Y917600D03*
X1146600Y795700D03*
X1149200Y751400D03*
Y825400D03*
X1151900Y684800D03*
X1154400Y787800D03*
X1162200Y798200D03*
X1164800Y832000D03*
X1171100Y703100D03*
X1175200Y759400D03*
Y790400D03*
X1175900Y707900D03*
X1186400Y789100D03*
X1211600Y899600D03*
X1222500Y961200D03*
X1232400Y1427400D03*
X1233000Y506000D03*
X1237600Y1333800D03*
Y1341600D03*
X1262700Y1334800D03*
X1266200Y894400D03*
Y902200D03*
Y975000D03*
X1268800Y1034800D03*
X1271000Y601400D03*
X1271400Y1172600D03*
Y1336400D03*
X1281800Y1255800D03*
X1284400Y1157000D03*
X1289600Y1193400D03*
X1291800Y991600D03*
X1292200Y1232400D03*
X1294500Y886000D03*
X1297400Y1050400D03*
X1300000Y1167400D03*
X1300800Y1064100D03*
X1302600Y936000D03*
X1307800Y941200D03*
X1310400Y1292200D03*
X1323100Y1271100D03*
X1326000Y1076400D03*
Y1084200D03*
Y1170000D03*
Y1193400D03*
Y1222000D03*
X1329100Y1296500D03*
X1333800Y1203900D03*
Y1219400D03*
Y1258400D03*
X1335300Y871700D03*
X1336400Y1250600D03*
X1336500Y1296700D03*
X1341600Y998400D03*
X1344600Y1291500D03*
X1356200Y537100D03*
X1358500Y1067500D03*
X1378000Y886300D03*
X1382100Y744900D03*
X1385800Y1177800D03*
X1388400Y1107600D03*
X1388700Y744900D03*
X1390800Y922200D03*
X1393400Y379400D03*
X1397900Y1260000D03*
X1398100Y997200D03*
X1402600Y418200D03*
X1411200Y987100D03*
X1414400Y1151800D03*
X1419600Y392600D03*
Y980200D03*
X1424800Y985400D03*
Y1029600D03*
X1439900Y1266200D03*
X1443000Y938700D03*
X1445200Y716100D03*
X1448200Y1149200D03*
X1452400Y716100D03*
X1455000Y402600D03*
X1458500Y381500D03*
X1458600Y969800D03*
Y1060800D03*
X1459200Y716100D03*
X1460100Y751500D03*
X1464700Y1066600D03*
X1464900Y746700D03*
X1469000Y1076400D03*
Y1162200D03*
X1471000Y389000D03*
X1471400Y397900D03*
X1475600Y1054100D03*
X1477800Y996700D03*
X1479400Y1079000D03*
X1479500Y1164400D03*
X1481800Y398100D03*
X1482000Y1021800D03*
X1489800Y1068600D03*
X1490000Y1243200D03*
X1494400Y815700D03*
X1498700Y415000D03*
X1499000Y406400D03*
X1500200Y842400D03*
X1505000Y996700D03*
X1508000Y842400D03*
X1510600Y1055600D03*
X1515000Y841900D03*
X1515200Y1219800D03*
X1518400Y813800D03*
Y897000D03*
X1519100Y1046200D03*
X1522400Y842300D03*
X1531400Y806200D03*
X1531800Y1101500D03*
X1535700Y841300D03*
X1547700Y716100D03*
X1554900D03*
X1561700D03*
X1562600Y988000D03*
X1566800Y969000D03*
X1571000Y405500D03*
X1572000Y1012500D03*
X1578200Y1001000D03*
X1586000Y1008800D03*
X1586200Y843900D03*
X1593900Y842400D03*
X1595900Y405700D03*
X1599000Y985400D03*
X1601600Y1055600D03*
Y1222000D03*
X1614500Y892500D03*
X1617000Y917500D03*
X1617200Y933400D03*
X1627600Y1034800D03*
X1628640Y1189300D03*
X1632000Y1047900D03*
X1632800Y1196000D03*
X1638000Y1227200D03*
X1677100Y1229000D03*
X1687000Y481800D03*
X1697800Y1393600D03*
X1699300Y352100D03*
X1708200Y962000D03*
X1717500Y1372900D03*
X1742000Y1159600D03*
X1749800Y1424800D03*
X1752400Y1209000D03*
X1761400Y941200D03*
X1762800Y1201200D03*
X1773200Y1177800D03*
X1774800Y1245300D03*
X1775800Y1133600D03*
Y1201200D03*
X1778400Y972400D03*
X1780300Y980800D03*
X1787000Y1059400D03*
X1788000Y980600D03*
X1788800Y972400D03*
X1799200Y808600D03*
X1807000Y1125800D03*
X1813000Y980600D03*
X1814800Y785200D03*
X1817400Y1006200D03*
X1819900Y1163300D03*
X1822600Y1326000D03*
X1826900Y745300D03*
X1829600Y856700D03*
X1833900Y1152300D03*
X1840000Y1163300D03*
X1841100Y1110500D03*
X1843400Y1032200D03*
X1846000Y1125800D03*
X1846500Y1372500D03*
X1849800Y1186900D03*
X1853200Y1293600D03*
X1853300Y1372500D03*
X1861600Y1188200D03*
X1862900Y934000D03*
X1864900Y1145200D03*
X1873100Y1359500D03*
X1887600Y1032200D03*
Y1040000D03*
X1888300Y972200D03*
X1895700Y1315700D03*
X1897100Y494200D03*
X1897300Y481300D03*
X1899600Y1115000D03*
X1900100Y1137400D03*
X1900600Y1003600D03*
X1902000Y967100D03*
X1905800Y1045200D03*
X1924000Y1006200D03*
X1929200Y1146600D03*
X1955200Y917800D03*
X1960400Y1034800D03*
X1963000Y1154400D03*
X1970800Y1172600D03*
X1976000Y1198200D03*
X1998500Y1054900D03*
X2009000Y1176900D03*
X2020200Y1310400D03*
X2022800Y943800D03*
X2054000Y907400D03*
X2056600Y928200D03*
X2057500Y913000D03*
X2057700Y920400D03*
X2198000Y1322300D03*
X2207400Y1398800D03*
X2207500Y1151300D03*
X2210000Y1068600D03*
X2217200Y1433200D03*
X2225600Y1406600D03*
X2228200Y1326000D03*
X2243800Y1380600D03*
X2276700Y1331800D03*
X2309100Y1381300D03*
X2310700Y1349600D03*
X2316600Y1170100D03*
X2330300Y1355000D03*
X2337400Y1320000D03*
X2341300Y1231100D03*
X2358200Y1346800D03*
X2360200Y1320600D03*
X2363400Y1375400D03*
X2394600D03*
X2402200Y1234200D03*
X2404500Y1421400D03*
X2441500Y1207500D03*
X2470000Y1328600D03*
X2499800Y1277100D03*
X2517800Y1110600D03*
X2519400Y1120800D03*
Y1341600D03*
X2522900Y1097400D03*
X2523300Y1087500D03*
X2550600Y1146600D03*
Y1159600D03*
X2576600Y1341600D03*
X2602400Y1077400D03*
X2610400Y1341600D03*
X2644200Y1076400D03*
X2655000Y1076700D03*
X2727400Y1086800D03*
X2770800Y819700D03*
Y827600D03*
Y842500D03*
Y855000D03*
X2797500Y1338690D03*
X2805400Y1333800D03*
G54D15*
X1038500Y1116000D03*
X1046500Y1084000D03*
Y1124000D03*
Y1140000D03*
X1070500Y1276000D03*
X1078500Y1092000D03*
Y1140000D03*
X1086500Y1060000D03*
Y1100000D03*
Y1244000D03*
Y1276000D03*
X1094500Y1068000D03*
Y1084000D03*
Y1100000D03*
X1102500Y1276000D03*
X1110500Y1060000D03*
Y1076000D03*
Y1084000D03*
Y1092000D03*
Y1276000D03*
X1118500Y1060000D03*
Y1068000D03*
Y1084000D03*
Y1100000D03*
X1126500Y1060000D03*
Y1068000D03*
Y1076000D03*
Y1124000D03*
Y1276000D03*
X1134500Y1060000D03*
Y1116000D03*
Y1252000D03*
X1150500Y1060000D03*
Y1068000D03*
X1158500Y1060000D03*
Y1068000D03*
X1166500Y1060000D03*
X1182500Y1260000D03*
X1190500Y1060000D03*
X1206500Y1076000D03*
X1214500Y1060000D03*
Y1084000D03*
Y1172000D03*
X1222500Y1140000D03*
X1238500Y1092000D03*
Y1100000D03*
Y1204000D03*
X1246500Y1140000D03*
Y1156000D03*
Y1164000D03*
Y1260000D03*
X1262500Y1212000D03*
G54D16*
X917000Y741500D03*
G54D17*
X942400D03*
G04 LATO COMPONENTI*
M02*
