[2021.01.28 16:07:29] [0000m.00s.016ms] [0] WELCOME
[2021.01.28 16:07:29] [0000m.00s.016ms] [1] iCDB Server ver.2.207, qgLvIY/Eg4ge+fhn3Vi3jQ, build:17235852 created 2020-09-21 12:40:31, sources stamp:qgLvIY/Eg4ge+fhn3Vi3jQ
[2021.01.28 16:07:29] [0000m.00s.016ms] [1] Restricted Copyright Siemens 2020. All Rights Reserved.
[2021.01.28 16:07:29] [0000m.00s.016ms] [1] Base flow version [VX.2.7]
[2021.01.28 16:07:29] [0000m.00s.016ms] [1] Install Id [2125238], Flow Id [PADS Professional VX.2.7], Full Flow Name [PADS Pro Tools VX.2.7], Exact Access Date [2020/02/01]
[2021.01.28 16:07:29] [0000m.00s.016ms] [1] UPDATE Install Info, Install Id [2239435], UPDATE Name [PADS Pro Tools VX.2.7 - Update 7]
[2021.01.28 16:07:29] [0000m.00s.022ms] [1] Machine [SHINA]  IP [10.46.0.78,127.0.0.1,192.168.1.148]  User [Administrator]  PID [10420]
[2021.01.28 16:07:29] [0000m.00s.023ms] [1] Operating system [Microsoft Windows 10 Home Premium Edition, 64-bit (build 19042)]
[2021.01.28 16:07:29] [0000m.00s.023ms] [1] Current working dir [D:\PD-Master\Mas\Mas100n1 ACB_0001_0]
[2021.01.28 16:07:29] [0000m.00s.023ms] [1] PATH [C:\MentorGraphics\PADSProVX.2.7\SDD_HOME\common\win64\bin;C:\MentorGraphics\PADSProVX.2.7\SDD_HOME\common\win64\lib;C:\MentorGraphics\PADSProVX.2.7\SDD_HOME\common\win64\jre\default\bin;C:\MentorGraphics\PADSProVX.2.7\SDD_HOME\common\win32\lib;C:\MentorGraphics\PADSProVX.2.7\MGC_HOME.ixw\bin;C:\MentorGraphics\PADSProVX.2.7\MGC_HOME.ixw\lib;C:\MentorGraphics\PADSProVX.2.7\SDD_HOME\wg\win64\lib;C:\WINDOWS;C:\MentorGraphics\7.9.5EE\MGC_HOME.ixn\lib;C:\Program Files (x86)\Common Files\Oracle\Java\javapath;C:\Program Files (x86)\Intel\iCLS Client\;C:\Program Files\Intel\iCLS Client\;C:\Windows\system32;C:\Windows;C:\Windows\System32\Wbem;C:\Windows\System32\WindowsPowerShell\v1.0\;C:\Program Files (x86)\Intel\Intel(R) Management Engine Components\DAL;C:\Program Files\Intel\Intel(R) Management Engine Components\DAL;C:\Program Files (x86)\Intel\Intel(R) Management Engine Components\IPT;C:\Program Files\Intel\Intel(R) Management Engine Components\IPT;C:\Cadence\SPB_16.6\tools\pcb\bin;C:\Cadence\SPB_16.6\tools\bin;C:\Cadence\SPB_16.6\tools\libutil\bin;C:\Cadence\SPB_16.6\tools\fet\bin;C:\Cadence\SPB_16.6\tools\specctra\bin;C:\Cadence\SPB_16.6\tools\pspice;C:\Cadence\SPB_16.6\tools\capture;C:\Cadence\SPB_16.6\openaccess\bin\win32\opt;C:\WINDOWS\system32;C:\WINDOWS;C:\WINDOWS\System32\Wbem;C:\WINDOWS\System32\WindowsPowerShell\v1.0\;C:\WINDOWS\System32\OpenSSH\;C:\Program Files (x86)\Windows Kits\8.1\Windows Performance Toolkit\;C:\Program Files\Microsoft SQL Server\110\Tools\Binn\;C:\Users\Administrator\AppData\Local\Microsoft\WindowsApps;C:\MentorGraphics\7.9.5EE\SDD_HOME\common\win32\lib;C:\Users\Administrator\AppData\Roaming\Dashlane\6.2021.0.35401\bin\Firefox_Extension\{442718d9-475e-452a-b3e1-fb1ee16b8e9f}\components;C:\Users\Administrator\AppData\Roaming\Dashlane\6.2021.0.35401\ucrt;C:\Users\Administrator\AppData\Roaming\Dashlane\6.2021.0.35401\bin\Qt;C:\Users\Administrator\AppData\Roaming\Dashlane\6.2021.0.35401\bin\Ssl;C:\Program Files (x86)\interCAD;C:\MentorGraphics\PADSProVX.2.7\SDD_HOME\common3D\win64\lib]
[2021.01.28 16:07:29] [0000m.00s.023ms] [1] SDD_HOME [C:\MentorGraphics\PADSProVX.2.7\SDD_HOME] on file system [NTFS]
[2021.01.28 16:07:29] [0000m.00s.023ms] [1] SDD_PLATFORM [win64]
[2021.01.28 16:07:29] [0000m.00s.023ms] [1] WDIR [C:\WDIR\PADSProVX.2.7;C:\MentorGraphics\PADSProVX.2.7\SDD_HOME\standard;]
[2021.01.28 16:07:29] [0000m.00s.023ms] [1] Local iCDB working dir [C:\WDIR\PADSProVX.2.7\iCDB] on file system [NTFS]
[2021.01.28 16:07:29] [0000m.00s.023ms] [1] S: Config file name [ServerWG.cfg]
[2021.01.28 16:07:29] [0000m.00s.023ms] [2] S: Loading config files
[2021.01.28 16:07:29] [0000m.00s.025ms] [1] Config file [D:\PD-Master\Mas\Mas100n1 ACB_0001_0\keyin.icdb\cdbsvr\ServerWG.cfg] not found
[2021.01.28 16:07:29] [0000m.00s.025ms] [1] Config: Non-default value [System.SingleUserMode] = [no]
[2021.01.28 16:07:29] [0000m.00s.026ms] [3] S: Config loaded
[2021.01.28 16:07:29] [0000m.00s.034ms] [0] S: Project path [D:\PD-Master\Mas\Mas100n1 ACB_0001_0\keyin.icdb] on file system [NTFS]
[2021.01.28 16:07:29] [0000m.00s.034ms] [0] S: Project file (.prj) path [D:\PD-Master\Mas\Mas100n1 ACB_0001_0\Mas100n1 ACUBE_PORTABILE R_0.prj] on file system [NTFS]
[2021.01.28 16:07:29] [0000m.00s.034ms] [1] S: WARNING: Database auto-repair support DISABLED
[2021.01.28 16:07:29] [0000m.00s.034ms] [0] S: Multi-user mode (config)
[2021.01.28 16:07:29] [0000m.00s.034ms] [0] S: Event polling mode autodetection
[2021.01.28 16:07:29] [0000m.00s.034ms] [0] S: Started up automatically by iCDB Client: SHINA:Administrator:17000
[2021.01.28 16:07:29] [0000m.00s.034ms] [0] S: Auto close mode
[2021.01.28 16:07:29] [0000m.00s.034ms] [0] S: Database ID [1fc1-835f-2546-968d-b133-1101-2331-1060-2caa-2333-1339-89a8]
[2021.01.28 16:07:29] [0000m.00s.034ms] [0] PathTranslator: BEGIN dumping
[2021.01.28 16:07:29] [0000m.00s.034ms] [0] PathTranslator: Local -> global path prefix list
[2021.01.28 16:07:29] [0000m.00s.034ms] [0] PathTranslator: [HP LaserJet 5200 PCL6 Class Driver,LocalsplOnly] -> [\\SHINA\HP LaserJet 5200 PCL6 Class Driver]
[2021.01.28 16:07:29] [0000m.00s.034ms] [0] PathTranslator: [C:\WINDOWS\system32\spool\drivers] -> [\\SHINA\print$]
[2021.01.28 16:07:29] [0000m.00s.034ms] [0] PathTranslator: [J:\] -> [\\192.168.1.81\Librerie\]
[2021.01.28 16:07:29] [0000m.00s.034ms] [0] PathTranslator: [K:\] -> [\\192.168.1.81\Commesse\]
[2021.01.28 16:07:29] [0000m.00s.034ms] [0] PathTranslator: [L:\] -> [\\192.168.1.81\Software\]
[2021.01.28 16:07:29] [0000m.00s.034ms] [0] PathTranslator: [M:\] -> [\\192.168.1.81\Amministrazione\]
[2021.01.28 16:07:29] [0000m.00s.035ms] [0] PathTranslator: [N:\] -> [\\192.168.1.81\Gestione Informatica\]
[2021.01.28 16:07:29] [0000m.00s.035ms] [0] PathTranslator: [O:\] -> [\\192.168.1.81\ArchiviGestionale\]
[2021.01.28 16:07:29] [0000m.00s.035ms] [0] PathTranslator: [P:\] -> [\\192.168.1.81\Privato\]
[2021.01.28 16:07:29] [0000m.00s.035ms] [0] PathTranslator: [Q:\] -> [\\192.168.1.81\Cancelleria\]
[2021.01.28 16:07:29] [0000m.00s.035ms] [0] PathTranslator: [Y:\] -> [\\192.168.1.81\ArchiviGestionale\]
[2021.01.28 16:07:29] [0000m.00s.035ms] [0] PathTranslator: Global -> local path prefix list
[2021.01.28 16:07:29] [0000m.00s.035ms] [0] PathTranslator: [\\SHINA\HP LaserJet 5200 PCL6 Class Driver] -> [HP LaserJet 5200 PCL6 Class Driver,LocalsplOnly]
[2021.01.28 16:07:29] [0000m.00s.035ms] [0] PathTranslator: [\\192.168.1.81\Gestione Informatica\] -> [N:\]
[2021.01.28 16:07:29] [0000m.00s.035ms] [0] PathTranslator: [\\192.168.1.81\ArchiviGestionale\] -> [O:\]
[2021.01.28 16:07:29] [0000m.00s.035ms] [0] PathTranslator: [\\192.168.1.81\ArchiviGestionale\] -> [Y:\]
[2021.01.28 16:07:29] [0000m.00s.035ms] [0] PathTranslator: [\\192.168.1.81\Amministrazione\] -> [M:\]
[2021.01.28 16:07:29] [0000m.00s.035ms] [0] PathTranslator: [\\192.168.1.81\Cancelleria\] -> [Q:\]
[2021.01.28 16:07:29] [0000m.00s.035ms] [0] PathTranslator: [\\192.168.1.81\Librerie\] -> [J:\]
[2021.01.28 16:07:29] [0000m.00s.035ms] [0] PathTranslator: [\\192.168.1.81\Commesse\] -> [K:\]
[2021.01.28 16:07:29] [0000m.00s.035ms] [0] PathTranslator: [\\192.168.1.81\Software\] -> [L:\]
[2021.01.28 16:07:29] [0000m.00s.035ms] [0] PathTranslator: [\\192.168.1.81\Privato\] -> [P:\]
[2021.01.28 16:07:29] [0000m.00s.035ms] [0] PathTranslator: [\\SHINA\print$] -> [C:\WINDOWS\system32\spool\drivers]
[2021.01.28 16:07:29] [0000m.00s.035ms] [0] PathTranslator: END dumping
[2021.01.28 16:07:29] [0000m.00s.035ms] [0] S: START
[2021.01.28 16:07:29] [0000m.00s.035ms] [0] S: Server startup lock file created
[2021.01.28 16:07:29] [0000m.00s.035ms] [0] S: Listening for client connections on port [10000]
[2021.01.28 16:07:29] [0000m.00s.036ms] [0] S: Server network ID [Shina:10.46.0.78,192.168.1.148,Shina:10000]
[2021.01.28 16:07:29] [0000m.00s.036ms] [0] S: Server GUID [49f0-b11e-ca1e-9a02-133d-2107-33d2-1060-f20a-2333-1339-89a8]
[2021.01.28 16:07:29] [0000m.00s.036ms] [0] S: Project GUID [1fc1-835f-2546-968d-b133-1101-2331-1060-2caa-2333-1339-89a8]
[2021.01.28 16:07:29] [0000m.00s.037ms] [0] S: Wrote data to server address file
[2021.01.28 16:07:29] [0000m.00s.037ms] [0] S: Server startup lock file removed
[2021.01.28 16:07:29] [0000m.00s.037ms] [1] ProjectBackupManager: Setting project file (.prj) path: [D:\PD-Master\Mas\Mas100n1 ACB_0001_0\Mas100n1 ACUBE_PORTABILE R_0.prj]
[2021.01.28 16:07:29] [0000m.00s.083ms] [0] S: Plugins loaded: [PIM] [ENetGen70] 
[2021.01.28 16:07:29] [0000m.00s.083ms] [1] ServerToolkit: INFO: Plugin not found in SDD_ICDB_BIN [C:\MentorGraphics\PADSProVX.2.7\SDD_HOME\iCDB\win64\bin]
[2021.01.28 16:07:29] [0000m.00s.083ms] [1] ServerToolkit: INFO: Plugin not found in SDD_COMMON_BIN [C:\MentorGraphics\PADSProVX.2.7\SDD_HOME\common\win64\bin]
[2021.01.28 16:07:29] [0000m.00s.085ms] [1] ServerToolkit: INFO: Plugin not found in PATH
[2021.01.28 16:07:29] [0000m.00s.085ms] [1] ServerToolkit: INFO: Plugin not found in CWD
[2021.01.28 16:07:29] [0000m.00s.085ms] [1] ServerToolkit: INFO: returning just plugin exe name!
[2021.01.28 16:07:29] [0000m.00s.085ms] [0] S: Local disc access time: 32 us
[2021.01.28 16:07:29] [0000m.00s.085ms] [0] S: File server access time: 27 us
[2021.01.28 16:07:29] [0000m.00s.085ms] [0] Single file [D:\PD-Master\Mas\Mas100n1 ACB_0001_0\keyin.icdb\icdb.dat] size [160640 (156.9 kB)]
[2021.01.28 16:07:29] [0000m.00s.085ms] [1] Single file [D:\PD-Master\Mas\Mas100n1 ACB_0001_0\keyin.icdb\icdb.dat] opened in read-write mode
[2021.01.28 16:07:29] [0000m.00s.086ms] [0] SingleFile: [0000-0000-0000-0000] SFI header version check [1009] [1009]
[2021.01.28 16:07:29] [0000m.00s.086ms] [0] Database GUARD OK: [160640]
[2021.01.28 16:07:29] [0000m.00s.086ms] [0] SingleFile: [0000-0000-0000-0000] SFI header version check [1009] [1009]
[2021.01.28 16:07:29] [0000m.00s.086ms] [0] Database GUARD OK: [160640]
[2021.01.28 16:07:29] [0000m.00s.086ms] [0] SingleFile: [0000-0000-0000-0000] SFI header version check [1009] [1009]
[2021.01.28 16:07:29] [0000m.00s.086ms] [0] Database GUARD OK: [160640]
[2021.01.28 16:07:29] [0000m.00s.086ms] [0] SingleFile: [0000-0000-0000-0000] SFI header version check [1009] [1009]
[2021.01.28 16:07:29] [0000m.00s.086ms] [0] Database GUARD OK: [160640]
[2021.01.28 16:07:29] [0000m.00s.087ms] [0] SingleFile: [0000-0000-0000-0000] SFI header version check [1009] [1009]
[2021.01.28 16:07:29] [0000m.00s.087ms] [0] Database GUARD OK: [160640]
[2021.01.28 16:07:29] [0000m.00s.087ms] [0] SingleFile: [ecaf-b783-6ba0-3096] SFI version check [1009] [1009]
[2021.01.28 16:07:29] [0000m.00s.088ms] [0] SingleFile: [ecaf-b783-6ba0-3096] Database SFI header has been read in [1ms 181us]
[2021.01.28 16:07:29] [0000m.00s.092ms] [0] iCDB Server PI: Server & plugin session [676]
[2021.01.28 16:07:29] [0000m.00s.092ms] [0] iCDB Server PI: Opening database [D:\PD-Master\Mas\Mas100n1 ACB_0001_0\keyin.icdb]
[2021.01.28 16:07:29] [0000m.00s.092ms] [0] iCDB Server PI: Database [D:\PD-Master\Mas\Mas100n1 ACB_0001_0\keyin.icdb] opened
[2021.01.28 16:07:29] [0000m.00s.133ms] [0] iCDB Database: Checking existence of constraint definitions
[2021.01.28 16:07:29] [0000m.00s.133ms] [0] iCDB Database: Checking constraint definitions version
[2021.01.28 16:07:29] [0000m.00s.157ms] [1] iCDB Database: Constraint definitions version [ce_ee.cns=7.10.69] up to date
[2021.01.28 16:07:29] [0000m.00s.160ms] [0] iCDB Server PI: Initializing plugins
[2021.01.28 16:07:29] [0000m.00s.160ms] [0] iCDB Server PI: Plugins initialized
[2021.01.28 16:07:29] [0000m.00s.160ms] [0] S: iCDB database loaded
[2021.01.28 16:07:29] [0000m.00s.161ms] [0] S: Starting threads
[2021.01.28 16:07:29] [0000m.00s.161ms] [0] BT: Listening for broadcast messages on port [10000]
[2021.01.28 16:07:29] [0000m.00s.162ms] [1] CMT: There are no clients - waiting [10 seconds]
[2021.01.28 16:07:29] [0000m.00s.162ms] [0] IT: Session [677] for host [Shina] user [Administrator] client type[0] clsvrPluginID[0] with process ID [17000] created
[2021.01.28 16:07:29] [0000m.00s.164ms] [1] SC[677]: Registered sub-client [Expedition PE_285394750] with ID [1] for session ID [677] host [Shina] user [Administrator] process ID [17000]
[2021.01.28 16:07:29] [0000m.00s.167ms] [0] MWT: WindowProc: WM_NCCREATE
[2021.01.28 16:07:29] [0000m.00s.217ms] [1] SC[677]: Registered sub-client [EEVM_EEVM_375052416] with ID [2] for session ID [677] host [Shina] user [Administrator] process ID [17000]
[2021.01.28 16:07:29] [0000m.00s.217ms] [1] SC[677]: UnRegistered sub-client [EEVM_EEVM_375052416] with ID [2] for session ID [677] host [Shina] user [Administrator] process ID [17000]
[2021.01.28 16:07:29] [0000m.00s.265ms] [1] CMT: There are [1] clients now: 677
[2021.01.28 16:07:30] [0000m.01s.231ms] [1] SC[677]: Registered sub-client [JobPrefsDBPI_285396125] with ID [3] for session ID [677] host [Shina] user [Administrator] process ID [17000]
[2021.01.28 16:07:30] [0000m.01s.237ms] [1] SC[677]: UnRegistered sub-client [JobPrefsDBPI_285396125] with ID [3] for session ID [677] host [Shina] user [Administrator] process ID [17000]
[2021.01.28 16:07:33] [0000m.04s.130ms] [1] SC[677]: Registered sub-client [JobPrefsDBPI_285399015] with ID [4] for session ID [677] host [Shina] user [Administrator] process ID [17000]
[2021.01.28 16:07:33] [0000m.04s.135ms] [1] SC[677]: UnRegistered sub-client [JobPrefsDBPI_285399015] with ID [4] for session ID [677] host [Shina] user [Administrator] process ID [17000]
[2021.01.28 16:07:36] [0000m.07s.631ms] [1] SC[677]: Registered sub-client [JobPrefsDBPI_285402515] with ID [5] for session ID [677] host [Shina] user [Administrator] process ID [17000]
[2021.01.28 16:07:36] [0000m.07s.664ms] [1] SC[677]: UnRegistered sub-client [JobPrefsDBPI_285402515] with ID [5] for session ID [677] host [Shina] user [Administrator] process ID [17000]
[2021.01.28 16:07:37] [0000m.08s.075ms] [1] SC[677]: Registered sub-client [JobPrefsDBPI_285402843] with ID [6] for session ID [677] host [Shina] user [Administrator] process ID [17000]
[2021.01.28 16:07:37] [0000m.08s.107ms] [1] SC[677]: UnRegistered sub-client [JobPrefsDBPI_285402843] with ID [6] for session ID [677] host [Shina] user [Administrator] process ID [17000]
[2021.01.28 16:07:37] [0000m.08s.176ms] [1] SC[677]: Registered sub-client [ExpeditionCrossProber] with ID [7] for session ID [677] host [Shina] user [Administrator] process ID [17000]
[2021.01.28 16:07:37] [0000m.08s.178ms] [1] SC[677]: Registered sub-client [StartServerClient1054] with ID [8] for session ID [677] host [Shina] user [Administrator] process ID [17000]
[2021.01.28 16:07:38] [0000m.09s.482ms] [1] SC[677]: UnRegistered sub-client [StartServerClient1054] with ID [8] for session ID [677] host [Shina] user [Administrator] process ID [17000]
[2021.01.28 16:08:00] [0000m.31s.434ms] [0] DFAMT: File server access time: 43 us
[2021.01.28 16:08:18] [0000m.49s.581ms] [1] SC[677]: UnRegistered sub-client [ExpeditionCrossProber] with ID [7] for session ID [677] host [Shina] user [Administrator] process ID [17000]
[2021.01.28 16:08:20] [0000m.51s.052ms] [1] SC[677]: UnRegistered sub-client [Expedition PE_285394750] with ID [1] for session ID [677] host [Shina] user [Administrator] process ID [17000]
[2021.01.28 16:08:20] [0000m.51s.069ms] [1] CMT: Removed client [677]
[2021.01.28 16:08:20] [0000m.51s.070ms] [1] CMT: There are no clients left - waiting [1 seconds]
[2021.01.28 16:08:22] [0000m.52s.703ms] [0] CMT: Starting server auto-close
[2021.01.28 16:08:22] [0000m.52s.796ms] [0] S: Closing server
[2021.01.28 16:08:22] [0000m.52s.967ms] [0] iCDB Server PI: Closing plugins
[2021.01.28 16:08:22] [0000m.52s.967ms] [0] iCDB Server PI: Plugins closed
[2021.01.28 16:08:22] [0000m.52s.967ms] [0] iCDB Server PI: Unloading database
[2021.01.28 16:08:22] [0000m.52s.967ms] [0] iCDB Server PI: Saving storage
[2021.01.28 16:08:22] [0000m.52s.967ms] [0] iCDB Server PI: Closing database
[2021.01.28 16:08:22] [0000m.53s.228ms] [1] iCDB Server PI: Stats: Database defragmentation: max[3] avg[1] holes[1%] data[99%]
[2021.01.28 16:08:22] [0000m.53s.228ms] [1] iCDB Server PI: Stats: Database file size [160768 (157.0 kB)]
[2021.01.28 16:08:22] [0000m.53s.451ms] [0] iCDB Server PI: Database closed
[2021.01.28 16:08:22] [0000m.53s.452ms] [1] iCDB Server PI: Stats: Total iCDB execution time: [6595] ticks
[2021.01.28 16:08:22] [0000m.53s.452ms] [1] iCDB Server PI: Stats: Total iCDB execution time: [659] microseconds
[2021.01.28 16:08:22] [0000m.53s.452ms] [1] iCDB Server PI: Stats: Total iCDB commands count: [5]
[2021.01.28 16:08:22] [0000m.53s.452ms] [1] iCDB Server PI: Stats: Average iCDB speed:        [7581] commands per second
[2021.01.28 16:08:22] [0000m.53s.452ms] [1] iCDB Server PI: Stats: Mem[14233600]
[2021.01.28 16:08:22] [0000m.53s.452ms] [1] iCDB Server PI: Stats: MemPeak[33341440]
[2021.01.28 16:08:22] [0000m.53s.452ms] [0] Single file [D:\PD-Master\Mas\Mas100n1 ACB_0001_0\keyin.icdb\icdb.dat] closed with size [160768 (157.0 kB)]
[2021.01.28 16:08:22] [0000m.53s.575ms] [0] MWT: Destroy the shutdown block reason.
[2021.01.28 16:08:22] [0000m.53s.578ms] [0] MWT: STOP
[2021.01.28 16:08:22] [0000m.53s.578ms] [0] S: STOP
