[2020.12.29 14:15:21] [0000m.00s.010ms] [0] WELCOME
[2020.12.29 14:15:21] [0000m.00s.010ms] [1] iCDB Server ver.2.207, qgLvIY/Eg4ge+fhn3Vi3jQ, build:17235852 created 2020-09-21 12:40:31, sources stamp:qgLvIY/Eg4ge+fhn3Vi3jQ
[2020.12.29 14:15:21] [0000m.00s.010ms] [1] Restricted Copyright Siemens 2020. All Rights Reserved.
[2020.12.29 14:15:21] [0000m.00s.010ms] [1] Base flow version [VX.2.7]
[2020.12.29 14:15:21] [0000m.00s.010ms] [1] Install Id [2125238], Flow Id [PADS Professional VX.2.7], Full Flow Name [PADS Pro Tools VX.2.7], Exact Access Date [2020/02/01]
[2020.12.29 14:15:21] [0000m.00s.010ms] [1] UPDATE Install Info, Install Id [2239435], UPDATE Name [PADS Pro Tools VX.2.7 - Update 7]
[2020.12.29 14:15:21] [0000m.00s.015ms] [1] Machine [DESKTOP-CUVV7JD]  IP [127.0.0.1,192.168.1.159]  User [Shina]  PID [16360]
[2020.12.29 14:15:21] [0000m.00s.015ms] [1] Operating system [Microsoft Windows 10 Business Edition, 64-bit (build 19041)]
[2020.12.29 14:15:21] [0000m.00s.015ms] [1] Current working dir [D:\Pd-Master\1 Lavori\Mas\Mas100n1 ACB_0001_0]
[2020.12.29 14:15:21] [0000m.00s.015ms] [1] PATH [C:\MentorGraphics64\PADSProVX.2.7\SDD_HOME\common\win64\bin;C:\MentorGraphics64\PADSProVX.2.7\SDD_HOME\common\win64\lib;C:\MentorGraphics64\PADSProVX.2.7\SDD_HOME\common\win64\jre\default\bin;C:\MentorGraphics64\PADSProVX.2.7\SDD_HOME\common\win32\lib;C:\MentorGraphics64\PADSProVX.2.7\MGC_HOME.ixw\bin;C:\MentorGraphics64\PADSProVX.2.7\MGC_HOME.ixw\lib;C:\MentorGraphics64\PADSProVX.2.7\SDD_HOME\wg\win64\lib;%MGC_HOME%\bin;C:\Program Files (x86)\NVIDIA Corporation\PhysX\Common;C:\Windows\system32;C:\Windows\System32\Wbem;C:\Windows\System32\WindowsPowerShell\v1.0\;C:\Windows\System32\OpenSSH\;C:\Cadence\SPB_16.6\tools\pcb\bin;C:\Cadence\SPB_16.6\tools\bin;C:\Cadence\SPB_16.6\tools\libutil\bin;C:\Cadence\SPB_16.6\tools\fet\bin;C:\Cadence\SPB_16.6\tools\specctra\bin;C:\Cadence\SPB_16.6\tools\pspice;C:\Cadence\SPB_16.6\tools\capture;C:\Cadence\SPB_16.6\openaccess\bin\win32\opt;C:\Program Files\Microsoft SQL Server\120\Tools\Binn\;C:\Program Files\Microsoft SQL Server\Client SDK\ODBC\110\Tools\Binn\;C:\Program Files (x86)\Microsoft SQL Server\120\Tools\Binn\;C:\Program Files\Microsoft SQL Server\120\DTS\Binn\;C:\Program Files (x86)\Windows Kits\8.1\Windows Performance Toolkit\;C:\Windows;C:\Users\Shina\AppData\Local\Microsoft\WindowsApps;C:\MentorGraphics\7.9.5EE\SDD_HOME\common\win32\lib;C:\Program Files (x86)\interCAD;C:\MentorGraphics64\PADSProVX.2.7\SDD_HOME\common3D\win64\lib]
[2020.12.29 14:15:21] [0000m.00s.016ms] [1] SDD_HOME [C:\MentorGraphics64\PADSProVX.2.7\SDD_HOME] on file system [NTFS]
[2020.12.29 14:15:21] [0000m.00s.016ms] [1] SDD_PLATFORM [win64]
[2020.12.29 14:15:21] [0000m.00s.016ms] [1] WDIR [C:\WDIR\PADSProVX.2.7;C:\MentorGraphics64\PADSProVX.2.7\SDD_HOME\standard;]
[2020.12.29 14:15:21] [0000m.00s.016ms] [1] Local iCDB working dir [C:\WDIR\PADSProVX.2.7\iCDB] on file system [NTFS]
[2020.12.29 14:15:21] [0000m.00s.016ms] [1] S: Config file name [ServerWG.cfg]
[2020.12.29 14:15:21] [0000m.00s.016ms] [2] S: Loading config files
[2020.12.29 14:15:21] [0000m.00s.017ms] [1] Config file [D:\Pd-Master\1 Lavori\Mas\Mas100n1 ACB_0001_0\keyin.icdb\cdbsvr\ServerWG.cfg] not found
[2020.12.29 14:15:21] [0000m.00s.017ms] [1] Config: Non-default value [System.SingleUserMode] = [no]
[2020.12.29 14:15:21] [0000m.00s.018ms] [3] S: Config loaded
[2020.12.29 14:15:21] [0000m.00s.023ms] [0] S: Project path [D:\Pd-Master\1 Lavori\Mas\Mas100n1 ACB_0001_0\keyin.icdb] on file system [NTFS]
[2020.12.29 14:15:21] [0000m.00s.023ms] [0] S: Project file (.prj) path [D:\Pd-Master\1 Lavori\Mas\Mas100n1 ACB_0001_0\Mas100n1 ACUBE_PORTABILE R_0.prj] on file system [NTFS]
[2020.12.29 14:15:21] [0000m.00s.023ms] [1] S: WARNING: Database auto-repair support DISABLED
[2020.12.29 14:15:21] [0000m.00s.023ms] [0] S: Multi-user mode (config)
[2020.12.29 14:15:21] [0000m.00s.023ms] [0] S: Event polling mode autodetection
[2020.12.29 14:15:21] [0000m.00s.023ms] [0] S: Started up automatically by iCDB Client: DESKTOP-CUVV7JD:Shina:19348
[2020.12.29 14:15:21] [0000m.00s.023ms] [0] S: Auto close mode
[2020.12.29 14:15:21] [0000m.00s.023ms] [0] S: Database ID [1805-a7f8-66df-3e91-3fdd-aef8-fdda-ef50-71a7-4433-62ef-cf98]
[2020.12.29 14:15:21] [0000m.00s.023ms] [0] PathTranslator: BEGIN dumping
[2020.12.29 14:15:21] [0000m.00s.023ms] [0] PathTranslator: Local -> global path prefix list
[2020.12.29 14:15:21] [0000m.00s.023ms] [0] PathTranslator: [HP Universal Printing PCL 6,LocalsplOnly] -> [\\DESKTOP-CUVV7JD\HP Universal Printing PCL 6]
[2020.12.29 14:15:21] [0000m.00s.023ms] [0] PathTranslator: [C:\Windows\system32\spool\drivers] -> [\\DESKTOP-CUVV7JD\print$]
[2020.12.29 14:15:21] [0000m.00s.023ms] [0] PathTranslator: [J:\] -> [\\QNAP-TS420\Librerie\]
[2020.12.29 14:15:21] [0000m.00s.023ms] [0] PathTranslator: [K:\] -> [\\QNAP-TS420\Commesse\]
[2020.12.29 14:15:21] [0000m.00s.024ms] [0] PathTranslator: [M:\] -> [\\QNAP-TS420\Amministrazione\]
[2020.12.29 14:15:21] [0000m.00s.024ms] [0] PathTranslator: Global -> local path prefix list
[2020.12.29 14:15:21] [0000m.00s.024ms] [0] PathTranslator: [\\DESKTOP-CUVV7JD\HP Universal Printing PCL 6] -> [HP Universal Printing PCL 6,LocalsplOnly]
[2020.12.29 14:15:21] [0000m.00s.024ms] [0] PathTranslator: [\\QNAP-TS420\Amministrazione\] -> [M:\]
[2020.12.29 14:15:21] [0000m.00s.024ms] [0] PathTranslator: [\\DESKTOP-CUVV7JD\print$] -> [C:\Windows\system32\spool\drivers]
[2020.12.29 14:15:21] [0000m.00s.024ms] [0] PathTranslator: [\\QNAP-TS420\Librerie\] -> [J:\]
[2020.12.29 14:15:21] [0000m.00s.024ms] [0] PathTranslator: [\\QNAP-TS420\Commesse\] -> [K:\]
[2020.12.29 14:15:21] [0000m.00s.024ms] [0] PathTranslator: END dumping
[2020.12.29 14:15:21] [0000m.00s.024ms] [0] S: START
[2020.12.29 14:15:21] [0000m.00s.024ms] [0] S: Server startup lock file created
[2020.12.29 14:15:21] [0000m.00s.024ms] [0] S: Listening for client connections on port [10002]
[2020.12.29 14:15:21] [0000m.00s.025ms] [0] S: Server network ID [DESKTOP-CUVV7JD:192.168.1.159,DESKTOP-CUVV7JD:10002]
[2020.12.29 14:15:21] [0000m.00s.025ms] [0] S: Server GUID [4a40-7f54-b1cc-45b3-9eb2-befe-eb2b-ef50-fb78-4433-62ef-cf98]
[2020.12.29 14:15:21] [0000m.00s.025ms] [0] S: Project GUID [1805-a7f8-66df-3e91-3fdd-aef8-fdda-ef50-71a7-4433-62ef-cf98]
[2020.12.29 14:15:21] [0000m.00s.025ms] [0] S: Wrote data to server address file
[2020.12.29 14:15:21] [0000m.00s.026ms] [0] S: Server startup lock file removed
[2020.12.29 14:15:21] [0000m.00s.026ms] [1] ProjectBackupManager: Setting project file (.prj) path: [D:\Pd-Master\1 Lavori\Mas\Mas100n1 ACB_0001_0\Mas100n1 ACUBE_PORTABILE R_0.prj]
[2020.12.29 14:15:21] [0000m.00s.034ms] [0] S: Plugins loaded: [PIM] [ENetGen70] 
[2020.12.29 14:15:21] [0000m.00s.034ms] [1] ServerToolkit: INFO: Plugin not found in SDD_ICDB_BIN [C:\MentorGraphics64\PADSProVX.2.7\SDD_HOME\iCDB\win64\bin]
[2020.12.29 14:15:21] [0000m.00s.034ms] [1] ServerToolkit: INFO: Plugin not found in SDD_COMMON_BIN [C:\MentorGraphics64\PADSProVX.2.7\SDD_HOME\common\win64\bin]
[2020.12.29 14:15:21] [0000m.00s.035ms] [1] ServerToolkit: INFO: Plugin not found in PATH
[2020.12.29 14:15:21] [0000m.00s.035ms] [1] ServerToolkit: INFO: Plugin not found in CWD
[2020.12.29 14:15:21] [0000m.00s.035ms] [1] ServerToolkit: INFO: returning just plugin exe name!
[2020.12.29 14:15:21] [0000m.00s.035ms] [0] S: Local disc access time: 19 us
[2020.12.29 14:15:21] [0000m.00s.035ms] [0] S: File server access time: 50 us
[2020.12.29 14:15:21] [0000m.00s.036ms] [0] Single file [D:\Pd-Master\1 Lavori\Mas\Mas100n1 ACB_0001_0\keyin.icdb\icdb.dat] size [159800 (156.1 kB)]
[2020.12.29 14:15:21] [0000m.00s.036ms] [1] Single file [D:\Pd-Master\1 Lavori\Mas\Mas100n1 ACB_0001_0\keyin.icdb\icdb.dat] opened in read-write mode
[2020.12.29 14:15:21] [0000m.00s.036ms] [0] SingleFile: [0000-0000-0000-0000] SFI header version check [1009] [1009]
[2020.12.29 14:15:21] [0000m.00s.036ms] [0] Database GUARD OK: [159800]
[2020.12.29 14:15:21] [0000m.00s.036ms] [0] SingleFile: [0000-0000-0000-0000] SFI header version check [1009] [1009]
[2020.12.29 14:15:21] [0000m.00s.036ms] [0] Database GUARD OK: [159800]
[2020.12.29 14:15:21] [0000m.00s.036ms] [0] SingleFile: [0000-0000-0000-0000] SFI header version check [1009] [1009]
[2020.12.29 14:15:21] [0000m.00s.036ms] [0] Database GUARD OK: [159800]
[2020.12.29 14:15:21] [0000m.00s.036ms] [0] SingleFile: [0000-0000-0000-0000] SFI header version check [1009] [1009]
[2020.12.29 14:15:21] [0000m.00s.037ms] [0] Database GUARD OK: [159800]
[2020.12.29 14:15:21] [0000m.00s.037ms] [0] SingleFile: [0000-0000-0000-0000] SFI header version check [1009] [1009]
[2020.12.29 14:15:21] [0000m.00s.037ms] [0] Database GUARD OK: [159800]
[2020.12.29 14:15:21] [0000m.00s.037ms] [0] SingleFile: [b88a-9a25-c69a-fd9a] SFI version check [1009] [1009]
[2020.12.29 14:15:21] [0000m.00s.037ms] [0] SingleFile: [b88a-9a25-c69a-fd9a] Database SFI header has been read in [722us]
[2020.12.29 14:15:21] [0000m.00s.040ms] [0] iCDB Server PI: Server & plugin session [295]
[2020.12.29 14:15:21] [0000m.00s.040ms] [0] iCDB Server PI: Opening database [D:\Pd-Master\1 Lavori\Mas\Mas100n1 ACB_0001_0\keyin.icdb]
[2020.12.29 14:15:21] [0000m.00s.040ms] [0] iCDB Server PI: Database [D:\Pd-Master\1 Lavori\Mas\Mas100n1 ACB_0001_0\keyin.icdb] opened
[2020.12.29 14:15:21] [0000m.00s.055ms] [0] iCDB Database: Checking existence of constraint definitions
[2020.12.29 14:15:21] [0000m.00s.055ms] [0] iCDB Database: Checking constraint definitions version
[2020.12.29 14:15:21] [0000m.00s.071ms] [1] iCDB Database: Constraint definitions version [ce_ee.cns=7.10.69] up to date
[2020.12.29 14:15:21] [0000m.00s.074ms] [0] iCDB Server PI: Initializing plugins
[2020.12.29 14:15:21] [0000m.00s.074ms] [0] iCDB Server PI: Plugins initialized
[2020.12.29 14:15:21] [0000m.00s.074ms] [0] S: iCDB database loaded
[2020.12.29 14:15:21] [0000m.00s.074ms] [0] S: Starting threads
[2020.12.29 14:15:21] [0000m.00s.075ms] [0] BT: Listening for broadcast messages on port [10000]
[2020.12.29 14:15:21] [0000m.00s.075ms] [1] CMT: There are no clients - waiting [10 seconds]
[2020.12.29 14:15:21] [0000m.00s.075ms] [0] IT: Session [296] for host [DESKTOP-CUVV7JD] user [Shina] client type[0] clsvrPluginID[0] with process ID [19348] created
[2020.12.29 14:15:21] [0000m.00s.077ms] [1] SC[296]: Registered sub-client [Expedition PE_1220395046] with ID [1] for session ID [296] host [DESKTOP-CUVV7JD] user [Shina] process ID [19348]
[2020.12.29 14:15:21] [0000m.00s.079ms] [0] MWT: WindowProc: WM_NCCREATE
[2020.12.29 14:15:21] [0000m.00s.137ms] [1] SC[296]: Registered sub-client [EEVM_EEVM_937843824] with ID [2] for session ID [296] host [DESKTOP-CUVV7JD] user [Shina] process ID [19348]
[2020.12.29 14:15:21] [0000m.00s.138ms] [1] SC[296]: UnRegistered sub-client [EEVM_EEVM_937843824] with ID [2] for session ID [296] host [DESKTOP-CUVV7JD] user [Shina] process ID [19348]
[2020.12.29 14:15:21] [0000m.00s.181ms] [1] CMT: There are [1] clients now: 296
[2020.12.29 14:15:22] [0000m.00s.853ms] [1] SC[296]: Registered sub-client [JobPrefsDBPI_1220396000] with ID [3] for session ID [296] host [DESKTOP-CUVV7JD] user [Shina] process ID [19348]
[2020.12.29 14:15:22] [0000m.00s.858ms] [1] SC[296]: UnRegistered sub-client [JobPrefsDBPI_1220396000] with ID [3] for session ID [296] host [DESKTOP-CUVV7JD] user [Shina] process ID [19348]
[2020.12.29 14:15:24] [0000m.03s.061ms] [1] SC[296]: Registered sub-client [JobPrefsDBPI_1220398203] with ID [4] for session ID [296] host [DESKTOP-CUVV7JD] user [Shina] process ID [19348]
[2020.12.29 14:15:24] [0000m.03s.063ms] [1] SC[296]: UnRegistered sub-client [JobPrefsDBPI_1220398203] with ID [4] for session ID [296] host [DESKTOP-CUVV7JD] user [Shina] process ID [19348]
[2020.12.29 14:15:25] [0000m.04s.306ms] [1] PrjBackupMgr: Successfully created Project Backup [D:\Pd-Master\1 Lavori\Mas\Mas100n1 ACB_0001_0\ProjectBackup\backups\2020-12-29 14.15.21 - auto.zip] with GUID [8615-1f85-207b-13fc-9eb2-befe-eb2b-ef50-b6d8-4433-62ef-cf98]
[2020.12.29 14:15:25] [0000m.04s.306ms] [0] PrjBackupEngine: Successfully created backup:  BackupGUID[8615-1f85-207b-13fc-9eb2-befe-eb2b-ef50-b6d8-4433-62ef-cf98] CreationTime[Tuesday, December 29, 2020 13:15:21] Type[Autosave] Creator[iCDB Server (2020-12-29 14.15.21-16360)] ApplicationName[iCDB Server (2020-12-29 14.15.21-16360)] UserName[Shina] MachineName[DESKTOP-CUVV7JD] Description[Autosave] FullFlowName[PADS Pro Tools VX.2.7; PADS Pro Tools VX.2.7 - Update 7] FlowId[PADSProVX.2.7] GBSInstallId[2125238; 2239435] GBSBuildId[17235852] IcdbVersion[3800] ReferenceLogFilePath[] BackupFilePath[D:\Pd-Master\1 Lavori\Mas\Mas100n1 ACB_0001_0\ProjectBackup\backups\2020-12-29 14.15.21 - auto.zip] BackupFileSize[81666089] Persistent[FALSE]
[2020.12.29 14:15:37] [0000m.15s.930ms] [1] SC[296]: Registered sub-client [JobPrefsDBPI_1220411078] with ID [5] for session ID [296] host [DESKTOP-CUVV7JD] user [Shina] process ID [19348]
[2020.12.29 14:15:37] [0000m.15s.944ms] [1] SC[296]: UnRegistered sub-client [JobPrefsDBPI_1220411078] with ID [5] for session ID [296] host [DESKTOP-CUVV7JD] user [Shina] process ID [19348]
[2020.12.29 14:15:37] [0000m.16s.083ms] [1] SC[296]: Registered sub-client [JobPrefsDBPI_1220411218] with ID [6] for session ID [296] host [DESKTOP-CUVV7JD] user [Shina] process ID [19348]
[2020.12.29 14:15:37] [0000m.16s.097ms] [1] SC[296]: UnRegistered sub-client [JobPrefsDBPI_1220411218] with ID [6] for session ID [296] host [DESKTOP-CUVV7JD] user [Shina] process ID [19348]
[2020.12.29 14:15:37] [0000m.16s.219ms] [1] SC[296]: Registered sub-client [ExpeditionCrossProber] with ID [7] for session ID [296] host [DESKTOP-CUVV7JD] user [Shina] process ID [19348]
[2020.12.29 14:15:37] [0000m.16s.221ms] [1] SC[296]: Registered sub-client [StartServerClient57d8] with ID [8] for session ID [296] host [DESKTOP-CUVV7JD] user [Shina] process ID [19348]
[2020.12.29 14:15:37] [0000m.16s.221ms] [1] SC[296]: UnRegistered sub-client [StartServerClient57d8] with ID [8] for session ID [296] host [DESKTOP-CUVV7JD] user [Shina] process ID [19348]
[2020.12.29 14:15:50] [0000m.29s.259ms] [0] DFAMT: File server access time: 90 us
[2020.12.29 14:23:01] [0007m.39s.649ms] [0] IT: Session [297] for host [DESKTOP-CUVV7JD] user [Shina] client type[0] clsvrPluginID[0] with process ID [19272] created
[2020.12.29 14:23:01] [0007m.39s.649ms] [1] SC[297]: Registered sub-client [Shina (BE CES)] with ID [1] for session ID [297] host [DESKTOP-CUVV7JD] user [Shina] process ID [19272]
[2020.12.29 14:23:01] [0007m.39s.663ms] [1] CMT: There are [2] clients now: 296, 297
[2020.12.29 14:23:03] [0007m.41s.544ms] [1] SC[297]: Registered sub-client [StartServerClient4d38] with ID [2] for session ID [297] host [DESKTOP-CUVV7JD] user [Shina] process ID [19272]
[2020.12.29 14:23:03] [0007m.41s.544ms] [1] SC[297]: UnRegistered sub-client [StartServerClient4d38] with ID [2] for session ID [297] host [DESKTOP-CUVV7JD] user [Shina] process ID [19272]
[2020.12.29 14:23:05] [0007m.43s.592ms] [1] SC[297]: Registered sub-client [Shina (Stackup Editor)] with ID [3] for session ID [297] host [DESKTOP-CUVV7JD] user [Shina] process ID [19272]
[2020.12.29 14:23:05] [0007m.43s.946ms] [1] SC[296]: Registered sub-client [JobPrefsDBPI_1220859093] with ID [9] for session ID [296] host [DESKTOP-CUVV7JD] user [Shina] process ID [19348]
[2020.12.29 14:23:05] [0007m.43s.949ms] [1] SC[296]: UnRegistered sub-client [JobPrefsDBPI_1220859093] with ID [9] for session ID [296] host [DESKTOP-CUVV7JD] user [Shina] process ID [19348]
[2020.12.29 14:25:33] [0010m.11s.805ms] [1] SC[296]: Registered sub-client [JobPrefsDBPI_1221006953] with ID [10] for session ID [296] host [DESKTOP-CUVV7JD] user [Shina] process ID [19348]
[2020.12.29 14:25:33] [0010m.11s.806ms] [1] SC[296]: UnRegistered sub-client [JobPrefsDBPI_1221006953] with ID [10] for session ID [296] host [DESKTOP-CUVV7JD] user [Shina] process ID [19348]
[2020.12.29 14:25:33] [0010m.11s.820ms] [1] SC[296]: Registered sub-client [JobPrefsDBPI_1221006968] with ID [11] for session ID [296] host [DESKTOP-CUVV7JD] user [Shina] process ID [19348]
[2020.12.29 14:25:33] [0010m.11s.822ms] [1] SC[296]: UnRegistered sub-client [JobPrefsDBPI_1221006968] with ID [11] for session ID [296] host [DESKTOP-CUVV7JD] user [Shina] process ID [19348]
[2020.12.29 14:26:36] [0011m.15s.078ms] [1] SC[297]: UnRegistered sub-client [Shina (Stackup Editor)] with ID [3] for session ID [297] host [DESKTOP-CUVV7JD] user [Shina] process ID [19272]
[2020.12.29 14:33:12] [0017m.51s.294ms] [1] SC[297]: UnRegistered sub-client [Shina (BE CES)] with ID [1] for session ID [297] host [DESKTOP-CUVV7JD] user [Shina] process ID [19272]
[2020.12.29 14:33:13] [0017m.51s.345ms] [1] CMT: Removed client [297]
[2020.12.29 14:33:13] [0017m.51s.345ms] [1] CMT: There are [1] clients now: 296
[2020.12.29 14:37:59] [0022m.37s.545ms] [0] IT: Session [298] for host [DESKTOP-CUVV7JD] user [Shina] client type[0] clsvrPluginID[0] with process ID [19020] created
[2020.12.29 14:37:59] [0022m.37s.546ms] [1] SC[298]: Registered sub-client [Shina (BE CES)] with ID [1] for session ID [298] host [DESKTOP-CUVV7JD] user [Shina] process ID [19020]
[2020.12.29 14:37:59] [0022m.37s.559ms] [1] CMT: There are [2] clients now: 296, 298
[2020.12.29 14:38:01] [0022m.39s.790ms] [1] SC[298]: Registered sub-client [StartServerClient5bfc] with ID [2] for session ID [298] host [DESKTOP-CUVV7JD] user [Shina] process ID [19020]
[2020.12.29 14:38:01] [0022m.39s.790ms] [1] SC[298]: UnRegistered sub-client [StartServerClient5bfc] with ID [2] for session ID [298] host [DESKTOP-CUVV7JD] user [Shina] process ID [19020]
[2020.12.29 15:17:11] [0061m.50s.070ms] [1] SC[298]: UnRegistered sub-client [Shina (BE CES)] with ID [1] for session ID [298] host [DESKTOP-CUVV7JD] user [Shina] process ID [19020]
[2020.12.29 15:17:11] [0061m.50s.072ms] [1] CMT: Removed client [298]
[2020.12.29 15:17:11] [0061m.50s.072ms] [1] CMT: There are [1] clients now: 296
[2020.12.29 15:17:11] [0061m.50s.139ms] [1] SC[296]: Registered sub-client [JobPrefsDBPI_1224105281] with ID [12] for session ID [296] host [DESKTOP-CUVV7JD] user [Shina] process ID [19348]
[2020.12.29 15:17:11] [0061m.50s.145ms] [1] SC[296]: UnRegistered sub-client [JobPrefsDBPI_1224105281] with ID [12] for session ID [296] host [DESKTOP-CUVV7JD] user [Shina] process ID [19348]
[2020.12.29 15:17:26] [0062m.04s.573ms] [0] IT: Session [299] for host [DESKTOP-CUVV7JD] user [Shina] client type[0] clsvrPluginID[0] with process ID [11884] created
[2020.12.29 15:17:26] [0062m.04s.573ms] [1] SC[299]: Registered sub-client [Shina (BE CES)] with ID [1] for session ID [299] host [DESKTOP-CUVV7JD] user [Shina] process ID [11884]
[2020.12.29 15:17:26] [0062m.04s.601ms] [1] CMT: There are [2] clients now: 296, 299
[2020.12.29 15:17:28] [0062m.06s.847ms] [1] SC[299]: Registered sub-client [StartServerClient7c8] with ID [2] for session ID [299] host [DESKTOP-CUVV7JD] user [Shina] process ID [11884]
[2020.12.29 15:17:28] [0062m.06s.847ms] [1] SC[299]: UnRegistered sub-client [StartServerClient7c8] with ID [2] for session ID [299] host [DESKTOP-CUVV7JD] user [Shina] process ID [11884]
[2020.12.29 15:17:31] [0062m.09s.375ms] [1] SC[299]: UnRegistered sub-client [Shina (BE CES)] with ID [1] for session ID [299] host [DESKTOP-CUVV7JD] user [Shina] process ID [11884]
[2020.12.29 15:17:31] [0062m.09s.458ms] [1] CMT: Removed client [299]
[2020.12.29 15:17:31] [0062m.09s.458ms] [1] CMT: There are [1] clients now: 296
[2020.12.29 15:18:05] [0062m.43s.785ms] [0] IT: Session [300] for host [DESKTOP-CUVV7JD] user [Shina] client type[0] clsvrPluginID[0] with process ID [22376] created
[2020.12.29 15:18:05] [0062m.43s.786ms] [1] SC[300]: Registered sub-client [Shina (BE CES)] with ID [1] for session ID [300] host [DESKTOP-CUVV7JD] user [Shina] process ID [22376]
[2020.12.29 15:18:05] [0062m.43s.845ms] [1] CMT: There are [2] clients now: 296, 300
[2020.12.29 15:18:07] [0062m.46s.057ms] [1] SC[300]: Registered sub-client [StartServerClient376c] with ID [2] for session ID [300] host [DESKTOP-CUVV7JD] user [Shina] process ID [22376]
[2020.12.29 15:18:07] [0062m.46s.057ms] [1] SC[300]: UnRegistered sub-client [StartServerClient376c] with ID [2] for session ID [300] host [DESKTOP-CUVV7JD] user [Shina] process ID [22376]
[2020.12.29 15:18:11] [0062m.50s.178ms] [1] SC[300]: Registered sub-client [Shina (Stackup Editor)] with ID [3] for session ID [300] host [DESKTOP-CUVV7JD] user [Shina] process ID [22376]
[2020.12.29 15:18:12] [0062m.50s.358ms] [1] SC[296]: Registered sub-client [JobPrefsDBPI_1224165500] with ID [13] for session ID [296] host [DESKTOP-CUVV7JD] user [Shina] process ID [19348]
[2020.12.29 15:18:12] [0062m.50s.360ms] [1] SC[296]: UnRegistered sub-client [JobPrefsDBPI_1224165500] with ID [13] for session ID [296] host [DESKTOP-CUVV7JD] user [Shina] process ID [19348]
[2020.12.29 15:22:39] [0067m.17s.779ms] [1] SC[296]: Registered sub-client [JobPrefsDBPI_1224432921] with ID [14] for session ID [296] host [DESKTOP-CUVV7JD] user [Shina] process ID [19348]
[2020.12.29 15:22:39] [0067m.17s.781ms] [1] SC[296]: UnRegistered sub-client [JobPrefsDBPI_1224432921] with ID [14] for session ID [296] host [DESKTOP-CUVV7JD] user [Shina] process ID [19348]
[2020.12.29 15:22:40] [0067m.18s.717ms] [1] SC[296]: Registered sub-client [JobPrefsDBPI_1224433859] with ID [15] for session ID [296] host [DESKTOP-CUVV7JD] user [Shina] process ID [19348]
[2020.12.29 15:22:40] [0067m.18s.719ms] [1] SC[296]: UnRegistered sub-client [JobPrefsDBPI_1224433859] with ID [15] for session ID [296] host [DESKTOP-CUVV7JD] user [Shina] process ID [19348]
[2020.12.29 15:22:40] [0067m.18s.978ms] [1] SC[296]: Registered sub-client [JobPrefsDBPI_1224434125] with ID [16] for session ID [296] host [DESKTOP-CUVV7JD] user [Shina] process ID [19348]
[2020.12.29 15:22:40] [0067m.18s.980ms] [1] SC[296]: UnRegistered sub-client [JobPrefsDBPI_1224434125] with ID [16] for session ID [296] host [DESKTOP-CUVV7JD] user [Shina] process ID [19348]
[2020.12.29 15:22:43] [0067m.22s.234ms] [1] SC[296]: Registered sub-client [JobPrefsDBPI_1224437375] with ID [17] for session ID [296] host [DESKTOP-CUVV7JD] user [Shina] process ID [19348]
[2020.12.29 15:22:43] [0067m.22s.236ms] [1] SC[296]: UnRegistered sub-client [JobPrefsDBPI_1224437375] with ID [17] for session ID [296] host [DESKTOP-CUVV7JD] user [Shina] process ID [19348]
[2020.12.29 15:22:44] [0067m.22s.844ms] [1] SC[296]: Registered sub-client [JobPrefsDBPI_1224437984] with ID [18] for session ID [296] host [DESKTOP-CUVV7JD] user [Shina] process ID [19348]
[2020.12.29 15:22:44] [0067m.22s.846ms] [1] SC[296]: UnRegistered sub-client [JobPrefsDBPI_1224437984] with ID [18] for session ID [296] host [DESKTOP-CUVV7JD] user [Shina] process ID [19348]
[2020.12.29 15:22:44] [0067m.23s.071ms] [1] SC[296]: Registered sub-client [JobPrefsDBPI_1224438218] with ID [19] for session ID [296] host [DESKTOP-CUVV7JD] user [Shina] process ID [19348]
[2020.12.29 15:22:44] [0067m.23s.073ms] [1] SC[296]: UnRegistered sub-client [JobPrefsDBPI_1224438218] with ID [19] for session ID [296] host [DESKTOP-CUVV7JD] user [Shina] process ID [19348]
[2020.12.29 15:22:45] [0067m.23s.890ms] [1] SC[296]: Registered sub-client [JobPrefsDBPI_1224439031] with ID [20] for session ID [296] host [DESKTOP-CUVV7JD] user [Shina] process ID [19348]
[2020.12.29 15:22:45] [0067m.23s.891ms] [1] SC[296]: UnRegistered sub-client [JobPrefsDBPI_1224439031] with ID [20] for session ID [296] host [DESKTOP-CUVV7JD] user [Shina] process ID [19348]
[2020.12.29 15:22:45] [0067m.24s.235ms] [1] SC[296]: Registered sub-client [JobPrefsDBPI_1224439375] with ID [21] for session ID [296] host [DESKTOP-CUVV7JD] user [Shina] process ID [19348]
[2020.12.29 15:22:45] [0067m.24s.237ms] [1] SC[296]: UnRegistered sub-client [JobPrefsDBPI_1224439375] with ID [21] for session ID [296] host [DESKTOP-CUVV7JD] user [Shina] process ID [19348]
[2020.12.29 15:22:46] [0067m.24s.591ms] [1] SC[296]: Registered sub-client [JobPrefsDBPI_1224439734] with ID [22] for session ID [296] host [DESKTOP-CUVV7JD] user [Shina] process ID [19348]
[2020.12.29 15:22:46] [0067m.24s.593ms] [1] SC[296]: UnRegistered sub-client [JobPrefsDBPI_1224439734] with ID [22] for session ID [296] host [DESKTOP-CUVV7JD] user [Shina] process ID [19348]
[2020.12.29 15:22:46] [0067m.24s.853ms] [1] SC[296]: Registered sub-client [JobPrefsDBPI_1224440000] with ID [23] for session ID [296] host [DESKTOP-CUVV7JD] user [Shina] process ID [19348]
[2020.12.29 15:22:46] [0067m.24s.855ms] [1] SC[296]: UnRegistered sub-client [JobPrefsDBPI_1224440000] with ID [23] for session ID [296] host [DESKTOP-CUVV7JD] user [Shina] process ID [19348]
[2020.12.29 15:25:46] [0070m.25s.110ms] [1] SC[296]: Registered sub-client [JobPrefsDBPI_1224620250] with ID [24] for session ID [296] host [DESKTOP-CUVV7JD] user [Shina] process ID [19348]
[2020.12.29 15:25:46] [0070m.25s.112ms] [1] SC[296]: UnRegistered sub-client [JobPrefsDBPI_1224620250] with ID [24] for session ID [296] host [DESKTOP-CUVV7JD] user [Shina] process ID [19348]
[2020.12.29 15:25:46] [0070m.25s.128ms] [1] SC[296]: Registered sub-client [JobPrefsDBPI_1224620265] with ID [25] for session ID [296] host [DESKTOP-CUVV7JD] user [Shina] process ID [19348]
[2020.12.29 15:25:46] [0070m.25s.130ms] [1] SC[296]: UnRegistered sub-client [JobPrefsDBPI_1224620265] with ID [25] for session ID [296] host [DESKTOP-CUVV7JD] user [Shina] process ID [19348]
[2020.12.29 15:25:49] [0070m.27s.938ms] [1] SC[300]: UnRegistered sub-client [Shina (Stackup Editor)] with ID [3] for session ID [300] host [DESKTOP-CUVV7JD] user [Shina] process ID [22376]
[2020.12.29 15:25:57] [0070m.35s.999ms] [1] SC[300]: UnRegistered sub-client [Shina (BE CES)] with ID [1] for session ID [300] host [DESKTOP-CUVV7JD] user [Shina] process ID [22376]
[2020.12.29 15:25:57] [0070m.36s.041ms] [1] CMT: Removed client [300]
[2020.12.29 15:25:57] [0070m.36s.041ms] [1] CMT: There are [1] clients now: 296
[2020.12.29 15:25:57] [0070m.36s.125ms] [1] SC[296]: Registered sub-client [JobPrefsDBPI_1224631265] with ID [26] for session ID [296] host [DESKTOP-CUVV7JD] user [Shina] process ID [19348]
[2020.12.29 15:25:57] [0070m.36s.139ms] [1] SC[296]: UnRegistered sub-client [JobPrefsDBPI_1224631265] with ID [26] for session ID [296] host [DESKTOP-CUVV7JD] user [Shina] process ID [19348]
[2020.12.29 15:25:58] [0070m.36s.816ms] [1] SC[296]: UnRegistered sub-client [ExpeditionCrossProber] with ID [7] for session ID [296] host [DESKTOP-CUVV7JD] user [Shina] process ID [19348]
[2020.12.29 15:25:59] [0070m.38s.256ms] [1] SC[296]: UnRegistered sub-client [Expedition PE_1220395046] with ID [1] for session ID [296] host [DESKTOP-CUVV7JD] user [Shina] process ID [19348]
[2020.12.29 15:26:00] [0070m.38s.319ms] [1] CMT: Removed client [296]
[2020.12.29 15:26:00] [0070m.38s.319ms] [1] CMT: There are no clients left - waiting [1 seconds]
[2020.12.29 15:26:00] [0070m.38s.924ms] [0] IT: Session [301] for host [DESKTOP-CUVV7JD] user [Shina] client type[0] clsvrPluginID[0] with process ID [19348] created
[2020.12.29 15:26:00] [0070m.38s.925ms] [1] SC[301]: Registered sub-client [Expedition PE_1224634062] with ID [1] for session ID [301] host [DESKTOP-CUVV7JD] user [Shina] process ID [19348]
[2020.12.29 15:26:01] [0070m.39s.709ms] [1] SC[301]: Registered sub-client [JobPrefsDBPI_1224634843] with ID [2] for session ID [301] host [DESKTOP-CUVV7JD] user [Shina] process ID [19348]
[2020.12.29 15:26:01] [0070m.39s.713ms] [1] SC[301]: UnRegistered sub-client [JobPrefsDBPI_1224634843] with ID [2] for session ID [301] host [DESKTOP-CUVV7JD] user [Shina] process ID [19348]
[2020.12.29 15:26:04] [0070m.42s.677ms] [1] SC[301]: Registered sub-client [ExpeditionCrossProber] with ID [3] for session ID [301] host [DESKTOP-CUVV7JD] user [Shina] process ID [19348]
[2020.12.29 15:26:04] [0070m.42s.679ms] [1] SC[301]: Registered sub-client [StartServerClient57d8] with ID [4] for session ID [301] host [DESKTOP-CUVV7JD] user [Shina] process ID [19348]
[2020.12.29 15:26:04] [0070m.42s.679ms] [1] SC[301]: UnRegistered sub-client [StartServerClient57d8] with ID [4] for session ID [301] host [DESKTOP-CUVV7JD] user [Shina] process ID [19348]
[2020.12.29 15:29:31] [0074m.09s.319ms] [1] SC[301]: Registered sub-client [Shina (Stackup Editor)] with ID [5] for session ID [301] host [DESKTOP-CUVV7JD] user [Shina] process ID [19348]
[2020.12.29 15:29:31] [0074m.09s.438ms] [1] SC[301]: Registered sub-client [JobPrefsDBPI_1224844578] with ID [6] for session ID [301] host [DESKTOP-CUVV7JD] user [Shina] process ID [19348]
[2020.12.29 15:29:31] [0074m.09s.440ms] [1] SC[301]: UnRegistered sub-client [JobPrefsDBPI_1224844578] with ID [6] for session ID [301] host [DESKTOP-CUVV7JD] user [Shina] process ID [19348]
[2020.12.29 15:30:17] [0074m.55s.350ms] [1] SC[301]: Registered sub-client [JobPrefsDBPI_1224890500] with ID [7] for session ID [301] host [DESKTOP-CUVV7JD] user [Shina] process ID [19348]
[2020.12.29 15:30:17] [0074m.55s.352ms] [1] SC[301]: UnRegistered sub-client [JobPrefsDBPI_1224890500] with ID [7] for session ID [301] host [DESKTOP-CUVV7JD] user [Shina] process ID [19348]
[2020.12.29 15:30:25] [0075m.03s.768ms] [1] SC[301]: Registered sub-client [JobPrefsDBPI_1224898906] with ID [8] for session ID [301] host [DESKTOP-CUVV7JD] user [Shina] process ID [19348]
[2020.12.29 15:30:25] [0075m.03s.770ms] [1] SC[301]: UnRegistered sub-client [JobPrefsDBPI_1224898906] with ID [8] for session ID [301] host [DESKTOP-CUVV7JD] user [Shina] process ID [19348]
[2020.12.29 15:30:35] [0075m.13s.655ms] [1] SC[301]: Registered sub-client [JobPrefsDBPI_1224908796] with ID [9] for session ID [301] host [DESKTOP-CUVV7JD] user [Shina] process ID [19348]
[2020.12.29 15:30:35] [0075m.13s.657ms] [1] SC[301]: UnRegistered sub-client [JobPrefsDBPI_1224908796] with ID [9] for session ID [301] host [DESKTOP-CUVV7JD] user [Shina] process ID [19348]
[2020.12.29 15:30:35] [0075m.13s.693ms] [1] SC[301]: Registered sub-client [JobPrefsDBPI_1224908828] with ID [10] for session ID [301] host [DESKTOP-CUVV7JD] user [Shina] process ID [19348]
[2020.12.29 15:30:35] [0075m.13s.695ms] [1] SC[301]: UnRegistered sub-client [JobPrefsDBPI_1224908828] with ID [10] for session ID [301] host [DESKTOP-CUVV7JD] user [Shina] process ID [19348]
[2020.12.29 15:30:35] [0075m.13s.871ms] [1] SC[301]: UnRegistered sub-client [Shina (Stackup Editor)] with ID [5] for session ID [301] host [DESKTOP-CUVV7JD] user [Shina] process ID [19348]
[2020.12.29 15:30:35] [0075m.13s.948ms] [1] SC[301]: Registered sub-client [JobPrefsDBPI_1224909093] with ID [11] for session ID [301] host [DESKTOP-CUVV7JD] user [Shina] process ID [19348]
[2020.12.29 15:30:35] [0075m.13s.975ms] [1] SC[301]: UnRegistered sub-client [JobPrefsDBPI_1224909093] with ID [11] for session ID [301] host [DESKTOP-CUVV7JD] user [Shina] process ID [19348]
[2020.12.29 15:30:36] [0075m.14s.578ms] [1] SC[301]: UnRegistered sub-client [ExpeditionCrossProber] with ID [3] for session ID [301] host [DESKTOP-CUVV7JD] user [Shina] process ID [19348]
[2020.12.29 15:30:37] [0075m.16s.024ms] [1] SC[301]: UnRegistered sub-client [Expedition PE_1224634062] with ID [1] for session ID [301] host [DESKTOP-CUVV7JD] user [Shina] process ID [19348]
[2020.12.29 15:30:37] [0075m.16s.064ms] [1] CMT: Removed client [301]
[2020.12.29 15:30:37] [0075m.16s.064ms] [1] CMT: There are no clients left - waiting [1 seconds]
[2020.12.29 15:30:38] [0075m.16s.716ms] [0] IT: Session [302] for host [DESKTOP-CUVV7JD] user [Shina] client type[0] clsvrPluginID[0] with process ID [19348] created
[2020.12.29 15:30:38] [0075m.16s.717ms] [1] SC[302]: Registered sub-client [Expedition PE_1224911843] with ID [1] for session ID [302] host [DESKTOP-CUVV7JD] user [Shina] process ID [19348]
[2020.12.29 15:30:39] [0075m.17s.515ms] [1] SC[302]: Registered sub-client [JobPrefsDBPI_1224912656] with ID [2] for session ID [302] host [DESKTOP-CUVV7JD] user [Shina] process ID [19348]
[2020.12.29 15:30:39] [0075m.17s.520ms] [1] SC[302]: UnRegistered sub-client [JobPrefsDBPI_1224912656] with ID [2] for session ID [302] host [DESKTOP-CUVV7JD] user [Shina] process ID [19348]
[2020.12.29 15:30:41] [0075m.19s.417ms] [1] SC[302]: Registered sub-client [JobPrefsDBPI_1224914562] with ID [3] for session ID [302] host [DESKTOP-CUVV7JD] user [Shina] process ID [19348]
[2020.12.29 15:30:41] [0075m.19s.420ms] [1] SC[302]: UnRegistered sub-client [JobPrefsDBPI_1224914562] with ID [3] for session ID [302] host [DESKTOP-CUVV7JD] user [Shina] process ID [19348]
[2020.12.29 15:30:42] [0075m.20s.491ms] [1] SC[302]: Registered sub-client [ExpeditionCrossProber] with ID [4] for session ID [302] host [DESKTOP-CUVV7JD] user [Shina] process ID [19348]
[2020.12.29 15:30:42] [0075m.20s.493ms] [1] SC[302]: Registered sub-client [StartServerClient57d8] with ID [5] for session ID [302] host [DESKTOP-CUVV7JD] user [Shina] process ID [19348]
[2020.12.29 15:30:42] [0075m.20s.501ms] [1] SC[302]: UnRegistered sub-client [StartServerClient57d8] with ID [5] for session ID [302] host [DESKTOP-CUVV7JD] user [Shina] process ID [19348]
[2020.12.29 15:31:47] [0076m.25s.376ms] [1] SC[302]: Registered sub-client [Shina (Stackup Editor)] with ID [6] for session ID [302] host [DESKTOP-CUVV7JD] user [Shina] process ID [19348]
[2020.12.29 15:31:47] [0076m.25s.642ms] [1] SC[302]: Registered sub-client [JobPrefsDBPI_1224980781] with ID [7] for session ID [302] host [DESKTOP-CUVV7JD] user [Shina] process ID [19348]
[2020.12.29 15:31:47] [0076m.25s.644ms] [1] SC[302]: UnRegistered sub-client [JobPrefsDBPI_1224980781] with ID [7] for session ID [302] host [DESKTOP-CUVV7JD] user [Shina] process ID [19348]
[2020.12.29 15:32:51] [0077m.29s.355ms] [1] SC[302]: Registered sub-client [JobPrefsDBPI_1225044500] with ID [8] for session ID [302] host [DESKTOP-CUVV7JD] user [Shina] process ID [19348]
[2020.12.29 15:32:51] [0077m.29s.357ms] [1] SC[302]: UnRegistered sub-client [JobPrefsDBPI_1225044500] with ID [8] for session ID [302] host [DESKTOP-CUVV7JD] user [Shina] process ID [19348]
[2020.12.29 15:33:03] [0077m.41s.339ms] [1] SC[302]: Registered sub-client [JobPrefsDBPI_1225056484] with ID [9] for session ID [302] host [DESKTOP-CUVV7JD] user [Shina] process ID [19348]
[2020.12.29 15:33:03] [0077m.41s.341ms] [1] SC[302]: UnRegistered sub-client [JobPrefsDBPI_1225056484] with ID [9] for session ID [302] host [DESKTOP-CUVV7JD] user [Shina] process ID [19348]
[2020.12.29 15:33:07] [0077m.45s.835ms] [1] SC[302]: Registered sub-client [JobPrefsDBPI_1225060984] with ID [10] for session ID [302] host [DESKTOP-CUVV7JD] user [Shina] process ID [19348]
[2020.12.29 15:33:07] [0077m.45s.837ms] [1] SC[302]: UnRegistered sub-client [JobPrefsDBPI_1225060984] with ID [10] for session ID [302] host [DESKTOP-CUVV7JD] user [Shina] process ID [19348]
[2020.12.29 15:33:12] [0077m.50s.670ms] [1] SC[302]: Registered sub-client [JobPrefsDBPI_1225065812] with ID [11] for session ID [302] host [DESKTOP-CUVV7JD] user [Shina] process ID [19348]
[2020.12.29 15:33:12] [0077m.50s.672ms] [1] SC[302]: UnRegistered sub-client [JobPrefsDBPI_1225065812] with ID [11] for session ID [302] host [DESKTOP-CUVV7JD] user [Shina] process ID [19348]
[2020.12.29 15:33:12] [0077m.50s.706ms] [1] SC[302]: Registered sub-client [JobPrefsDBPI_1225065843] with ID [12] for session ID [302] host [DESKTOP-CUVV7JD] user [Shina] process ID [19348]
[2020.12.29 15:33:12] [0077m.50s.708ms] [1] SC[302]: UnRegistered sub-client [JobPrefsDBPI_1225065843] with ID [12] for session ID [302] host [DESKTOP-CUVV7JD] user [Shina] process ID [19348]
[2020.12.29 15:33:12] [0077m.51s.056ms] [1] SC[302]: UnRegistered sub-client [Shina (Stackup Editor)] with ID [6] for session ID [302] host [DESKTOP-CUVV7JD] user [Shina] process ID [19348]
[2020.12.29 15:33:12] [0077m.51s.139ms] [1] SC[302]: Registered sub-client [JobPrefsDBPI_1225066281] with ID [13] for session ID [302] host [DESKTOP-CUVV7JD] user [Shina] process ID [19348]
[2020.12.29 15:33:12] [0077m.51s.166ms] [1] SC[302]: UnRegistered sub-client [JobPrefsDBPI_1225066281] with ID [13] for session ID [302] host [DESKTOP-CUVV7JD] user [Shina] process ID [19348]
[2020.12.29 15:33:13] [0077m.51s.762ms] [1] SC[302]: UnRegistered sub-client [ExpeditionCrossProber] with ID [4] for session ID [302] host [DESKTOP-CUVV7JD] user [Shina] process ID [19348]
[2020.12.29 15:33:14] [0077m.53s.216ms] [1] iCDB Storage Server: WARNING: Unloading CHANGED file [D:\Pd-Master\1 Lavori\Mas\Mas100n1 ACB_0001_0\keyin.icdb\s2\cdbcatlg\catlgatl.v] - auto-saving it
[2020.12.29 15:33:14] [0077m.53s.216ms] [1] iCDB Storage Server: WARNING: Unloading CHANGED file [D:\Pd-Master\1 Lavori\Mas\Mas100n1 ACB_0001_0\keyin.icdb\s2\cdbcnfgs\2000000010000050.blk\cesatl.v] - auto-saving it
[2020.12.29 15:33:14] [0077m.53s.220ms] [1] SC[302]: UnRegistered sub-client [Expedition PE_1224911843] with ID [1] for session ID [302] host [DESKTOP-CUVV7JD] user [Shina] process ID [19348]
[2020.12.29 15:33:14] [0077m.53s.230ms] [1] CMT: Removed client [302]
[2020.12.29 15:33:14] [0077m.53s.230ms] [1] CMT: There are no clients left - waiting [1 seconds]
[2020.12.29 15:33:15] [0077m.53s.928ms] [0] IT: Session [303] for host [DESKTOP-CUVV7JD] user [Shina] client type[0] clsvrPluginID[0] with process ID [19348] created
[2020.12.29 15:33:15] [0077m.53s.929ms] [1] SC[303]: Registered sub-client [Expedition PE_1225069062] with ID [1] for session ID [303] host [DESKTOP-CUVV7JD] user [Shina] process ID [19348]
[2020.12.29 15:33:16] [0077m.54s.709ms] [1] SC[303]: Registered sub-client [JobPrefsDBPI_1225069843] with ID [2] for session ID [303] host [DESKTOP-CUVV7JD] user [Shina] process ID [19348]
[2020.12.29 15:33:16] [0077m.54s.713ms] [1] SC[303]: UnRegistered sub-client [JobPrefsDBPI_1225069843] with ID [2] for session ID [303] host [DESKTOP-CUVV7JD] user [Shina] process ID [19348]
[2020.12.29 15:33:18] [0077m.56s.569ms] [1] SC[303]: Registered sub-client [JobPrefsDBPI_1225071703] with ID [3] for session ID [303] host [DESKTOP-CUVV7JD] user [Shina] process ID [19348]
[2020.12.29 15:33:18] [0077m.56s.571ms] [1] SC[303]: UnRegistered sub-client [JobPrefsDBPI_1225071703] with ID [3] for session ID [303] host [DESKTOP-CUVV7JD] user [Shina] process ID [19348]
[2020.12.29 15:33:19] [0077m.57s.717ms] [1] SC[303]: Registered sub-client [ExpeditionCrossProber] with ID [4] for session ID [303] host [DESKTOP-CUVV7JD] user [Shina] process ID [19348]
[2020.12.29 15:33:19] [0077m.57s.719ms] [1] SC[303]: Registered sub-client [StartServerClient57d8] with ID [5] for session ID [303] host [DESKTOP-CUVV7JD] user [Shina] process ID [19348]
[2020.12.29 15:33:19] [0077m.57s.719ms] [1] SC[303]: UnRegistered sub-client [StartServerClient57d8] with ID [5] for session ID [303] host [DESKTOP-CUVV7JD] user [Shina] process ID [19348]
[2020.12.29 15:37:12] [0081m.50s.871ms] [1] SC[303]: Registered sub-client [JobPrefsDBPI_1225306015] with ID [6] for session ID [303] host [DESKTOP-CUVV7JD] user [Shina] process ID [19348]
[2020.12.29 15:37:16] [0081m.54s.686ms] [1] SC[303]: UnRegistered sub-client [JobPrefsDBPI_1225306015] with ID [6] for session ID [303] host [DESKTOP-CUVV7JD] user [Shina] process ID [19348]
[2020.12.29 15:39:25] [0084m.03s.856ms] [0] IT: Session [304] for host [DESKTOP-CUVV7JD] user [Shina] client type[0] clsvrPluginID[0] with process ID [3248] created
[2020.12.29 15:39:25] [0084m.03s.857ms] [1] SC[304]: Registered sub-client [Shina (BE CES)] with ID [1] for session ID [304] host [DESKTOP-CUVV7JD] user [Shina] process ID [3248]
[2020.12.29 15:39:25] [0084m.03s.932ms] [1] CMT: There are [2] clients now: 303, 304
[2020.12.29 15:39:27] [0084m.06s.103ms] [1] SC[304]: Registered sub-client [StartServerClient2d98] with ID [2] for session ID [304] host [DESKTOP-CUVV7JD] user [Shina] process ID [3248]
[2020.12.29 15:39:27] [0084m.06s.104ms] [1] SC[304]: UnRegistered sub-client [StartServerClient2d98] with ID [2] for session ID [304] host [DESKTOP-CUVV7JD] user [Shina] process ID [3248]
[2020.12.29 15:39:45] [0084m.24s.188ms] [1] SC[304]: Registered sub-client [Shina (Stackup Editor)] with ID [3] for session ID [304] host [DESKTOP-CUVV7JD] user [Shina] process ID [3248]
[2020.12.29 15:39:46] [0084m.24s.548ms] [1] SC[303]: Registered sub-client [JobPrefsDBPI_1225459687] with ID [7] for session ID [303] host [DESKTOP-CUVV7JD] user [Shina] process ID [19348]
[2020.12.29 15:39:46] [0084m.24s.550ms] [1] SC[303]: UnRegistered sub-client [JobPrefsDBPI_1225459687] with ID [7] for session ID [303] host [DESKTOP-CUVV7JD] user [Shina] process ID [19348]
[2020.12.29 15:39:57] [0084m.35s.362ms] [1] SC[303]: Registered sub-client [JobPrefsDBPI_1225470500] with ID [8] for session ID [303] host [DESKTOP-CUVV7JD] user [Shina] process ID [19348]
[2020.12.29 15:39:57] [0084m.35s.364ms] [1] SC[303]: UnRegistered sub-client [JobPrefsDBPI_1225470500] with ID [8] for session ID [303] host [DESKTOP-CUVV7JD] user [Shina] process ID [19348]
[2020.12.29 15:40:01] [0084m.39s.538ms] [1] SC[303]: Registered sub-client [JobPrefsDBPI_1225474687] with ID [9] for session ID [303] host [DESKTOP-CUVV7JD] user [Shina] process ID [19348]
[2020.12.29 15:40:01] [0084m.39s.540ms] [1] SC[303]: UnRegistered sub-client [JobPrefsDBPI_1225474687] with ID [9] for session ID [303] host [DESKTOP-CUVV7JD] user [Shina] process ID [19348]
[2020.12.29 15:40:03] [0084m.41s.629ms] [1] SC[303]: Registered sub-client [JobPrefsDBPI_1225476765] with ID [10] for session ID [303] host [DESKTOP-CUVV7JD] user [Shina] process ID [19348]
[2020.12.29 15:40:03] [0084m.41s.631ms] [1] SC[303]: UnRegistered sub-client [JobPrefsDBPI_1225476765] with ID [10] for session ID [303] host [DESKTOP-CUVV7JD] user [Shina] process ID [19348]
[2020.12.29 15:40:06] [0084m.44s.668ms] [1] SC[303]: Registered sub-client [JobPrefsDBPI_1225479812] with ID [11] for session ID [303] host [DESKTOP-CUVV7JD] user [Shina] process ID [19348]
[2020.12.29 15:40:06] [0084m.44s.670ms] [1] SC[303]: UnRegistered sub-client [JobPrefsDBPI_1225479812] with ID [11] for session ID [303] host [DESKTOP-CUVV7JD] user [Shina] process ID [19348]
[2020.12.29 15:40:06] [0084m.45s.027ms] [1] SC[303]: Registered sub-client [JobPrefsDBPI_1225480171] with ID [12] for session ID [303] host [DESKTOP-CUVV7JD] user [Shina] process ID [19348]
[2020.12.29 15:40:06] [0084m.45s.029ms] [1] SC[303]: UnRegistered sub-client [JobPrefsDBPI_1225480171] with ID [12] for session ID [303] host [DESKTOP-CUVV7JD] user [Shina] process ID [19348]
[2020.12.29 15:40:08] [0084m.47s.233ms] [1] SC[303]: Registered sub-client [JobPrefsDBPI_1225482375] with ID [13] for session ID [303] host [DESKTOP-CUVV7JD] user [Shina] process ID [19348]
[2020.12.29 15:40:08] [0084m.47s.235ms] [1] SC[303]: UnRegistered sub-client [JobPrefsDBPI_1225482375] with ID [13] for session ID [303] host [DESKTOP-CUVV7JD] user [Shina] process ID [19348]
[2020.12.29 15:40:24] [0085m.03s.307ms] [1] SC[303]: Registered sub-client [JobPrefsDBPI_1225498453] with ID [14] for session ID [303] host [DESKTOP-CUVV7JD] user [Shina] process ID [19348]
[2020.12.29 15:40:24] [0085m.03s.308ms] [1] SC[303]: UnRegistered sub-client [JobPrefsDBPI_1225498453] with ID [14] for session ID [303] host [DESKTOP-CUVV7JD] user [Shina] process ID [19348]
[2020.12.29 15:40:25] [0085m.03s.587ms] [1] SC[303]: Registered sub-client [JobPrefsDBPI_1225498734] with ID [15] for session ID [303] host [DESKTOP-CUVV7JD] user [Shina] process ID [19348]
[2020.12.29 15:40:25] [0085m.03s.588ms] [1] SC[303]: UnRegistered sub-client [JobPrefsDBPI_1225498734] with ID [15] for session ID [303] host [DESKTOP-CUVV7JD] user [Shina] process ID [19348]
[2020.12.29 15:40:28] [0085m.06s.809ms] [1] SC[303]: Registered sub-client [JobPrefsDBPI_1225501953] with ID [16] for session ID [303] host [DESKTOP-CUVV7JD] user [Shina] process ID [19348]
[2020.12.29 15:40:28] [0085m.06s.811ms] [1] SC[303]: UnRegistered sub-client [JobPrefsDBPI_1225501953] with ID [16] for session ID [303] host [DESKTOP-CUVV7JD] user [Shina] process ID [19348]
[2020.12.29 15:40:28] [0085m.07s.183ms] [1] SC[303]: Registered sub-client [JobPrefsDBPI_1225502328] with ID [17] for session ID [303] host [DESKTOP-CUVV7JD] user [Shina] process ID [19348]
[2020.12.29 15:40:28] [0085m.07s.184ms] [1] SC[303]: UnRegistered sub-client [JobPrefsDBPI_1225502328] with ID [17] for session ID [303] host [DESKTOP-CUVV7JD] user [Shina] process ID [19348]
[2020.12.29 15:40:29] [0085m.08s.058ms] [1] SC[303]: Registered sub-client [JobPrefsDBPI_1225503203] with ID [18] for session ID [303] host [DESKTOP-CUVV7JD] user [Shina] process ID [19348]
[2020.12.29 15:40:29] [0085m.08s.060ms] [1] SC[303]: UnRegistered sub-client [JobPrefsDBPI_1225503203] with ID [18] for session ID [303] host [DESKTOP-CUVV7JD] user [Shina] process ID [19348]
[2020.12.29 15:40:29] [0085m.08s.282ms] [1] SC[303]: Registered sub-client [JobPrefsDBPI_1225503421] with ID [19] for session ID [303] host [DESKTOP-CUVV7JD] user [Shina] process ID [19348]
[2020.12.29 15:40:29] [0085m.08s.284ms] [1] SC[303]: UnRegistered sub-client [JobPrefsDBPI_1225503421] with ID [19] for session ID [303] host [DESKTOP-CUVV7JD] user [Shina] process ID [19348]
[2020.12.29 15:42:02] [0086m.40s.574ms] [1] SC[303]: Registered sub-client [JobPrefsDBPI_1225595718] with ID [20] for session ID [303] host [DESKTOP-CUVV7JD] user [Shina] process ID [19348]
[2020.12.29 15:42:02] [0086m.40s.576ms] [1] SC[303]: UnRegistered sub-client [JobPrefsDBPI_1225595718] with ID [20] for session ID [303] host [DESKTOP-CUVV7JD] user [Shina] process ID [19348]
[2020.12.29 15:42:02] [0086m.40s.595ms] [1] SC[303]: Registered sub-client [JobPrefsDBPI_1225595734] with ID [21] for session ID [303] host [DESKTOP-CUVV7JD] user [Shina] process ID [19348]
[2020.12.29 15:42:02] [0086m.40s.597ms] [1] SC[303]: UnRegistered sub-client [JobPrefsDBPI_1225595734] with ID [21] for session ID [303] host [DESKTOP-CUVV7JD] user [Shina] process ID [19348]
[2020.12.29 15:42:05] [0086m.43s.571ms] [1] SC[304]: UnRegistered sub-client [Shina (Stackup Editor)] with ID [3] for session ID [304] host [DESKTOP-CUVV7JD] user [Shina] process ID [3248]
[2020.12.29 15:42:23] [0087m.01s.910ms] [1] SC[304]: UnRegistered sub-client [Shina (BE CES)] with ID [1] for session ID [304] host [DESKTOP-CUVV7JD] user [Shina] process ID [3248]
[2020.12.29 15:42:23] [0087m.01s.998ms] [1] CMT: Removed client [304]
[2020.12.29 15:42:23] [0087m.01s.998ms] [1] CMT: There are [1] clients now: 303
[2020.12.29 15:42:23] [0087m.02s.002ms] [1] SC[303]: Registered sub-client [JobPrefsDBPI_1225617140] with ID [22] for session ID [303] host [DESKTOP-CUVV7JD] user [Shina] process ID [19348]
[2020.12.29 15:42:23] [0087m.02s.029ms] [1] SC[303]: UnRegistered sub-client [JobPrefsDBPI_1225617140] with ID [22] for session ID [303] host [DESKTOP-CUVV7JD] user [Shina] process ID [19348]
[2020.12.29 15:42:24] [0087m.02s.673ms] [1] SC[303]: UnRegistered sub-client [ExpeditionCrossProber] with ID [4] for session ID [303] host [DESKTOP-CUVV7JD] user [Shina] process ID [19348]
[2020.12.29 15:42:25] [0087m.04s.139ms] [1] SC[303]: UnRegistered sub-client [Expedition PE_1225069062] with ID [1] for session ID [303] host [DESKTOP-CUVV7JD] user [Shina] process ID [19348]
[2020.12.29 15:42:25] [0087m.04s.168ms] [1] CMT: Removed client [303]
[2020.12.29 15:42:25] [0087m.04s.168ms] [1] CMT: There are no clients left - waiting [1 seconds]
[2020.12.29 15:42:26] [0087m.04s.671ms] [0] IT: Session [305] for host [DESKTOP-CUVV7JD] user [Shina] client type[0] clsvrPluginID[0] with process ID [19348] created
[2020.12.29 15:42:26] [0087m.04s.672ms] [1] SC[305]: Registered sub-client [Expedition PE_1225619796] with ID [1] for session ID [305] host [DESKTOP-CUVV7JD] user [Shina] process ID [19348]
[2020.12.29 15:42:27] [0087m.05s.453ms] [1] SC[305]: Registered sub-client [JobPrefsDBPI_1225620593] with ID [2] for session ID [305] host [DESKTOP-CUVV7JD] user [Shina] process ID [19348]
[2020.12.29 15:42:27] [0087m.05s.458ms] [1] SC[305]: UnRegistered sub-client [JobPrefsDBPI_1225620593] with ID [2] for session ID [305] host [DESKTOP-CUVV7JD] user [Shina] process ID [19348]
[2020.12.29 15:42:30] [0087m.08s.470ms] [1] SC[305]: Registered sub-client [ExpeditionCrossProber] with ID [3] for session ID [305] host [DESKTOP-CUVV7JD] user [Shina] process ID [19348]
[2020.12.29 15:42:30] [0087m.08s.472ms] [1] SC[305]: Registered sub-client [StartServerClient57d8] with ID [4] for session ID [305] host [DESKTOP-CUVV7JD] user [Shina] process ID [19348]
[2020.12.29 15:42:30] [0087m.08s.473ms] [1] SC[305]: UnRegistered sub-client [StartServerClient57d8] with ID [4] for session ID [305] host [DESKTOP-CUVV7JD] user [Shina] process ID [19348]
[2020.12.29 15:44:16] [0088m.54s.522ms] [1] SC[305]: Registered sub-client [EEVM_EEVM_24231496] with ID [5] for session ID [305] host [DESKTOP-CUVV7JD] user [Shina] process ID [19348]
[2020.12.29 15:44:16] [0088m.54s.522ms] [1] SC[305]: UnRegistered sub-client [EEVM_EEVM_24231496] with ID [5] for session ID [305] host [DESKTOP-CUVV7JD] user [Shina] process ID [19348]
[2020.12.29 15:44:16] [0088m.54s.650ms] [0] IT: Session [306] for host [DESKTOP-CUVV7JD] user [Shina] client type[0] clsvrPluginID[0] with process ID [15604] created
[2020.12.29 15:44:16] [0088m.54s.651ms] [1] SC[306]: Registered sub-client [Expedition_1225729765] with ID [1] for session ID [306] host [DESKTOP-CUVV7JD] user [Shina] process ID [15604]
[2020.12.29 15:44:16] [0088m.54s.719ms] [1] CMT: There are [2] clients now: 305, 306
[2020.12.29 15:44:16] [0088m.54s.832ms] [1] SC[306]: UnRegistered sub-client [Expedition_1225729765] with ID [1] for session ID [306] host [DESKTOP-CUVV7JD] user [Shina] process ID [15604]
[2020.12.29 15:44:16] [0088m.54s.935ms] [1] CMT: Removed client [306]
[2020.12.29 15:44:16] [0088m.54s.935ms] [1] CMT: There are [1] clients now: 305
[2020.12.29 15:44:29] [0089m.08s.306ms] [1] SC[305]: Registered sub-client [JobPrefsDBPI_1225743453] with ID [6] for session ID [305] host [DESKTOP-CUVV7JD] user [Shina] process ID [19348]
[2020.12.29 15:44:29] [0089m.08s.310ms] [1] SC[305]: Registered sub-client [NetClassDBPI_1225743453] with ID [7] for session ID [305] host [DESKTOP-CUVV7JD] user [Shina] process ID [19348]
[2020.12.29 15:44:30] [0089m.08s.325ms] [1] SC[305]: UnRegistered sub-client [JobPrefsDBPI_1225743453] with ID [6] for session ID [305] host [DESKTOP-CUVV7JD] user [Shina] process ID [19348]
[2020.12.29 15:44:30] [0089m.08s.326ms] [1] SC[305]: UnRegistered sub-client [NetClassDBPI_1225743453] with ID [7] for session ID [305] host [DESKTOP-CUVV7JD] user [Shina] process ID [19348]
[2020.12.29 15:44:35] [0089m.14s.315ms] [1] SC[305]: Registered sub-client [JobPrefsDBPI_1225749453] with ID [8] for session ID [305] host [DESKTOP-CUVV7JD] user [Shina] process ID [19348]
[2020.12.29 15:44:35] [0089m.14s.316ms] [1] SC[305]: UnRegistered sub-client [JobPrefsDBPI_1225749453] with ID [8] for session ID [305] host [DESKTOP-CUVV7JD] user [Shina] process ID [19348]
[2020.12.29 15:44:55] [0089m.34s.086ms] [1] SC[305]: Registered sub-client [JobPrefsDBPI_1225769234] with ID [9] for session ID [305] host [DESKTOP-CUVV7JD] user [Shina] process ID [19348]
[2020.12.29 15:44:55] [0089m.34s.090ms] [1] SC[305]: Registered sub-client [NetClassDBPI_1225769234] with ID [10] for session ID [305] host [DESKTOP-CUVV7JD] user [Shina] process ID [19348]
[2020.12.29 15:44:55] [0089m.34s.106ms] [1] SC[305]: UnRegistered sub-client [JobPrefsDBPI_1225769234] with ID [9] for session ID [305] host [DESKTOP-CUVV7JD] user [Shina] process ID [19348]
[2020.12.29 15:44:55] [0089m.34s.106ms] [1] SC[305]: UnRegistered sub-client [NetClassDBPI_1225769234] with ID [10] for session ID [305] host [DESKTOP-CUVV7JD] user [Shina] process ID [19348]
[2020.12.29 15:45:00] [0089m.38s.319ms] [1] SC[305]: Registered sub-client [JobPrefsDBPI_1225773468] with ID [11] for session ID [305] host [DESKTOP-CUVV7JD] user [Shina] process ID [19348]
[2020.12.29 15:45:00] [0089m.38s.321ms] [1] SC[305]: UnRegistered sub-client [JobPrefsDBPI_1225773468] with ID [11] for session ID [305] host [DESKTOP-CUVV7JD] user [Shina] process ID [19348]
[2020.12.29 15:45:40] [0090m.18s.866ms] [1] SC[305]: UnRegistered sub-client [ExpeditionCrossProber] with ID [3] for session ID [305] host [DESKTOP-CUVV7JD] user [Shina] process ID [19348]
[2020.12.29 15:45:41] [0090m.20s.124ms] [1] SC[305]: UnRegistered sub-client [Expedition PE_1225619796] with ID [1] for session ID [305] host [DESKTOP-CUVV7JD] user [Shina] process ID [19348]
[2020.12.29 15:45:41] [0090m.20s.148ms] [1] CMT: Removed client [305]
[2020.12.29 15:45:41] [0090m.20s.148ms] [1] CMT: There are no clients left - waiting [1 seconds]
[2020.12.29 15:45:43] [0090m.21s.332ms] [0] CMT: Starting server auto-close
[2020.12.29 15:45:43] [0090m.21s.424ms] [0] S: Closing server
[2020.12.29 15:45:43] [0090m.21s.593ms] [0] iCDB Server PI: Closing plugins
[2020.12.29 15:45:43] [0090m.21s.593ms] [0] iCDB Server PI: Plugins closed
[2020.12.29 15:45:43] [0090m.21s.593ms] [0] iCDB Server PI: Unloading database
[2020.12.29 15:45:43] [0090m.21s.593ms] [0] iCDB Server PI: Saving storage
[2020.12.29 15:45:43] [0090m.21s.593ms] [0] iCDB Server PI: Closing database
[2020.12.29 15:45:43] [0090m.21s.619ms] [1] iCDB Server PI: Stats: Database defragmentation: max[4] avg[1] holes[94%] data[89%]
[2020.12.29 15:45:43] [0090m.21s.619ms] [1] iCDB Server PI: Stats: Database file size [388336 (379.2 kB)]
[2020.12.29 15:45:43] [0090m.21s.644ms] [1] iCDB Server PI: WARNING: Database needs defragmentation!
[2020.12.29 15:45:43] [0090m.21s.655ms] [0] iCDB Server PI: Database closed
[2020.12.29 15:45:43] [0090m.21s.655ms] [0] iCDB Server PI: Defragmenting database
[2020.12.29 15:45:43] [0090m.21s.655ms] [0] iCDB Server PI: Creating database [D:\Pd-Master\1 Lavori\Mas\Mas100n1 ACB_0001_0\keyin.icdb] backup to file [D:\Pd-Master\1 Lavori\Mas\Mas100n1 ACB_0001_0\keyin.icdb\cdbback\2020-12-29 15.45.43-16360-d.zip]
[2020.12.29 15:45:43] [0090m.21s.678ms] [0] iCDB Server PI: Database backup: DONE
[2020.12.29 15:45:43] [0090m.21s.731ms] [0] SingleFile: [0000-0000-0000-0000] SFI header version check [1009] [1009]
[2020.12.29 15:45:43] [0090m.21s.731ms] [0] Database GUARD OK: [388336]
[2020.12.29 15:45:43] [0090m.21s.731ms] [0] SingleFile: [b88a-9a25-c69a-fd9a] SFI version check [1009] [1009]
[2020.12.29 15:45:43] [0090m.21s.732ms] [0] SingleFile: [b88a-9a25-c69a-fd9a] Database SFI header has been read in [1ms 84us]
[2020.12.29 15:45:43] [0090m.21s.816ms] [1] iCDB Server PI: Stats: Database file sizes: before[388336 (379.2 kB)], after[154672 (151.0 kB)], gain[233664 (228.2 kB)]
[2020.12.29 15:45:43] [0090m.21s.845ms] [0] Single file [D:\Pd-Master\1 Lavori\Mas\Mas100n1 ACB_0001_0\keyin.icdb\icdb.dat] closed with size [154672 (151.0 kB)]
[2020.12.29 15:45:43] [0090m.21s.845ms] [0] iCDB Server PI: Database defragmentation completed successfully
[2020.12.29 15:45:43] [0090m.21s.845ms] [1] BackupTransaction: Removing database backup [D:\Pd-Master\1 Lavori\Mas\Mas100n1 ACB_0001_0\keyin.icdb\cdbback\2020-12-29 15.45.43-16360-d.zip]
[2020.12.29 15:45:43] [0090m.21s.846ms] [1] iCDB Server PI: Stats: Total iCDB execution time: [878892] ticks
[2020.12.29 15:45:43] [0090m.21s.846ms] [1] iCDB Server PI: Stats: Total iCDB execution time: [87889] microseconds
[2020.12.29 15:45:43] [0090m.21s.846ms] [1] iCDB Server PI: Stats: Total iCDB commands count: [5671]
[2020.12.29 15:45:43] [0090m.21s.846ms] [1] iCDB Server PI: Stats: Average iCDB speed:        [64524] commands per second
[2020.12.29 15:45:43] [0090m.21s.846ms] [1] iCDB Server PI: Stats: Mem[17211392]
[2020.12.29 15:45:43] [0090m.21s.846ms] [1] iCDB Server PI: Stats: MemPeak[30818304]
[2020.12.29 15:45:43] [0090m.21s.978ms] [0] MWT: Destroy the shutdown block reason.
[2020.12.29 15:45:43] [0090m.21s.979ms] [0] MWT: STOP
[2020.12.29 15:45:43] [0090m.21s.979ms] [0] S: STOP
