Thu Aug 13 10:13:59 2020

Project path: D:\Vb-Master\Mas\Mas100n1 ACB_0001_0\keyin.icdb

Loaded cns info: C:\mentorgraphics\7.9.5EE\SDD_HOME\standard\ce_ee.cns=7.10.24;C:\WDIR\EE7.9.5\user.cns=1231-ff05-aca6-bb42-11f3-96d6-1f39-6d50-a9d8-a633-90ff-3ccd
