[2020.12.31 11:46:13] [1183m.11s.190ms] [0] MWT: WM_QUERYENDSESSION
[2020.12.31 11:46:13] [1183m.11s.192ms] [0] MWT: Requesting emergency server stop: Got a message: WM_QUERYENDSESSION
[2020.12.31 11:46:13] [1183m.11s.192ms] [0] Removing server address file.
[2020.12.31 11:46:13] [1183m.11s.293ms] [0] S: Closing server
[2020.12.31 11:46:13] [1183m.11s.294ms] [4] SMCL: Distributing notify to registered [General] iCDB Server Manager clients [NotifyServerStatus @ Version[1] # Id[Sender GUID[d08a-14bf-3294-1704-6a69-cefb-a69c-ef50-33b5-4433-62ef-cf98] Command number[195]] # Proxy[EMPTY] # RequestId[Sender GUID[0000-0000-0000-0000-0000-0000-0000-0000-0000-0000-0000-0000] Command number[0]] # ReplyPort[10002] # Status [Closing]]
[2020.12.31 11:46:13] [1183m.11s.294ms] [3] IT: FREE
[2020.12.31 11:46:13] [1183m.11s.294ms] [4] IT: Waiting for finish
[2020.12.31 11:46:13] [1183m.11s.294ms] [4] IT: Empty client connection popped from the waiting queue
[2020.12.31 11:46:13] [1183m.11s.294ms] [2] IT: STOP
[2020.12.31 11:46:13] [1183m.11s.294ms] [3] ET: Suspend request
[2020.12.31 11:46:13] [1183m.11s.294ms] [3] ET: Suspend request finished
[2020.12.31 11:46:13] [1183m.11s.294ms] [2] ET: SUSPENDED
[2020.12.31 11:46:13] [1183m.11s.294ms] [2] SCL: Removing all clients
[2020.12.31 11:46:13] [1183m.11s.294ms] [3] SC[310]: FREE
[2020.12.31 11:46:13] [1183m.11s.295ms] [4] SMCL: Distributing notify to registered [ClientList] iCDB Server Manager clients [NotifyServerClientRemove @ Version[1] # Id[Sender GUID[d08a-14bf-3294-1704-6a69-cefb-a69c-ef50-33b5-4433-62ef-cf98] Command number[196]] # Proxy[EMPTY] # RequestId[Sender GUID[0000-0000-0000-0000-0000-0000-0000-0000-0000-0000-0000-0000] Command number[0]] # ReplyPort[10002] # Client [Address[DESKTOP-CUVV7JD] User[Shina] PID[7496] Session[310] Status[Active] Dead elapsed time sec[0] Version[2.207] Sub-clients[ ( Sub-client[Name[Expedition PE_1313255703] Id[1]], Sub-client[Name[ExpeditionCrossProber] Id[7]])]]]
[2020.12.31 11:46:13] [1183m.11s.295ms] [3] CRT[310]: FREE
[2020.12.31 11:46:13] [1183m.11s.295ms] [4] CRT[310]: Waiting for finish
[2020.12.31 11:46:13] [1183m.11s.309ms] [2] CRT[310]: STOP
[2020.12.31 11:46:13] [1183m.11s.309ms] [3] CST[310]: FREE
[2020.12.31 11:46:13] [1183m.11s.309ms] [4] CST[310]: Waiting for finish
[2020.12.31 11:46:13] [1183m.11s.309ms] [2] CST[310]: STOP
[2020.12.31 11:46:13] [1183m.11s.309ms] [1] SC[310]: WARNING: Session is still active while destroying
[2020.12.31 11:46:13] [1183m.11s.309ms] [2] SC[310]: Disconnecting from peer
[2020.12.31 11:46:13] [1183m.11s.309ms] [6] iCDB Server PI: ReleaseOpenSnapshotRefCount [2]: 0
[2020.12.31 11:46:13] [1183m.11s.309ms] [3] iCDB Server PI: No one is using snapshot [2] - removing from cache
[2020.12.31 11:46:13] [1183m.11s.309ms] [6] iCDB Storage Server: Checking existence of file [D:\Pd-Master\1 Lavori\Mas\Mas100n1 ACB_0001_0\keyin.icdb\s2\cdbblks\2000000010000050.blk\rbcatl.v]
[2020.12.31 11:46:13] [1183m.11s.309ms] [6] iCDB Storage Server: File [D:\Pd-Master\1 Lavori\Mas\Mas100n1 ACB_0001_0\keyin.icdb\s2\cdbblks\2000000010000050.blk\rbcatl.v] doesn't exist
[2020.12.31 11:46:13] [1183m.11s.311ms] [6] iCDB Storage Server: Checking existence of file [D:\Pd-Master\1 Lavori\Mas\Mas100n1 ACB_0001_0\keyin.icdb\s2\uids]
[2020.12.31 11:46:13] [1183m.11s.311ms] [6] iCDB Storage Server: File [D:\Pd-Master\1 Lavori\Mas\Mas100n1 ACB_0001_0\keyin.icdb\s2\uids] exists
[2020.12.31 11:46:13] [1183m.11s.312ms] [6] iCDB Storage Server: Unloading directory [D:\Pd-Master\1 Lavori\Mas\Mas100n1 ACB_0001_0\keyin.icdb\s2]
[2020.12.31 11:46:13] [1183m.11s.312ms] [6] iCDB Storage Server: Unloading file [D:\Pd-Master\1 Lavori\Mas\Mas100n1 ACB_0001_0\keyin.icdb\s2\cdbblks\2000000010000050.blk\blkatl.v]
[2020.12.31 11:46:13] [1183m.11s.312ms] [6] iCDB Storage Server: Unloading file [D:\Pd-Master\1 Lavori\Mas\Mas100n1 ACB_0001_0\keyin.icdb\s2\cdbcatlg\catlgatl.v]
[2020.12.31 11:46:13] [1183m.11s.312ms] [6] iCDB Storage Server: Unloading file [D:\Pd-Master\1 Lavori\Mas\Mas100n1 ACB_0001_0\keyin.icdb\s2\cdbcatlg\grpatl.v]
[2020.12.31 11:46:13] [1183m.11s.312ms] [6] iCDB Storage Server: Unloading file [D:\Pd-Master\1 Lavori\Mas\Mas100n1 ACB_0001_0\keyin.icdb\s2\cdbcatlg\grpobj]
[2020.12.31 11:46:13] [1183m.11s.312ms] [6] iCDB Storage Server: Unloading file [D:\Pd-Master\1 Lavori\Mas\Mas100n1 ACB_0001_0\keyin.icdb\s2\cdbcmpcache\cmpatl.v]
[2020.12.31 11:46:13] [1183m.11s.312ms] [6] iCDB Storage Server: Unloading file [D:\Pd-Master\1 Lavori\Mas\Mas100n1 ACB_0001_0\keyin.icdb\s2\cdbcmps\cmpatl.v]
[2020.12.31 11:46:13] [1183m.11s.312ms] [6] iCDB Storage Server: Unloading file [D:\Pd-Master\1 Lavori\Mas\Mas100n1 ACB_0001_0\keyin.icdb\s2\cdbcnfgs\2000000010000050.blk\cesatl.v]
[2020.12.31 11:46:13] [1183m.11s.312ms] [6] iCDB Storage Server: Unloading file [D:\Pd-Master\1 Lavori\Mas\Mas100n1 ACB_0001_0\keyin.icdb\s2\cdbcnfgs\2000000010000050.blk\cnfgatl.v]
[2020.12.31 11:46:13] [1183m.11s.312ms] [6] iCDB Storage Server: Unloading file [D:\Pd-Master\1 Lavori\Mas\Mas100n1 ACB_0001_0\keyin.icdb\s2\cdbcnfgs\2000000010000050.blk\varatl.v]
[2020.12.31 11:46:13] [1183m.11s.312ms] [6] iCDB Storage Server: Unloading file [D:\Pd-Master\1 Lavori\Mas\Mas100n1 ACB_0001_0\keyin.icdb\s2\oryg]
[2020.12.31 11:46:13] [1183m.11s.312ms] [6] iCDB Storage Server: Unloading file [D:\Pd-Master\1 Lavori\Mas\Mas100n1 ACB_0001_0\keyin.icdb\s2\uids]
[2020.12.31 11:46:13] [1183m.11s.312ms] [5] iCDB Server PI: Snapshot [2] removed from cache
[2020.12.31 11:46:13] [1183m.11s.312ms] [3] ET: Discarding pending commands
[2020.12.31 11:46:13] [1183m.11s.312ms] [3] ET: Resume request
[2020.12.31 11:46:13] [1183m.11s.312ms] [3] ET: Resume request finished
[2020.12.31 11:46:13] [1183m.11s.312ms] [2] ET: RESUMED
[2020.12.31 11:46:13] [1183m.11s.324ms] [2] PrjBackupEngine: STOP
[2020.12.31 11:46:13] [1183m.11s.325ms] [3] PrjBackupEngine: FREE
[2020.12.31 11:46:13] [1183m.11s.325ms] [4] PrjBackupEngine: Waiting for finish
[2020.12.31 11:46:13] [1183m.11s.325ms] [3] ET: FREE
[2020.12.31 11:46:13] [1183m.11s.325ms] [4] ET: Waiting for finish
[2020.12.31 11:46:13] [1183m.11s.325ms] [2] ET: STOP
[2020.12.31 11:46:13] [1183m.11s.325ms] [2] SCL: Stopping all send threads
[2020.12.31 11:46:13] [1183m.11s.325ms] [3] CMT: FREE
[2020.12.31 11:46:13] [1183m.11s.325ms] [4] CMT: Waiting for finish
[2020.12.31 11:46:13] [1183m.11s.371ms] [2] CMT: STOP
[2020.12.31 11:46:13] [1183m.11s.371ms] [3] DMT: FREE
[2020.12.31 11:46:13] [1183m.11s.371ms] [4] DMT: Waiting for finish
[2020.12.31 11:46:13] [1183m.11s.371ms] [2] DMT: STOP
[2020.12.31 11:46:13] [1183m.11s.371ms] [3] DFAMT: FREE
[2020.12.31 11:46:13] [1183m.11s.371ms] [4] DFAMT: Waiting for finish
[2020.12.31 11:46:13] [1183m.11s.386ms] [2] DFAMT: Filer project path [D:\Pd-Master\1 Lavori\Mas\Mas100n1 ACB_0001_0\keyin.icdb] access monitoring ended
[2020.12.31 11:46:13] [1183m.11s.386ms] [2] DFAMT: STOP
[2020.12.31 11:46:13] [1183m.11s.387ms] [4] DFAMT: FINISHED
[2020.12.31 11:46:13] [1183m.11s.387ms] [3] DiagSystemMemoryMonitorThread: FREE
[2020.12.31 11:46:13] [1183m.11s.387ms] [4] DiagSystemMemoryMonitorThread: Waiting for finish
[2020.12.31 11:46:13] [1183m.11s.402ms] [2] DiagSystemMemoryMonitorThread: System memory usage monitoring ended
[2020.12.31 11:46:13] [1183m.11s.402ms] [2] DiagSystemMemoryMonitorThread: STOP
[2020.12.31 11:46:13] [1183m.11s.402ms] [4] DiagSystemMemoryMonitorThread: FINISHED
[2020.12.31 11:46:13] [1183m.11s.402ms] [4] DMT: FINISHED
[2020.12.31 11:46:13] [1183m.11s.402ms] [2] SCL: Removing all clients
[2020.12.31 11:46:13] [1183m.11s.402ms] [2] iCDB Server PI: Unloading observers
[2020.12.31 11:46:13] [1183m.11s.402ms] [2] iCDB Server PI: Observers unloaded
[2020.12.31 11:46:13] [1183m.11s.402ms] [0] iCDB Server PI: Closing plugins
[2020.12.31 11:46:13] [1183m.11s.402ms] [2] iCDB Server PI: Closing PIM plugin
[2020.12.31 11:46:13] [1183m.11s.402ms] [5] iCDB PIM Wrapper: FREE
[2020.12.31 11:46:13] [1183m.11s.402ms] [2] iCDB Server PI: Closing ENetGen plugin
[2020.12.31 11:46:13] [1183m.11s.402ms] [5] iCDB ENetGen Wrapper: FREE
[2020.12.31 11:46:13] [1183m.11s.402ms] [0] iCDB Server PI: Plugins closed
[2020.12.31 11:46:13] [1183m.11s.402ms] [0] iCDB Server PI: Unloading database
[2020.12.31 11:46:13] [1183m.11s.402ms] [7] DCM: CDBCesDefConstraintManager::LoadVersionInfo(force[0] cumulativesaveVersion[0000000000000000] transporter[0000000000000000]) -- isModified[0] upgradeFlag[0]
[2020.12.31 11:46:13] [1183m.11s.402ms] [6] iCDB Storage Server: Saving all modified files
[2020.12.31 11:46:13] [1183m.11s.402ms] [7] SingleFile: [b88a-9a25-c69a-fd9a] RTS: switched to: [1]
[2020.12.31 11:46:13] [1183m.11s.403ms] [0] iCDB Server PI: Saving storage
[2020.12.31 11:46:13] [1183m.11s.403ms] [6] iCDB Storage Server: Saving all modified files
[2020.12.31 11:46:13] [1183m.11s.403ms] [7] SingleFile: [b88a-9a25-c69a-fd9a] RTS: switched to: [1]
[2020.12.31 11:46:13] [1183m.11s.403ms] [0] iCDB Server PI: Closing database
[2020.12.31 11:46:13] [1183m.11s.403ms] [7] Holes::writing holes [2] prev [0] from [156588] 
[2020.12.31 11:46:13] [1183m.11s.403ms] [7] Holes::write <154668,154987>
[2020.12.31 11:46:13] [1183m.11s.403ms] [7] Holes::write <155564,155947>
[2020.12.31 11:46:13] [1183m.11s.464ms] [7] Holes have been successfully saved 2 CRC [4045194175]
[2020.12.31 11:46:13] [1183m.11s.464ms] [1] iCDB Server PI: Stats: Database defragmentation: max[3] avg[1] holes[0%] data[99%]
[2020.12.31 11:46:13] [1183m.11s.464ms] [1] iCDB Server PI: Stats: Database file size [156608 (152.9 kB)]
[2020.12.31 11:46:13] [1183m.11s.464ms] [7] Holes::writing holes [2] prev [2] from [156604] 
[2020.12.31 11:46:13] [1183m.11s.464ms] [7] Holes::write <154668,154987>
[2020.12.31 11:46:13] [1183m.11s.464ms] [7] Holes::write <155564,155947>
[2020.12.31 11:46:13] [1183m.11s.538ms] [7] Holes have been successfully saved 2 CRC [4045194175]
[2020.12.31 11:46:13] [1183m.11s.538ms] [7] DCM: CDBCesDefConstraintManager::LoadVersionInfo(force[0] cumulativesaveVersion[0000000000000000] transporter[0000000000000000]) -- isModified[0] upgradeFlag[0]
[2020.12.31 11:46:13] [1183m.11s.539ms] [7] DCM: CDBCesDefConstraintManager::UnLoad()
[2020.12.31 11:46:13] [1183m.11s.539ms] [3] iCDB Storage Server: FREE
[2020.12.31 11:46:13] [1183m.11s.539ms] [3] iCDB Storage Server Save Thread: FREE
[2020.12.31 11:46:13] [1183m.11s.539ms] [4] iCDB Storage Server Save Thread: Waiting for finish
[2020.12.31 11:46:13] [1183m.11s.539ms] [2] iCDB Storage Server Save Thread: STOP
[2020.12.31 11:46:13] [1183m.11s.539ms] [3] iCDB Storage Server Backup Thread: FREE
[2020.12.31 11:46:13] [1183m.11s.539ms] [4] iCDB Storage Server Backup Thread: Waiting for finish
[2020.12.31 11:46:13] [1183m.11s.539ms] [2] iCDB Storage Server Backup Thread: STOP
[2020.12.31 11:46:13] [1183m.11s.540ms] [3] SingleFile: [0000-0000-0000-0000] Modification time updated for file [D:\Pd-Master\1 Lavori\Mas\Mas100n1 ACB_0001_0\keyin.icdb\icdb.dat]
[2020.12.31 11:46:13] [1183m.11s.540ms] [3] SingleFile: [0000-0000-0000-0000] Closing file [D:\Pd-Master\1 Lavori\Mas\Mas100n1 ACB_0001_0\keyin.icdb\icdb.dat] restrained
[2020.12.31 11:46:13] [1183m.11s.540ms] [0] iCDB Server PI: Database closed
[2020.12.31 11:46:13] [1183m.11s.540ms] [1] iCDB Server PI: Stats: Total iCDB execution time: [43331] ticks
[2020.12.31 11:46:13] [1183m.11s.540ms] [1] iCDB Server PI: Stats: Total iCDB execution time: [4333] microseconds
[2020.12.31 11:46:13] [1183m.11s.540ms] [1] iCDB Server PI: Stats: Total iCDB commands count: [50]
[2020.12.31 11:46:13] [1183m.11s.540ms] [1] iCDB Server PI: Stats: Average iCDB speed:        [11539] commands per second
[2020.12.31 11:46:13] [1183m.11s.540ms] [1] iCDB Server PI: Stats: Mem[15196160]
[2020.12.31 11:46:13] [1183m.11s.540ms] [1] iCDB Server PI: Stats: MemPeak[33255424]
[2020.12.31 11:46:13] [1183m.11s.541ms] [0] Single file [D:\Pd-Master\1 Lavori\Mas\Mas100n1 ACB_0001_0\keyin.icdb\icdb.dat] closed with size [156608 (152.9 kB)]
[2020.12.31 11:46:13] [1183m.11s.541ms] [2] SDL: Removing all connected iCDB Server Monitor
[2020.12.31 11:46:13] [1183m.11s.541ms] [2] S: Unloading ENetGen plugin from file [C:\MentorGraphics64\PADSProVX.2.7\SDD_HOME\common\win64\bin\..\lib\ENetGen70.dll]
[2020.12.31 11:46:13] [1183m.11s.542ms] [2] S: Unloading PIM plugin from file [C:\MentorGraphics64\PADSProVX.2.7\SDD_HOME\common\win64\bin\..\lib\PIM.dll]
[2020.12.31 11:46:13] [1183m.11s.543ms] [3] ST: FREE
[2020.12.31 11:46:13] [1183m.11s.543ms] [4] ST: Waiting for finish
[2020.12.31 11:46:13] [1183m.11s.543ms] [2] ST: STOP
[2020.12.31 11:46:13] [1183m.11s.543ms] [3] MET: FREE
[2020.12.31 11:46:13] [1183m.11s.543ms] [4] MET: Waiting for finish
[2020.12.31 11:46:13] [1183m.11s.543ms] [2] MET: STOP
[2020.12.31 11:46:13] [1183m.11s.544ms] [3] MCE: FREE
[2020.12.31 11:46:13] [1183m.11s.544ms] [3] ELMT: FREE
[2020.12.31 11:46:13] [1183m.11s.544ms] [4] ELMT: Waiting for finish
[2020.12.31 11:46:13] [1183m.11s.544ms] [2] ELMT: STOP
[2020.12.31 11:46:13] [1183m.11s.544ms] [3] EventLogDataFile: EventLog data file [D:\Pd-Master\1 Lavori\Mas\Mas100n1 ACB_0001_0\keyin.icdb\cdbsvr\events\events.dat] closed
[2020.12.31 11:46:13] [1183m.11s.544ms] [3] EventLogIndexFile: EventLog index file [D:\Pd-Master\1 Lavori\Mas\Mas100n1 ACB_0001_0\keyin.icdb\cdbsvr\events\events.idx] closed
[2020.12.31 11:46:13] [1183m.11s.544ms] [4] ELMT: FINISHED
[2020.12.31 11:46:13] [1183m.11s.544ms] [3] AT: FREE
[2020.12.31 11:46:13] [1183m.11s.544ms] [4] AT: Waiting for finish
[2020.12.31 11:46:13] [1183m.11s.588ms] [2] AT: Removing server address file [D:\Pd-Master\1 Lavori\Mas\Mas100n1 ACB_0001_0\keyin.icdb\cdbsvr\sAddress.adr]
[2020.12.31 11:46:13] [1183m.11s.588ms] [0] AT: ERROR: Could not remove server address file [D:\Pd-Master\1 Lavori\Mas\Mas100n1 ACB_0001_0\keyin.icdb\cdbsvr\sAddress.adr]
[2020.12.31 11:46:13] [1183m.11s.588ms] [2] AT: STOP
[2020.12.31 11:46:13] [1183m.11s.588ms] [3] BT: FREE
[2020.12.31 11:46:13] [1183m.11s.588ms] [4] BT: Waiting for finish
[2020.12.31 11:46:14] [1183m.11s.697ms] [4] BT: Sending broadcast on port [10000]: NotifyProjectGlobalStatus @ Version[1] # Id[Sender GUID[d08a-14bf-3294-1704-6a69-cefb-a69c-ef50-33b5-4433-62ef-cf98] Command number[198]] # Proxy[EMPTY] # RequestId[Sender GUID[0000-0000-0000-0000-0000-0000-0000-0000-0000-0000-0000-0000] Command number[0]] # ReplyPort[0] # ProjectId [GUID[1805-a7f8-66df-3e91-3fdd-aef8-fdda-ef50-71a7-4433-62ef-cf98] Address[Host[DESKTOP-CUVV7JD] Port[10002]] IsLauncher[FALSE] Launcher[GUID[0000-0000-0000-0000-0000-0000-0000-0000-0000-0000-0000-0000] Address[Host[] Port[0]]] Path[D:\Pd-Master\1 Lavori\Mas\Mas100n1 ACB_0001_0\keyin.icdb] ReadOnly[FALSE] Server GUID[d08a-14bf-3294-1704-6a69-cefb-a69c-ef50-33b5-4433-62ef-cf98]] # Status [Shutdown]
[2020.12.31 11:46:14] [1183m.11s.697ms] [2] BT: STOP
[2020.12.31 11:46:14] [1183m.11s.697ms] [3] MWT: FREE
[2020.12.31 11:46:14] [1183m.11s.697ms] [4] MWT: Waiting for finish
[2020.12.31 11:46:14] [1183m.11s.697ms] [0] MWT: Destroy the shutdown block reason.
[2020.12.31 11:46:14] [1183m.11s.699ms] [0] MWT: STOP
[2020.12.31 11:46:14] [1183m.11s.700ms] [0] S: STOP
[2020.12.31 11:46:14] [1183m.11s.700ms] [3] S: FREE
[2020.12.31 11:46:14] [1183m.11s.700ms] [3] S: FREE: Server implementation
[2020.12.31 11:46:14] [1183m.11s.700ms] [3] CLSVRM: FREE
