.FILETYPE PLANES_CLASS
.VERSION "01.00"
.CREATOR "Mentor Graphics"
.DATE "Thursday, October 17, 2013 12:57 PM"
.DESIGN_UNITS TH
.NEGATIVE_FILL_DISTANCE 0
.NEGATIVE_CLEARANCE_PADS ANTIPAD
.USE_THERMAL_DEFINITION YES
.ENABLE_TIE_BRIDGING NO
.SMD_TIE_PROPERTIES
..TIE_LEG_WIDTH 5
..THERMAL_CLEARANCE 6
..TIE_LEG_TYPE FOUR
..TIE_LEG_ORIENTATION P0
.THRU_TIE_PROPERTIES
..TIE_LEG_WIDTH 5
..THERMAL_CLEARANCE 6
..TIE_LEG_TYPE FOUR
..TIE_LEG_ORIENTATION P0
.VIA_TIE_PROPERTIES
..TIE_LEG_WIDTH 5
..THERMAL_CLEARANCE 6
..TIE_LEG_TYPE BURIED
..TIE_LEG_ORIENTATION P0
.CONTOUR_MHOLE_CLEARANCE 20
.OTHER_MINIMUM_CLEARANCE 0
.DISCARD_ALL_UNTIED_AREAS YES
..DISCARD_TIED_TO_SINGLE_PAD NO
.DISCARD_BY_AREA NO
..AREA_X 0
..AREA_Y 0
.REMOVE_SCALLOPS NO
.HATCH_WIDTH 6
.HATCH_DISTANCE 6
.HATCH_PATTERN HORIZONTAL
.FILL_NONSQUARE_HATCH_AREAS YES
.RESTRICT_TO_ORTHO_PATTERN NO
..SNAP_TO_HATCH_GRID NO
.MINIMUM_PAD_GAP_DISTANCE 0
.CLEAR_BURIED_PAD YES
