
     Rooms & Clusters:
RefDsg: 	BTH1 	Room: 	 	Cluster: 	Newgroup3
RefDsg: 	C74 	Room: 	 	Cluster: 	Newgroup2
RefDsg: 	C75 	Room: 	 	Cluster: 	Newgroup2
RefDsg: 	C76 	Room: 	 	Cluster: 	Newgroup2
RefDsg: 	C77 	Room: 	 	Cluster: 	Newgroup2
RefDsg: 	C78 	Room: 	 	Cluster: 	Newgroup2
RefDsg: 	C81 	Room: 	 	Cluster: 	Newgroup2
RefDsg: 	C155 	Room: 	 	Cluster: 	Newgroup1
RefDsg: 	C156 	Room: 	 	Cluster: 	Newgroup1
RefDsg: 	C157 	Room: 	 	Cluster: 	Newgroup1
RefDsg: 	C158 	Room: 	 	Cluster: 	Newgroup1
RefDsg: 	C159 	Room: 	 	Cluster: 	Newgroup1
RefDsg: 	C160 	Room: 	 	Cluster: 	Newgroup1
RefDsg: 	C161 	Room: 	 	Cluster: 	Newgroup1
RefDsg: 	C162 	Room: 	 	Cluster: 	Newgroup1
RefDsg: 	C163 	Room: 	 	Cluster: 	Newgroup1
RefDsg: 	C164 	Room: 	 	Cluster: 	Newgroup3
RefDsg: 	C165 	Room: 	 	Cluster: 	Newgroup3
RefDsg: 	C166 	Room: 	 	Cluster: 	Newgroup3
RefDsg: 	C167 	Room: 	 	Cluster: 	Newgroup3
RefDsg: 	C168 	Room: 	 	Cluster: 	Newgroup3
RefDsg: 	C691 	Room: 	 	Cluster: 	Newgroup1
RefDsg: 	C692 	Room: 	 	Cluster: 	Newgroup1
RefDsg: 	C693 	Room: 	 	Cluster: 	Newgroup1
RefDsg: 	C694 	Room: 	 	Cluster: 	Newgroup1
RefDsg: 	C695 	Room: 	 	Cluster: 	Newgroup1
RefDsg: 	C696 	Room: 	 	Cluster: 	Newgroup1
RefDsg: 	C697 	Room: 	 	Cluster: 	Newgroup1
RefDsg: 	C698 	Room: 	 	Cluster: 	Newgroup1
RefDsg: 	C699 	Room: 	 	Cluster: 	Newgroup1
RefDsg: 	C700 	Room: 	 	Cluster: 	Newgroup1
RefDsg: 	C701 	Room: 	 	Cluster: 	Newgroup1
RefDsg: 	C702 	Room: 	 	Cluster: 	Newgroup1
RefDsg: 	C703 	Room: 	 	Cluster: 	Newgroup1
RefDsg: 	C704 	Room: 	 	Cluster: 	Newgroup1
RefDsg: 	C705 	Room: 	 	Cluster: 	Newgroup1
RefDsg: 	C706 	Room: 	 	Cluster: 	Newgroup1
RefDsg: 	C707 	Room: 	 	Cluster: 	Newgroup1
RefDsg: 	C708 	Room: 	 	Cluster: 	Newgroup1
RefDsg: 	C709 	Room: 	 	Cluster: 	Newgroup1
RefDsg: 	C710 	Room: 	 	Cluster: 	Newgroup1
RefDsg: 	C711 	Room: 	 	Cluster: 	Newgroup1
RefDsg: 	C712 	Room: 	 	Cluster: 	Newgroup1
RefDsg: 	C713 	Room: 	 	Cluster: 	Newgroup1
RefDsg: 	C714 	Room: 	 	Cluster: 	Newgroup1
RefDsg: 	C715 	Room: 	 	Cluster: 	Newgroup1
RefDsg: 	C716 	Room: 	 	Cluster: 	Newgroup1
RefDsg: 	C717 	Room: 	 	Cluster: 	Newgroup1
RefDsg: 	C718 	Room: 	 	Cluster: 	Newgroup1
RefDsg: 	C719 	Room: 	 	Cluster: 	Newgroup1
RefDsg: 	C720 	Room: 	 	Cluster: 	Newgroup1
RefDsg: 	C721 	Room: 	 	Cluster: 	Newgroup1
RefDsg: 	C722 	Room: 	 	Cluster: 	Newgroup1
RefDsg: 	C723 	Room: 	 	Cluster: 	Newgroup1
RefDsg: 	C724 	Room: 	 	Cluster: 	Newgroup1
RefDsg: 	C725 	Room: 	 	Cluster: 	Newgroup1
RefDsg: 	C726 	Room: 	 	Cluster: 	Newgroup1
RefDsg: 	C727 	Room: 	 	Cluster: 	Newgroup1
RefDsg: 	C728 	Room: 	 	Cluster: 	Newgroup1
RefDsg: 	C729 	Room: 	 	Cluster: 	Newgroup1
RefDsg: 	C730 	Room: 	 	Cluster: 	Newgroup1
RefDsg: 	C731 	Room: 	 	Cluster: 	Newgroup1
RefDsg: 	C732 	Room: 	 	Cluster: 	Newgroup1
RefDsg: 	C741 	Room: 	 	Cluster: 	Newgroup4
RefDsg: 	C742 	Room: 	 	Cluster: 	Newgroup4
RefDsg: 	C743 	Room: 	 	Cluster: 	Newgroup4
RefDsg: 	C937 	Room: 	 	Cluster: 	Newgroup1
RefDsg: 	C938 	Room: 	 	Cluster: 	Newgroup1
RefDsg: 	C939 	Room: 	 	Cluster: 	Newgroup1
RefDsg: 	J18 	Room: 	 	Cluster: 	Newgroup1
RefDsg: 	J20 	Room: 	 	Cluster: 	Newgroup4
RefDsg: 	L4 	Room: 	 	Cluster: 	Newgroup1
RefDsg: 	L5 	Room: 	 	Cluster: 	Newgroup1
RefDsg: 	L6 	Room: 	 	Cluster: 	Newgroup1
RefDsg: 	L7 	Room: 	 	Cluster: 	Newgroup1
RefDsg: 	R100 	Room: 	 	Cluster: 	Newgroup2
RefDsg: 	R101 	Room: 	 	Cluster: 	Newgroup2
RefDsg: 	R103 	Room: 	 	Cluster: 	Newgroup2
RefDsg: 	R104 	Room: 	 	Cluster: 	Newgroup2
RefDsg: 	R105 	Room: 	 	Cluster: 	Newgroup2
RefDsg: 	R106 	Room: 	 	Cluster: 	Newgroup2
RefDsg: 	R107 	Room: 	 	Cluster: 	Newgroup2
RefDsg: 	R108 	Room: 	 	Cluster: 	Newgroup2
RefDsg: 	R109 	Room: 	 	Cluster: 	Newgroup2
RefDsg: 	R116 	Room: 	 	Cluster: 	Newgroup2
RefDsg: 	R117 	Room: 	 	Cluster: 	Newgroup2
RefDsg: 	R119 	Room: 	 	Cluster: 	Newgroup2
RefDsg: 	R120 	Room: 	 	Cluster: 	Newgroup2
RefDsg: 	R121 	Room: 	 	Cluster: 	Newgroup2
RefDsg: 	R125 	Room: 	 	Cluster: 	Newgroup2
RefDsg: 	R126 	Room: 	 	Cluster: 	Newgroup2
RefDsg: 	R127 	Room: 	 	Cluster: 	Newgroup2
RefDsg: 	R251 	Room: 	 	Cluster: 	Newgroup1
RefDsg: 	R252 	Room: 	 	Cluster: 	Newgroup1
RefDsg: 	R253 	Room: 	 	Cluster: 	Newgroup1
RefDsg: 	R254 	Room: 	 	Cluster: 	Newgroup1
RefDsg: 	R255 	Room: 	 	Cluster: 	Newgroup1
RefDsg: 	R256 	Room: 	 	Cluster: 	Newgroup1
RefDsg: 	R257 	Room: 	 	Cluster: 	Newgroup1
RefDsg: 	R259 	Room: 	 	Cluster: 	Newgroup1
RefDsg: 	R260 	Room: 	 	Cluster: 	Newgroup3
RefDsg: 	R261 	Room: 	 	Cluster: 	Newgroup3
RefDsg: 	R262 	Room: 	 	Cluster: 	Newgroup3
RefDsg: 	R263 	Room: 	 	Cluster: 	Newgroup3
RefDsg: 	R264 	Room: 	 	Cluster: 	Newgroup3
RefDsg: 	R297 	Room: 	 	Cluster: 	Newgroup4
RefDsg: 	R300 	Room: 	 	Cluster: 	Newgroup4
RefDsg: 	R515 	Room: 	 	Cluster: 	Newgroup1
RefDsg: 	R561 	Room: 	 	Cluster: 	Newgroup1
RefDsg: 	R562 	Room: 	 	Cluster: 	Newgroup1
RefDsg: 	R563 	Room: 	 	Cluster: 	Newgroup1
RefDsg: 	R564 	Room: 	 	Cluster: 	Newgroup1
RefDsg: 	R565 	Room: 	 	Cluster: 	Newgroup1
RefDsg: 	R566 	Room: 	 	Cluster: 	Newgroup1
RefDsg: 	R567 	Room: 	 	Cluster: 	Newgroup1
RefDsg: 	R568 	Room: 	 	Cluster: 	Newgroup1
RefDsg: 	R569 	Room: 	 	Cluster: 	Newgroup1
RefDsg: 	R570 	Room: 	 	Cluster: 	Newgroup1
RefDsg: 	R571 	Room: 	 	Cluster: 	Newgroup1
RefDsg: 	R572 	Room: 	 	Cluster: 	Newgroup1
RefDsg: 	R573 	Room: 	 	Cluster: 	Newgroup1
RefDsg: 	R574 	Room: 	 	Cluster: 	Newgroup1
RefDsg: 	R575 	Room: 	 	Cluster: 	Newgroup1
RefDsg: 	R576 	Room: 	 	Cluster: 	Newgroup1
RefDsg: 	R577 	Room: 	 	Cluster: 	Newgroup1
RefDsg: 	R578 	Room: 	 	Cluster: 	Newgroup1
RefDsg: 	R579 	Room: 	 	Cluster: 	Newgroup1
RefDsg: 	R580 	Room: 	 	Cluster: 	Newgroup1
RefDsg: 	R581 	Room: 	 	Cluster: 	Newgroup1
RefDsg: 	R582 	Room: 	 	Cluster: 	Newgroup1
RefDsg: 	R583 	Room: 	 	Cluster: 	Newgroup1
RefDsg: 	R584 	Room: 	 	Cluster: 	Newgroup1
RefDsg: 	R585 	Room: 	 	Cluster: 	Newgroup1
RefDsg: 	R586 	Room: 	 	Cluster: 	Newgroup1
RefDsg: 	R587 	Room: 	 	Cluster: 	Newgroup1
RefDsg: 	R588 	Room: 	 	Cluster: 	Newgroup1
RefDsg: 	R589 	Room: 	 	Cluster: 	Newgroup1
RefDsg: 	R590 	Room: 	 	Cluster: 	Newgroup1
RefDsg: 	R591 	Room: 	 	Cluster: 	Newgroup1
RefDsg: 	R609 	Room: 	 	Cluster: 	Newgroup4
RefDsg: 	R610 	Room: 	 	Cluster: 	Newgroup4
RefDsg: 	R611 	Room: 	 	Cluster: 	Newgroup4
RefDsg: 	R612 	Room: 	 	Cluster: 	Newgroup4
RefDsg: 	R613 	Room: 	 	Cluster: 	Newgroup4
RefDsg: 	R614 	Room: 	 	Cluster: 	Newgroup4
RefDsg: 	R615 	Room: 	 	Cluster: 	Newgroup4
RefDsg: 	R616 	Room: 	 	Cluster: 	Newgroup4
RefDsg: 	R617 	Room: 	 	Cluster: 	Newgroup4
RefDsg: 	R618 	Room: 	 	Cluster: 	Newgroup4
RefDsg: 	R619 	Room: 	 	Cluster: 	Newgroup4
RefDsg: 	R620 	Room: 	 	Cluster: 	Newgroup4
RefDsg: 	R621 	Room: 	 	Cluster: 	Newgroup1
RefDsg: 	R622 	Room: 	 	Cluster: 	Newgroup1
RefDsg: 	R623 	Room: 	 	Cluster: 	Newgroup1
RefDsg: 	R624 	Room: 	 	Cluster: 	Newgroup1
RefDsg: 	R840 	Room: 	 	Cluster: 	Newgroup1
RefDsg: 	R841 	Room: 	 	Cluster: 	Newgroup1
RefDsg: 	R842 	Room: 	 	Cluster: 	Newgroup1
RefDsg: 	TP97 	Room: 	 	Cluster: 	Newgroup2
RefDsg: 	TP98 	Room: 	 	Cluster: 	Newgroup2
RefDsg: 	U17 	Room: 	 	Cluster: 	Newgroup2
RefDsg: 	U18 	Room: 	 	Cluster: 	Newgroup2
RefDsg: 	U19 	Room: 	 	Cluster: 	Newgroup2
RefDsg: 	U27 	Room: 	 	Cluster: 	Newgroup1
RefDsg: 	U29 	Room: 	 	Cluster: 	Newgroup3
RefDsg: 	U30 	Room: 	 	Cluster: 	Newgroup3
RefDsg: 	U31 	Room: 	 	Cluster: 	Newgroup3
RefDsg: 	U75 	Room: 	 	Cluster: 	Newgroup1
RefDsg: 	Y2 	Room: 	 	Cluster: 	Newgroup3
