[2021.02.01 09:08:26] [0000m.00s.017ms] [0] WELCOME
[2021.02.01 09:08:26] [0000m.00s.026ms] [1] iCDB Server ver.2.207, qgLvIY/Eg4ge+fhn3Vi3jQ, build:17235852 created 2020-09-21 12:40:31, sources stamp:qgLvIY/Eg4ge+fhn3Vi3jQ
[2021.02.01 09:08:26] [0000m.00s.026ms] [1] Restricted Copyright Siemens 2020. All Rights Reserved.
[2021.02.01 09:08:26] [0000m.00s.026ms] [1] Base flow version [VX.2.7]
[2021.02.01 09:08:26] [0000m.00s.026ms] [1] Install Id [2125238], Flow Id [PADS Professional VX.2.7], Full Flow Name [PADS Pro Tools VX.2.7], Exact Access Date [2020/02/01]
[2021.02.01 09:08:26] [0000m.00s.026ms] [1] UPDATE Install Info, Install Id [2239435], UPDATE Name [PADS Pro Tools VX.2.7 - Update 7]
[2021.02.01 09:08:26] [0000m.00s.034ms] [1] Machine [SHINA]  IP [10.95.0.158,127.0.0.1,192.168.1.148]  User [Administrator]  PID [15408]
[2021.02.01 09:08:26] [0000m.00s.034ms] [1] Operating system [Microsoft Windows 10 Home Premium Edition, 64-bit (build 19042)]
[2021.02.01 09:08:26] [0000m.00s.034ms] [1] Current working dir [D:\PD-Master\Mas\Mas100n1 ACB_0001_0]
[2021.02.01 09:08:26] [0000m.00s.034ms] [1] PATH [C:\MentorGraphics\PADSProVX.2.7\SDD_HOME\common\win64\bin;C:\MentorGraphics\PADSProVX.2.7\SDD_HOME\common\win64\lib;C:\MentorGraphics\PADSProVX.2.7\SDD_HOME\common\win64\jre\default\bin;C:\MentorGraphics\PADSProVX.2.7\SDD_HOME\common\win32\lib;C:\MentorGraphics\PADSProVX.2.7\MGC_HOME.ixw\bin;C:\MentorGraphics\PADSProVX.2.7\MGC_HOME.ixw\lib;C:\MentorGraphics\PADSProVX.2.7\SDD_HOME\wg\win64\lib;%MGC_HOME%\lib;C:\Program Files (x86)\Common Files\Oracle\Java\javapath;C:\Program Files (x86)\Intel\iCLS Client\;C:\Program Files\Intel\iCLS Client\;C:\Windows\system32;C:\Windows;C:\Windows\System32\Wbem;C:\Windows\System32\WindowsPowerShell\v1.0\;C:\Program Files (x86)\Intel\Intel(R) Management Engine Components\DAL;C:\Program Files\Intel\Intel(R) Management Engine Components\DAL;C:\Program Files (x86)\Intel\Intel(R) Management Engine Components\IPT;C:\Program Files\Intel\Intel(R) Management Engine Components\IPT;C:\Cadence\SPB_16.6\tools\pcb\bin;C:\Cadence\SPB_16.6\tools\bin;C:\Cadence\SPB_16.6\tools\libutil\bin;C:\Cadence\SPB_16.6\tools\fet\bin;C:\Cadence\SPB_16.6\tools\specctra\bin;C:\Cadence\SPB_16.6\tools\pspice;C:\Cadence\SPB_16.6\tools\capture;C:\Cadence\SPB_16.6\openaccess\bin\win32\opt;C:\WINDOWS\system32;C:\WINDOWS;C:\WINDOWS\System32\Wbem;C:\WINDOWS\System32\WindowsPowerShell\v1.0\;C:\WINDOWS\System32\OpenSSH\;C:\Program Files (x86)\Windows Kits\8.1\Windows Performance Toolkit\;C:\Program Files\Microsoft SQL Server\110\Tools\Binn\;C:\Users\Administrator\AppData\Local\Microsoft\WindowsApps;C:\MentorGraphics\7.9.5EE\SDD_HOME\common\win32\lib;C:\Users\Administrator\AppData\Roaming\Dashlane\6.2021.0.35401\bin\Firefox_Extension\{442718d9-475e-452a-b3e1-fb1ee16b8e9f}\components;C:\Users\Administrator\AppData\Roaming\Dashlane\6.2021.0.35401\ucrt;C:\Users\Administrator\AppData\Roaming\Dashlane\6.2021.0.35401\bin\Qt;C:\Users\Administrator\AppData\Roaming\Dashlane\6.2021.0.35401\bin\Ssl;C:\Program Files (x86)\interCAD;C:\MentorGraphics\PADSProVX.2.7\SDD_HOME\common3D\win64\lib]
[2021.02.01 09:08:26] [0000m.00s.034ms] [1] SDD_HOME [C:\MentorGraphics\PADSProVX.2.7\SDD_HOME] on file system [NTFS]
[2021.02.01 09:08:26] [0000m.00s.034ms] [1] SDD_PLATFORM [win64]
[2021.02.01 09:08:26] [0000m.00s.034ms] [1] WDIR [C:\WDIR\PADSProVX.2.7;C:\MentorGraphics\PADSProVX.2.7\SDD_HOME\standard;]
[2021.02.01 09:08:26] [0000m.00s.034ms] [1] Local iCDB working dir [C:\WDIR\PADSProVX.2.7\iCDB] on file system [NTFS]
[2021.02.01 09:08:26] [0000m.00s.035ms] [1] S: Config file name [ServerWG.cfg]
[2021.02.01 09:08:26] [0000m.00s.035ms] [2] S: Loading config files
[2021.02.01 09:08:26] [0000m.00s.037ms] [1] Config file [D:\PD-Master\Mas\Mas100n1 ACB_0001_0\keyin.icdb\cdbsvr\ServerWG.cfg] not found
[2021.02.01 09:08:26] [0000m.00s.037ms] [1] Config: Non-default value [System.SingleUserMode] = [no]
[2021.02.01 09:08:26] [0000m.00s.038ms] [3] S: Config loaded
[2021.02.01 09:08:26] [0000m.00s.040ms] [0] S: Project path [D:\PD-Master\Mas\Mas100n1 ACB_0001_0\keyin.icdb] on file system [NTFS]
[2021.02.01 09:08:26] [0000m.00s.040ms] [0] S: Project file (.prj) path [D:\PD-Master\Mas\Mas100n1 ACB_0001_0\Mas100n1 ACUBE_PORTABILE R_0.prj] on file system [NTFS]
[2021.02.01 09:08:26] [0000m.00s.041ms] [1] S: WARNING: Database auto-repair support DISABLED
[2021.02.01 09:08:26] [0000m.00s.041ms] [0] S: Multi-user mode (config)
[2021.02.01 09:08:26] [0000m.00s.041ms] [0] S: Event polling mode autodetection
[2021.02.01 09:08:26] [0000m.00s.041ms] [0] S: Started up automatically by iCDB Client: SHINA:Administrator:12952
[2021.02.01 09:08:26] [0000m.00s.041ms] [0] S: Auto close mode
[2021.02.01 09:08:26] [0000m.00s.041ms] [0] S: Database ID [1fc1-835f-2546-968d-b133-1101-2331-1060-2caa-2333-1339-89a8]
[2021.02.01 09:08:26] [0000m.00s.041ms] [0] PathTranslator: BEGIN dumping
[2021.02.01 09:08:26] [0000m.00s.041ms] [0] PathTranslator: Local -> global path prefix list
[2021.02.01 09:08:26] [0000m.00s.041ms] [0] PathTranslator: [HP LaserJet 5200 PCL6 Class Driver,LocalsplOnly] -> [\\SHINA\HP LaserJet 5200 PCL6 Class Driver]
[2021.02.01 09:08:26] [0000m.00s.041ms] [0] PathTranslator: [C:\WINDOWS\system32\spool\drivers] -> [\\SHINA\print$]
[2021.02.01 09:08:26] [0000m.00s.041ms] [0] PathTranslator: Global -> local path prefix list
[2021.02.01 09:08:26] [0000m.00s.041ms] [0] PathTranslator: [\\SHINA\HP LaserJet 5200 PCL6 Class Driver] -> [HP LaserJet 5200 PCL6 Class Driver,LocalsplOnly]
[2021.02.01 09:08:26] [0000m.00s.041ms] [0] PathTranslator: [\\SHINA\print$] -> [C:\WINDOWS\system32\spool\drivers]
[2021.02.01 09:08:26] [0000m.00s.041ms] [0] PathTranslator: END dumping
[2021.02.01 09:08:26] [0000m.00s.041ms] [0] S: START
[2021.02.01 09:08:26] [0000m.00s.041ms] [0] S: Server startup lock file created
[2021.02.01 09:08:26] [0000m.00s.042ms] [0] S: Listening for client connections on port [10001]
[2021.02.01 09:08:26] [0000m.00s.042ms] [0] S: Server network ID [Shina:10.95.0.158,192.168.1.148,Shina:10001]
[2021.02.01 09:08:26] [0000m.00s.042ms] [0] S: Server GUID [a959-2381-a52a-acbe-af6b-7100-07b7-1060-d41a-a683-0339-89a8]
[2021.02.01 09:08:26] [0000m.00s.042ms] [0] S: Project GUID [1fc1-835f-2546-968d-b133-1101-2331-1060-2caa-2333-1339-89a8]
[2021.02.01 09:08:26] [0000m.00s.043ms] [0] S: Wrote data to server address file
[2021.02.01 09:08:26] [0000m.00s.044ms] [0] S: Server startup lock file removed
[2021.02.01 09:08:26] [0000m.00s.044ms] [1] ProjectBackupManager: Setting project file (.prj) path: [D:\PD-Master\Mas\Mas100n1 ACB_0001_0\Mas100n1 ACUBE_PORTABILE R_0.prj]
[2021.02.01 09:08:27] [0000m.00s.248ms] [0] S: Plugins loaded: [PIM] [ENetGen70] 
[2021.02.01 09:08:27] [0000m.00s.248ms] [1] ServerToolkit: INFO: Plugin not found in SDD_ICDB_BIN [C:\MentorGraphics\PADSProVX.2.7\SDD_HOME\iCDB\win64\bin]
[2021.02.01 09:08:27] [0000m.00s.248ms] [1] ServerToolkit: INFO: Plugin not found in SDD_COMMON_BIN [C:\MentorGraphics\PADSProVX.2.7\SDD_HOME\common\win64\bin]
[2021.02.01 09:08:27] [0000m.00s.250ms] [1] ServerToolkit: INFO: Plugin not found in PATH
[2021.02.01 09:08:27] [0000m.00s.250ms] [1] ServerToolkit: INFO: Plugin not found in CWD
[2021.02.01 09:08:27] [0000m.00s.250ms] [1] ServerToolkit: INFO: returning just plugin exe name!
[2021.02.01 09:08:27] [0000m.00s.250ms] [0] S: Local disc access time: 35 us
[2021.02.01 09:08:27] [0000m.00s.250ms] [0] S: File server access time: 27 us
[2021.02.01 09:08:27] [0000m.00s.252ms] [0] Single file [D:\PD-Master\Mas\Mas100n1 ACB_0001_0\keyin.icdb\icdb.dat] size [160896 (157.1 kB)]
[2021.02.01 09:08:27] [0000m.00s.252ms] [1] Single file [D:\PD-Master\Mas\Mas100n1 ACB_0001_0\keyin.icdb\icdb.dat] opened in read-write mode
[2021.02.01 09:08:27] [0000m.00s.252ms] [0] SingleFile: [0000-0000-0000-0000] SFI header version check [1009] [1009]
[2021.02.01 09:08:27] [0000m.00s.252ms] [0] Database GUARD OK: [160896]
[2021.02.01 09:08:27] [0000m.00s.252ms] [0] SingleFile: [0000-0000-0000-0000] SFI header version check [1009] [1009]
[2021.02.01 09:08:27] [0000m.00s.252ms] [0] Database GUARD OK: [160896]
[2021.02.01 09:08:27] [0000m.00s.252ms] [0] SingleFile: [0000-0000-0000-0000] SFI header version check [1009] [1009]
[2021.02.01 09:08:27] [0000m.00s.253ms] [0] Database GUARD OK: [160896]
[2021.02.01 09:08:27] [0000m.00s.253ms] [0] SingleFile: [0000-0000-0000-0000] SFI header version check [1009] [1009]
[2021.02.01 09:08:27] [0000m.00s.253ms] [0] Database GUARD OK: [160896]
[2021.02.01 09:08:27] [0000m.00s.253ms] [0] SingleFile: [0000-0000-0000-0000] SFI header version check [1009] [1009]
[2021.02.01 09:08:27] [0000m.00s.253ms] [0] Database GUARD OK: [160896]
[2021.02.01 09:08:27] [0000m.00s.253ms] [0] SingleFile: [ecaf-b783-6ba0-3096] SFI version check [1009] [1009]
[2021.02.01 09:08:27] [0000m.00s.254ms] [0] SingleFile: [ecaf-b783-6ba0-3096] Database SFI header has been read in [1ms 72us]
[2021.02.01 09:08:27] [0000m.00s.257ms] [0] iCDB Server PI: Server & plugin session [680]
[2021.02.01 09:08:27] [0000m.00s.257ms] [0] iCDB Server PI: Opening database [D:\PD-Master\Mas\Mas100n1 ACB_0001_0\keyin.icdb]
[2021.02.01 09:08:27] [0000m.00s.257ms] [0] iCDB Server PI: Database [D:\PD-Master\Mas\Mas100n1 ACB_0001_0\keyin.icdb] opened
[2021.02.01 09:08:27] [0000m.00s.313ms] [0] iCDB Database: Checking existence of constraint definitions
[2021.02.01 09:08:27] [0000m.00s.313ms] [0] iCDB Database: Checking constraint definitions version
[2021.02.01 09:08:27] [0000m.00s.335ms] [1] iCDB Database: Constraint definitions version [ce_ee.cns=7.10.69] up to date
[2021.02.01 09:08:27] [0000m.00s.338ms] [0] iCDB Server PI: Initializing plugins
[2021.02.01 09:08:27] [0000m.00s.338ms] [0] iCDB Server PI: Plugins initialized
[2021.02.01 09:08:27] [0000m.00s.338ms] [0] S: iCDB database loaded
[2021.02.01 09:08:27] [0000m.00s.339ms] [0] S: Starting threads
[2021.02.01 09:08:27] [0000m.00s.340ms] [0] BT: Listening for broadcast messages on port [10000]
[2021.02.01 09:08:27] [0000m.00s.340ms] [1] CMT: There are no clients - waiting [10 seconds]
[2021.02.01 09:08:27] [0000m.00s.340ms] [0] IT: Session [681] for host [Shina] user [Administrator] client type[0] clsvrPluginID[0] with process ID [12952] created
[2021.02.01 09:08:27] [0000m.00s.343ms] [1] SC[681]: Registered sub-client [Expedition PE_6038328] with ID [1] for session ID [681] host [Shina] user [Administrator] process ID [12952]
[2021.02.01 09:08:27] [0000m.00s.346ms] [0] MWT: WindowProc: WM_NCCREATE
[2021.02.01 09:08:27] [0000m.00s.350ms] [0] IT: iCDB Server Monitor session [1] for host [Shina] user [Administrator] with process ID [1088] created
[2021.02.01 09:08:27] [0000m.00s.350ms] [1] DMT: There are [1] iCDB Server Monitor connected now
[2021.02.01 09:08:27] [0000m.00s.400ms] [1] SC[681]: Registered sub-client [EEVM_EEVM_383394640] with ID [2] for session ID [681] host [Shina] user [Administrator] process ID [12952]
[2021.02.01 09:08:27] [0000m.00s.401ms] [1] SC[681]: UnRegistered sub-client [EEVM_EEVM_383394640] with ID [2] for session ID [681] host [Shina] user [Administrator] process ID [12952]
[2021.02.01 09:08:27] [0000m.00s.445ms] [1] CMT: There are [1] clients now: 681
[2021.02.01 09:08:29] [0000m.02s.478ms] [1] SC[681]: Registered sub-client [JobPrefsDBPI_6040953] with ID [3] for session ID [681] host [Shina] user [Administrator] process ID [12952]
[2021.02.01 09:08:29] [0000m.02s.487ms] [1] SC[681]: UnRegistered sub-client [JobPrefsDBPI_6040953] with ID [3] for session ID [681] host [Shina] user [Administrator] process ID [12952]
[2021.02.01 09:08:32] [0000m.05s.678ms] [1] SC[681]: Registered sub-client [JobPrefsDBPI_6044156] with ID [4] for session ID [681] host [Shina] user [Administrator] process ID [12952]
[2021.02.01 09:08:32] [0000m.05s.683ms] [1] SC[681]: UnRegistered sub-client [JobPrefsDBPI_6044156] with ID [4] for session ID [681] host [Shina] user [Administrator] process ID [12952]
[2021.02.01 09:08:36] [0000m.09s.691ms] [1] PrjBackupMgr: Successfully created Project Backup [D:\PD-Master\Mas\Mas100n1 ACB_0001_0\ProjectBackup\backups\2021-02-01 09.08.27 - auto.zip] with GUID [f95b-7331-7faf-8674-bf6b-7101-07b7-1060-5c38-a683-0339-89a8]
[2021.02.01 09:08:36] [0000m.09s.692ms] [0] PrjBackupMgr: Removing excessive backup:  BackupGUID[727f-51f2-cee5-0342-95e0-010f-5e00-1060-b0c8-2383-2339-89a8] CreationTime[Tuesday, January 26, 2021 12:43:05] Type[Autosave] Creator[iCDB Server (2021-01-26 13.43.04-13188)] ApplicationName[iCDB Server (2021-01-26 13.43.04-13188)] UserName[Administrator] MachineName[SHINA] Description[Autosave] FullFlowName[PADS Pro Tools VX.2.7; PADS Pro Tools VX.2.7 - Update 7] FlowId[PADSProVX.2.7] GBSInstallId[2125238; 2239435] GBSBuildId[17235852] IcdbVersion[3800] ReferenceLogFilePath[] BackupFilePath[D:\PD-Master\Mas\Mas100n1 ACB_0001_0\ProjectBackup\backups\2021-01-26 13.43.05 - auto.zip] BackupFileSize[82367947] Persistent[FALSE]
[2021.02.01 09:08:36] [0000m.09s.692ms] [0] PrjBackupMgr: Project Backup file [D:\PD-Master\Mas\Mas100n1 ACB_0001_0\ProjectBackup\backups\2021-01-26 13.43.05 - auto.zip] with GUID [727f-51f2-cee5-0342-95e0-010f-5e00-1060-b0c8-2383-2339-89a8] removed
[2021.02.01 09:08:36] [0000m.09s.692ms] [0] PrjBackupEngine: Successfully created backup:  BackupGUID[f95b-7331-7faf-8674-bf6b-7101-07b7-1060-5c38-a683-0339-89a8] CreationTime[Monday, February 01, 2021 08:08:27] Type[Autosave] Creator[iCDB Server (2021-02-01 09.08.26-15408)] ApplicationName[iCDB Server (2021-02-01 09.08.26-15408)] UserName[Administrator] MachineName[SHINA] Description[Autosave] FullFlowName[PADS Pro Tools VX.2.7; PADS Pro Tools VX.2.7 - Update 7] FlowId[PADSProVX.2.7] GBSInstallId[2125238; 2239435] GBSBuildId[17235852] IcdbVersion[3800] ReferenceLogFilePath[] BackupFilePath[D:\PD-Master\Mas\Mas100n1 ACB_0001_0\ProjectBackup\backups\2021-02-01 09.08.27 - auto.zip] BackupFileSize[92006129] Persistent[FALSE]
[2021.02.01 09:08:38] [0000m.11s.884ms] [1] SC[681]: Registered sub-client [JobPrefsDBPI_6050359] with ID [5] for session ID [681] host [Shina] user [Administrator] process ID [12952]
[2021.02.01 09:08:38] [0000m.11s.917ms] [1] SC[681]: UnRegistered sub-client [JobPrefsDBPI_6050359] with ID [5] for session ID [681] host [Shina] user [Administrator] process ID [12952]
[2021.02.01 09:08:39] [0000m.12s.206ms] [1] SC[681]: Registered sub-client [JobPrefsDBPI_6050671] with ID [6] for session ID [681] host [Shina] user [Administrator] process ID [12952]
[2021.02.01 09:08:39] [0000m.12s.240ms] [1] SC[681]: UnRegistered sub-client [JobPrefsDBPI_6050671] with ID [6] for session ID [681] host [Shina] user [Administrator] process ID [12952]
[2021.02.01 09:08:39] [0000m.12s.317ms] [1] SC[681]: Registered sub-client [ExpeditionCrossProber] with ID [7] for session ID [681] host [Shina] user [Administrator] process ID [12952]
[2021.02.01 09:08:39] [0000m.12s.321ms] [1] SC[681]: Registered sub-client [StartServerClient3cf4] with ID [8] for session ID [681] host [Shina] user [Administrator] process ID [12952]
[2021.02.01 09:08:39] [0000m.12s.322ms] [1] SC[681]: UnRegistered sub-client [StartServerClient3cf4] with ID [8] for session ID [681] host [Shina] user [Administrator] process ID [12952]
[2021.02.01 09:08:59] [0000m.32s.568ms] [0] DFAMT: File server access time: 49 us
[2021.02.01 10:05:15] [0056m.49s.005ms] [1] SDL: The last connected iCDB Server Monitor [1] is waiting for server close
[2021.02.01 10:05:15] [0056m.49s.006ms] [1] DMT: Removed iCDB Server Monitor [1]
[2021.02.01 10:05:34] [0057m.07s.253ms] [1] SC[681]: UnRegistered sub-client [ExpeditionCrossProber] with ID [7] for session ID [681] host [Shina] user [Administrator] process ID [12952]
[2021.02.01 10:05:35] [0057m.09s.005ms] [1] SC[681]: UnRegistered sub-client [Expedition PE_6038328] with ID [1] for session ID [681] host [Shina] user [Administrator] process ID [12952]
[2021.02.01 10:05:35] [0057m.09s.018ms] [1] CMT: Removed client [681]
[2021.02.01 10:05:35] [0057m.09s.018ms] [1] CMT: There are no clients left - waiting [1 seconds]
[2021.02.01 10:05:37] [0057m.10s.236ms] [0] CMT: Starting server auto-close
[2021.02.01 10:05:37] [0057m.10s.338ms] [0] S: Closing server
[2021.02.01 10:05:37] [0057m.10s.511ms] [0] iCDB Server PI: Closing plugins
[2021.02.01 10:05:37] [0057m.10s.511ms] [0] iCDB Server PI: Plugins closed
[2021.02.01 10:05:37] [0057m.10s.511ms] [0] iCDB Server PI: Unloading database
[2021.02.01 10:05:37] [0057m.10s.511ms] [0] iCDB Server PI: Saving storage
[2021.02.01 10:05:37] [0057m.10s.512ms] [0] iCDB Server PI: Closing database
[2021.02.01 10:05:37] [0057m.10s.734ms] [1] iCDB Server PI: Stats: Database defragmentation: max[3] avg[1] holes[0%] data[98%]
[2021.02.01 10:05:37] [0057m.10s.734ms] [1] iCDB Server PI: Stats: Database file size [161040 (157.3 kB)]
[2021.02.01 10:05:37] [0057m.10s.776ms] [0] iCDB Server PI: Database closed
[2021.02.01 10:05:37] [0057m.10s.776ms] [1] iCDB Server PI: Stats: Total iCDB execution time: [34167] ticks
[2021.02.01 10:05:37] [0057m.10s.776ms] [1] iCDB Server PI: Stats: Total iCDB execution time: [3416] microseconds
[2021.02.01 10:05:37] [0057m.10s.776ms] [1] iCDB Server PI: Stats: Total iCDB commands count: [54]
[2021.02.01 10:05:37] [0057m.10s.776ms] [1] iCDB Server PI: Stats: Average iCDB speed:        [15804] commands per second
[2021.02.01 10:05:37] [0057m.10s.776ms] [1] iCDB Server PI: Stats: Mem[15286272]
[2021.02.01 10:05:37] [0057m.10s.776ms] [1] iCDB Server PI: Stats: MemPeak[34983936]
[2021.02.01 10:05:37] [0057m.10s.776ms] [0] Single file [D:\PD-Master\Mas\Mas100n1 ACB_0001_0\keyin.icdb\icdb.dat] closed with size [161040 (157.3 kB)]
[2021.02.01 10:05:37] [0057m.10s.959ms] [0] MWT: Destroy the shutdown block reason.
[2021.02.01 10:05:37] [0057m.10s.961ms] [0] MWT: STOP
[2021.02.01 10:05:37] [0057m.10s.962ms] [0] S: STOP
